v 20130925 2
C 40000 40000 0 0 0 title-B.sym
C 47700 48500 1 270 0 capacitor-1.sym
{
T 48400 48300 5 10 0 0 270 0 1
device=CAPACITOR
T 47600 48400 5 10 1 1 180 0 1
refdes=C_Antena
T 48600 48300 5 10 0 0 270 0 1
symversion=0.1
}
C 46400 48700 1 0 0 inductor-1.sym
{
T 46600 49200 5 10 0 0 0 0 1
device=INDUCTOR
T 46600 49000 5 10 1 1 0 0 1
refdes=L_Antena
T 46600 49400 5 10 0 0 0 0 1
symversion=0.1
}
C 46300 46900 1 0 0 gnd-1.sym
C 49100 47600 1 90 0 capacitor-variable-1.sym
{
T 48400 47800 5 10 0 0 90 0 1
device=VARIABLE_CAPACITOR
T 49400 47300 5 10 1 1 90 0 1
refdes=C_Distancia Cuerpo
T 48200 47800 5 10 0 0 90 0 1
symversion=0.1
}
N 48900 48400 48900 48800 4
N 48900 48800 47300 48800 4
N 47900 48500 47900 48800 4
N 45900 47200 48900 47200 4
N 48900 47200 48900 47600 4
N 47900 47600 47900 47200 4
C 45100 48700 1 0 0 input-1.sym
{
T 45100 49000 5 10 0 0 0 0 1
device=INPUT
}
C 45100 47100 1 0 0 input-1.sym
{
T 45100 47400 5 10 0 0 0 0 1
device=INPUT
}
N 45900 48800 46400 48800 4
T 45000 47900 4 10 1 0 0 0 1
Z ANTENA
L 45500 48200 45500 48600 3 0 0 0 -1 -1
L 45500 48600 45600 48500 3 0 0 0 -1 -1
L 45400 48500 45500 48600 3 0 0 0 -1 -1
L 45500 47400 45500 47800 3 0 0 0 -1 -1
L 45500 47400 45600 47500 3 0 0 0 -1 -1
L 45500 47400 45400 47500 3 0 0 0 -1 -1
