%!PS-Adobe-3.0 EPSF-3.0
%%Creator: nutmeg
%%BoundingBox: 54 54 612 612
1 1 scale
1.000 1.000 1.000 setrgbcolor
newpath
54 54 moveto 612 54 lineto
612 612 lineto 54 612 lineto
closepath fill
/Helvetica findfont 10 scalefont setfont

0.000 0.000 0.000 setrgbcolor
0.502 0.502 0.502 setrgbcolor
0.000 0.000 0.000 setrgbcolor
0.000 0.000 0.000 setrgbcolor
243 66 moveto
(time) show
0.000 0.000 0.000 setrgbcolor
0.502 0.502 0.502 setrgbcolor
newpath
84 104 moveto
84 545 lineto
stroke
0.000 0.000 0.000 setrgbcolor
0.000 0.000 0.000 setrgbcolor
66 87 moveto
(8.0080) show
0.000 0.000 0.000 setrgbcolor
0.502 0.502 0.502 setrgbcolor
newpath
144 104 moveto
144 545 lineto
stroke
0.000 0.000 0.000 setrgbcolor
0.000 0.000 0.000 setrgbcolor
126 87 moveto
(8.0090) show
0.000 0.000 0.000 setrgbcolor
0.502 0.502 0.502 setrgbcolor
newpath
204 104 moveto
204 545 lineto
stroke
0.000 0.000 0.000 setrgbcolor
0.000 0.000 0.000 setrgbcolor
186 87 moveto
(8.0100) show
0.000 0.000 0.000 setrgbcolor
0.502 0.502 0.502 setrgbcolor
newpath
264 104 moveto
264 545 lineto
stroke
0.000 0.000 0.000 setrgbcolor
0.000 0.000 0.000 setrgbcolor
246 87 moveto
(8.0110) show
0.000 0.000 0.000 setrgbcolor
0.502 0.502 0.502 setrgbcolor
newpath
324 104 moveto
324 545 lineto
stroke
0.000 0.000 0.000 setrgbcolor
0.000 0.000 0.000 setrgbcolor
306 87 moveto
(8.0120) show
0.000 0.000 0.000 setrgbcolor
0.502 0.502 0.502 setrgbcolor
newpath
384 104 moveto
384 545 lineto
stroke
0.000 0.000 0.000 setrgbcolor
0.000 0.000 0.000 setrgbcolor
366 87 moveto
(8.0130) show
0.000 0.000 0.000 setrgbcolor
0.502 0.502 0.502 setrgbcolor
newpath
444 104 moveto
444 545 lineto
stroke
0.000 0.000 0.000 setrgbcolor
0.000 0.000 0.000 setrgbcolor
426 87 moveto
(8.0140) show
0.000 0.000 0.000 setrgbcolor
0.502 0.502 0.502 setrgbcolor
newpath
504 104 moveto
504 545 lineto
stroke
0.000 0.000 0.000 setrgbcolor
0.000 0.000 0.000 setrgbcolor
486 87 moveto
(8.0150) show
0.000 0.000 0.000 setrgbcolor
0.502 0.502 0.502 setrgbcolor
newpath
564 104 moveto
564 545 lineto
stroke
0.000 0.000 0.000 setrgbcolor
0.000 0.000 0.000 setrgbcolor
546 87 moveto
(8.0160) show
0.000 0.000 0.000 setrgbcolor
0.502 0.502 0.502 setrgbcolor
0.000 0.000 0.000 setrgbcolor
0.000 0.000 0.000 setrgbcolor
382 66 moveto
(ms) show
0.000 0.000 0.000 setrgbcolor
0.502 0.502 0.502 setrgbcolor
newpath
84 104 moveto
564 104 lineto
stroke
0.000 0.000 0.000 setrgbcolor
0.000 0.000 0.000 setrgbcolor
60 101 moveto
(-2.0) show
0.000 0.000 0.000 setrgbcolor
0.502 0.502 0.502 setrgbcolor
0.000 0.000 0.000 setrgbcolor
newpath
84 167 moveto
564 167 lineto
stroke
0.502 0.502 0.502 setrgbcolor
0.000 0.000 0.000 setrgbcolor
0.000 0.000 0.000 setrgbcolor
66 164 moveto
(0.0) show
0.000 0.000 0.000 setrgbcolor
0.502 0.502 0.502 setrgbcolor
newpath
84 230 moveto
564 230 lineto
stroke
0.000 0.000 0.000 setrgbcolor
0.000 0.000 0.000 setrgbcolor
66 227 moveto
(2.0) show
0.000 0.000 0.000 setrgbcolor
0.502 0.502 0.502 setrgbcolor
newpath
84 293 moveto
564 293 lineto
stroke
0.000 0.000 0.000 setrgbcolor
0.000 0.000 0.000 setrgbcolor
66 290 moveto
(4.0) show
0.000 0.000 0.000 setrgbcolor
0.502 0.502 0.502 setrgbcolor
newpath
84 356 moveto
564 356 lineto
stroke
0.000 0.000 0.000 setrgbcolor
0.000 0.000 0.000 setrgbcolor
66 353 moveto
(6.0) show
0.000 0.000 0.000 setrgbcolor
0.502 0.502 0.502 setrgbcolor
newpath
84 419 moveto
564 419 lineto
stroke
0.000 0.000 0.000 setrgbcolor
0.000 0.000 0.000 setrgbcolor
66 416 moveto
(8.0) show
0.000 0.000 0.000 setrgbcolor
0.502 0.502 0.502 setrgbcolor
newpath
84 482 moveto
564 482 lineto
stroke
0.000 0.000 0.000 setrgbcolor
0.000 0.000 0.000 setrgbcolor
60 479 moveto
(10.0) show
0.000 0.000 0.000 setrgbcolor
0.502 0.502 0.502 setrgbcolor
newpath
84 545 moveto
564 545 lineto
stroke
0.000 0.000 0.000 setrgbcolor
0.000 0.000 0.000 setrgbcolor
60 542 moveto
(12.0) show
0.000 0.000 0.000 setrgbcolor
0.502 0.502 0.502 setrgbcolor
0.000 0.000 0.000 setrgbcolor
0.000 0.000 0.000 setrgbcolor
54 582 moveto
(V) show
0.000 0.000 0.000 setrgbcolor
0.502 0.502 0.502 setrgbcolor
1.000 0.000 0.000 setrgbcolor
newpath
288 586 moveto
312 586 lineto
stroke
0.000 0.000 0.000 setrgbcolor
0.000 0.000 0.000 setrgbcolor
318 582 moveto
(v(inputa)) show
0.000 0.000 0.000 setrgbcolor
1.000 0.000 0.000 setrgbcolor
newpath
86 167 moveto
92 168 lineto
98 168 lineto
104 168 lineto
110 168 lineto
116 168 lineto
122 168 lineto
128 168 lineto
134 168 lineto
140 168 lineto
146 168 lineto
152 168 lineto
158 168 lineto
164 168 lineto
170 168 lineto
176 167 lineto
182 167 lineto
188 167 lineto
194 167 lineto
200 167 lineto
206 167 lineto
212 167 lineto
218 167 lineto
224 167 lineto
230 167 lineto
236 167 lineto
242 166 lineto
248 166 lineto
254 166 lineto
260 166 lineto
266 166 lineto
272 166 lineto
278 166 lineto
284 166 lineto
290 166 lineto
296 166 lineto
302 166 lineto
308 166 lineto
314 166 lineto
320 166 lineto
326 167 lineto
332 167 lineto
338 167 lineto
344 167 lineto
350 167 lineto
356 167 lineto
362 167 lineto
368 167 lineto
374 167 lineto
380 167 lineto
386 167 lineto
392 168 lineto
398 168 lineto
404 168 lineto
410 168 lineto
416 168 lineto
422 168 lineto
428 168 lineto
434 168 lineto
440 168 lineto
446 168 lineto
452 168 lineto
458 168 lineto
464 168 lineto
470 168 lineto
476 167 lineto
482 167 lineto
488 167 lineto
494 167 lineto
500 167 lineto
506 167 lineto
512 167 lineto
518 167 lineto
524 167 lineto
530 167 lineto
536 167 lineto
542 166 lineto
548 166 lineto
554 166 lineto
560 166 lineto
564 166 lineto
stroke
1.000 0.200 0.200 setrgbcolor
newpath
84 586 moveto
108 586 lineto
stroke
0.000 0.000 0.000 setrgbcolor
0.000 0.000 0.000 setrgbcolor
114 582 moveto
(v(inputb)) show
0.000 0.000 0.000 setrgbcolor
1.000 0.200 0.200 setrgbcolor
newpath
86 167 moveto
92 166 lineto
98 166 lineto
104 166 lineto
110 166 lineto
116 166 lineto
122 166 lineto
128 166 lineto
134 166 lineto
140 166 lineto
146 166 lineto
152 166 lineto
158 166 lineto
164 166 lineto
170 166 lineto
176 167 lineto
182 167 lineto
188 167 lineto
194 167 lineto
200 167 lineto
206 167 lineto
212 167 lineto
218 167 lineto
224 167 lineto
230 167 lineto
236 167 lineto
242 168 lineto
248 168 lineto
254 168 lineto
260 168 lineto
266 168 lineto
272 168 lineto
278 168 lineto
284 168 lineto
290 168 lineto
296 168 lineto
302 168 lineto
308 168 lineto
314 168 lineto
320 168 lineto
326 167 lineto
332 167 lineto
338 167 lineto
344 167 lineto
350 167 lineto
356 167 lineto
362 167 lineto
368 167 lineto
374 167 lineto
380 167 lineto
386 167 lineto
392 166 lineto
398 166 lineto
404 166 lineto
410 166 lineto
416 166 lineto
422 166 lineto
428 166 lineto
434 166 lineto
440 166 lineto
446 166 lineto
452 166 lineto
458 166 lineto
464 166 lineto
470 166 lineto
476 167 lineto
482 167 lineto
488 167 lineto
494 167 lineto
500 167 lineto
506 167 lineto
512 167 lineto
518 167 lineto
524 167 lineto
530 167 lineto
536 167 lineto
542 168 lineto
548 168 lineto
554 168 lineto
560 168 lineto
564 168 lineto
stroke
1.000 0.400 0.400 setrgbcolor
newpath
288 572 moveto
312 572 lineto
stroke
0.000 0.000 0.000 setrgbcolor
0.000 0.000 0.000 setrgbcolor
318 568 moveto
(v(output)) show
0.000 0.000 0.000 setrgbcolor
1.000 0.400 0.400 setrgbcolor
newpath
86 507 moveto
92 496 lineto
98 482 lineto
104 465 lineto
110 446 lineto
116 426 lineto
122 403 lineto
128 379 lineto
134 355 lineto
140 329 lineto
146 304 lineto
152 278 lineto
158 253 lineto
164 229 lineto
170 207 lineto
176 186 lineto
182 168 lineto
188 154 lineto
194 143 lineto
200 137 lineto
206 136 lineto
212 139 lineto
218 146 lineto
224 158 lineto
230 174 lineto
236 193 lineto
242 214 lineto
248 237 lineto
254 261 lineto
260 286 lineto
266 312 lineto
272 338 lineto
278 363 lineto
284 387 lineto
290 411 lineto
296 433 lineto
302 454 lineto
308 472 lineto
314 489 lineto
320 502 lineto
326 513 lineto
332 520 lineto
338 523 lineto
344 524 lineto
350 525 lineto
356 525 lineto
362 524 lineto
368 524 lineto
374 523 lineto
380 519 lineto
386 512 lineto
392 501 lineto
398 487 lineto
404 471 lineto
410 453 lineto
416 432 lineto
422 410 lineto
428 386 lineto
434 362 lineto
440 337 lineto
446 312 lineto
452 286 lineto
458 261 lineto
464 237 lineto
470 215 lineto
476 195 lineto
482 177 lineto
488 163 lineto
494 152 lineto
500 146 lineto
506 144 lineto
512 147 lineto
518 155 lineto
524 167 lineto
530 182 lineto
536 201 lineto
542 222 lineto
548 245 lineto
554 269 lineto
560 294 lineto
564 313 lineto
stroke
0.000 1.000 0.000 setrgbcolor
newpath
84 572 moveto
108 572 lineto
stroke
0.000 0.000 0.000 setrgbcolor
0.000 0.000 0.000 setrgbcolor
114 568 moveto
(v(buffer_out)) show
0.000 0.000 0.000 setrgbcolor
0.000 1.000 0.000 setrgbcolor
newpath
86 167 moveto
92 167 lineto
98 167 lineto
104 167 lineto
110 167 lineto
116 167 lineto
122 167 lineto
128 167 lineto
134 167 lineto
140 167 lineto
146 167 lineto
152 167 lineto
158 167 lineto
164 167 lineto
170 167 lineto
176 167 lineto
182 167 lineto
188 167 lineto
194 167 lineto
200 167 lineto
206 167 lineto
212 167 lineto
218 167 lineto
224 167 lineto
230 167 lineto
236 167 lineto
242 167 lineto
248 167 lineto
254 167 lineto
260 167 lineto
266 167 lineto
272 167 lineto
278 167 lineto
284 167 lineto
290 167 lineto
296 167 lineto
302 167 lineto
308 167 lineto
314 167 lineto
320 167 lineto
326 167 lineto
332 167 lineto
338 167 lineto
344 167 lineto
350 167 lineto
356 167 lineto
362 167 lineto
368 167 lineto
374 167 lineto
380 167 lineto
386 167 lineto
392 167 lineto
398 167 lineto
404 167 lineto
410 167 lineto
416 167 lineto
422 167 lineto
428 167 lineto
434 167 lineto
440 167 lineto
446 167 lineto
452 167 lineto
458 167 lineto
464 167 lineto
470 167 lineto
476 167 lineto
482 167 lineto
488 167 lineto
494 167 lineto
500 167 lineto
506 167 lineto
512 167 lineto
518 167 lineto
524 167 lineto
530 167 lineto
536 167 lineto
542 167 lineto
548 167 lineto
554 167 lineto
560 167 lineto
564 167 lineto
stroke
showpage
%%EOF
