%!PS-Adobe-3.0 EPSF-3.0
%%Creator: nutmeg
%%BoundingBox: 54 54 612 612
1 1 scale
1.000 1.000 1.000 setrgbcolor
newpath
54 54 moveto 612 54 lineto
612 612 lineto 54 612 lineto
closepath fill
/Helvetica findfont 10 scalefont setfont

0.000 0.000 0.000 setrgbcolor
0.502 0.502 0.502 setrgbcolor
0.000 0.000 0.000 setrgbcolor
0.000 0.000 0.000 setrgbcolor
243 66 moveto
(time) show
0.000 0.000 0.000 setrgbcolor
0.502 0.502 0.502 setrgbcolor
newpath
78 104 moveto
78 545 lineto
stroke
0.000 0.000 0.000 setrgbcolor
0.000 0.000 0.000 setrgbcolor
60 87 moveto
(8.0080) show
0.000 0.000 0.000 setrgbcolor
0.502 0.502 0.502 setrgbcolor
newpath
140 104 moveto
140 545 lineto
stroke
0.000 0.000 0.000 setrgbcolor
0.000 0.000 0.000 setrgbcolor
122 87 moveto
(8.0090) show
0.000 0.000 0.000 setrgbcolor
0.502 0.502 0.502 setrgbcolor
newpath
202 104 moveto
202 545 lineto
stroke
0.000 0.000 0.000 setrgbcolor
0.000 0.000 0.000 setrgbcolor
184 87 moveto
(8.0100) show
0.000 0.000 0.000 setrgbcolor
0.502 0.502 0.502 setrgbcolor
newpath
264 104 moveto
264 545 lineto
stroke
0.000 0.000 0.000 setrgbcolor
0.000 0.000 0.000 setrgbcolor
246 87 moveto
(8.0110) show
0.000 0.000 0.000 setrgbcolor
0.502 0.502 0.502 setrgbcolor
newpath
326 104 moveto
326 545 lineto
stroke
0.000 0.000 0.000 setrgbcolor
0.000 0.000 0.000 setrgbcolor
308 87 moveto
(8.0120) show
0.000 0.000 0.000 setrgbcolor
0.502 0.502 0.502 setrgbcolor
newpath
388 104 moveto
388 545 lineto
stroke
0.000 0.000 0.000 setrgbcolor
0.000 0.000 0.000 setrgbcolor
370 87 moveto
(8.0130) show
0.000 0.000 0.000 setrgbcolor
0.502 0.502 0.502 setrgbcolor
newpath
450 104 moveto
450 545 lineto
stroke
0.000 0.000 0.000 setrgbcolor
0.000 0.000 0.000 setrgbcolor
432 87 moveto
(8.0140) show
0.000 0.000 0.000 setrgbcolor
0.502 0.502 0.502 setrgbcolor
newpath
512 104 moveto
512 545 lineto
stroke
0.000 0.000 0.000 setrgbcolor
0.000 0.000 0.000 setrgbcolor
494 87 moveto
(8.0150) show
0.000 0.000 0.000 setrgbcolor
0.502 0.502 0.502 setrgbcolor
newpath
574 104 moveto
574 545 lineto
stroke
0.000 0.000 0.000 setrgbcolor
0.000 0.000 0.000 setrgbcolor
556 87 moveto
(8.0160) show
0.000 0.000 0.000 setrgbcolor
0.502 0.502 0.502 setrgbcolor
0.000 0.000 0.000 setrgbcolor
0.000 0.000 0.000 setrgbcolor
382 66 moveto
(ms) show
0.000 0.000 0.000 setrgbcolor
0.502 0.502 0.502 setrgbcolor
newpath
78 104 moveto
574 104 lineto
stroke
0.000 0.000 0.000 setrgbcolor
0.000 0.000 0.000 setrgbcolor
54 101 moveto
(-7.0) show
0.000 0.000 0.000 setrgbcolor
0.502 0.502 0.502 setrgbcolor
newpath
78 167 moveto
574 167 lineto
stroke
0.000 0.000 0.000 setrgbcolor
0.000 0.000 0.000 setrgbcolor
54 164 moveto
(-6.0) show
0.000 0.000 0.000 setrgbcolor
0.502 0.502 0.502 setrgbcolor
newpath
78 230 moveto
574 230 lineto
stroke
0.000 0.000 0.000 setrgbcolor
0.000 0.000 0.000 setrgbcolor
54 227 moveto
(-5.0) show
0.000 0.000 0.000 setrgbcolor
0.502 0.502 0.502 setrgbcolor
newpath
78 293 moveto
574 293 lineto
stroke
0.000 0.000 0.000 setrgbcolor
0.000 0.000 0.000 setrgbcolor
54 290 moveto
(-4.0) show
0.000 0.000 0.000 setrgbcolor
0.502 0.502 0.502 setrgbcolor
newpath
78 356 moveto
574 356 lineto
stroke
0.000 0.000 0.000 setrgbcolor
0.000 0.000 0.000 setrgbcolor
54 353 moveto
(-3.0) show
0.000 0.000 0.000 setrgbcolor
0.502 0.502 0.502 setrgbcolor
newpath
78 419 moveto
574 419 lineto
stroke
0.000 0.000 0.000 setrgbcolor
0.000 0.000 0.000 setrgbcolor
54 416 moveto
(-2.0) show
0.000 0.000 0.000 setrgbcolor
0.502 0.502 0.502 setrgbcolor
newpath
78 482 moveto
574 482 lineto
stroke
0.000 0.000 0.000 setrgbcolor
0.000 0.000 0.000 setrgbcolor
54 479 moveto
(-1.0) show
0.000 0.000 0.000 setrgbcolor
0.502 0.502 0.502 setrgbcolor
0.000 0.000 0.000 setrgbcolor
newpath
78 545 moveto
574 545 lineto
stroke
0.502 0.502 0.502 setrgbcolor
0.000 0.000 0.000 setrgbcolor
0.000 0.000 0.000 setrgbcolor
60 542 moveto
(0.0) show
0.000 0.000 0.000 setrgbcolor
0.502 0.502 0.502 setrgbcolor
0.000 0.000 0.000 setrgbcolor
0.000 0.000 0.000 setrgbcolor
54 582 moveto
(kV) show
0.000 0.000 0.000 setrgbcolor
0.502 0.502 0.502 setrgbcolor
1.000 0.000 0.000 setrgbcolor
newpath
296 586 moveto
320 586 lineto
stroke
0.000 0.000 0.000 setrgbcolor
0.000 0.000 0.000 setrgbcolor
326 582 moveto
(v(output)) show
0.000 0.000 0.000 setrgbcolor
1.000 0.000 0.000 setrgbcolor
newpath
80 545 moveto
86 545 lineto
92 545 lineto
98 545 lineto
105 545 lineto
111 545 lineto
117 545 lineto
123 545 lineto
129 545 lineto
136 545 lineto
142 545 lineto
148 545 lineto
154 545 lineto
160 545 lineto
167 545 lineto
173 545 lineto
179 545 lineto
185 545 lineto
191 545 lineto
198 545 lineto
204 545 lineto
210 545 lineto
216 545 lineto
222 545 lineto
229 545 lineto
235 545 lineto
241 545 lineto
247 545 lineto
253 545 lineto
260 545 lineto
266 545 lineto
272 545 lineto
278 545 lineto
284 545 lineto
291 545 lineto
297 545 lineto
303 545 lineto
309 545 lineto
315 545 lineto
322 545 lineto
328 545 lineto
334 545 lineto
340 545 lineto
346 545 lineto
353 545 lineto
359 545 lineto
365 545 lineto
371 545 lineto
377 545 lineto
384 545 lineto
390 545 lineto
396 545 lineto
402 545 lineto
408 545 lineto
415 545 lineto
421 545 lineto
427 545 lineto
433 545 lineto
439 545 lineto
446 545 lineto
452 545 lineto
458 545 lineto
464 545 lineto
470 545 lineto
477 545 lineto
483 545 lineto
489 545 lineto
495 545 lineto
501 545 lineto
508 545 lineto
514 545 lineto
520 545 lineto
526 545 lineto
532 545 lineto
539 545 lineto
545 545 lineto
551 545 lineto
557 545 lineto
563 545 lineto
570 545 lineto
574 545 lineto
stroke
0.000 0.000 1.000 setrgbcolor
newpath
78 586 moveto
102 586 lineto
stroke
0.000 0.000 0.000 setrgbcolor
0.000 0.000 0.000 setrgbcolor
108 582 moveto
(v(buffer_in)) show
0.000 0.000 0.000 setrgbcolor
0.000 0.000 1.000 setrgbcolor
newpath
80 138 moveto
86 138 lineto
92 138 lineto
98 138 lineto
105 138 lineto
111 138 lineto
117 138 lineto
123 138 lineto
129 138 lineto
136 138 lineto
142 138 lineto
148 138 lineto
154 138 lineto
160 138 lineto
167 138 lineto
173 138 lineto
179 138 lineto
185 138 lineto
191 138 lineto
198 138 lineto
204 138 lineto
210 138 lineto
216 138 lineto
222 138 lineto
229 138 lineto
235 138 lineto
241 138 lineto
247 138 lineto
253 138 lineto
260 138 lineto
266 138 lineto
272 138 lineto
278 138 lineto
284 138 lineto
291 138 lineto
297 138 lineto
303 138 lineto
309 138 lineto
315 138 lineto
322 138 lineto
328 138 lineto
334 138 lineto
340 138 lineto
346 138 lineto
353 138 lineto
359 138 lineto
365 138 lineto
371 138 lineto
377 138 lineto
384 138 lineto
390 138 lineto
396 138 lineto
402 138 lineto
408 138 lineto
415 138 lineto
421 138 lineto
427 138 lineto
433 138 lineto
439 138 lineto
446 138 lineto
452 138 lineto
458 138 lineto
464 138 lineto
470 138 lineto
477 138 lineto
483 138 lineto
489 138 lineto
495 138 lineto
501 138 lineto
508 138 lineto
514 138 lineto
520 138 lineto
526 138 lineto
532 138 lineto
539 138 lineto
545 138 lineto
551 138 lineto
557 138 lineto
563 138 lineto
570 138 lineto
574 138 lineto
stroke
0.000 1.000 0.000 setrgbcolor
newpath
296 572 moveto
320 572 lineto
stroke
0.000 0.000 0.000 setrgbcolor
0.000 0.000 0.000 setrgbcolor
326 568 moveto
(v(buffer_out)) show
0.000 0.000 0.000 setrgbcolor
0.000 1.000 0.000 setrgbcolor
newpath
80 545 moveto
86 545 lineto
92 545 lineto
98 545 lineto
105 545 lineto
111 545 lineto
117 545 lineto
123 545 lineto
129 545 lineto
136 545 lineto
142 545 lineto
148 545 lineto
154 545 lineto
160 545 lineto
167 545 lineto
173 545 lineto
179 545 lineto
185 545 lineto
191 545 lineto
198 545 lineto
204 545 lineto
210 545 lineto
216 545 lineto
222 545 lineto
229 545 lineto
235 545 lineto
241 545 lineto
247 545 lineto
253 545 lineto
260 545 lineto
266 545 lineto
272 545 lineto
278 545 lineto
284 545 lineto
291 545 lineto
297 545 lineto
303 545 lineto
309 545 lineto
315 545 lineto
322 545 lineto
328 545 lineto
334 545 lineto
340 545 lineto
346 545 lineto
353 545 lineto
359 545 lineto
365 545 lineto
371 545 lineto
377 545 lineto
384 545 lineto
390 545 lineto
396 545 lineto
402 545 lineto
408 545 lineto
415 545 lineto
421 545 lineto
427 545 lineto
433 545 lineto
439 545 lineto
446 545 lineto
452 545 lineto
458 545 lineto
464 545 lineto
470 545 lineto
477 545 lineto
483 545 lineto
489 545 lineto
495 545 lineto
501 545 lineto
508 545 lineto
514 545 lineto
520 545 lineto
526 545 lineto
532 545 lineto
539 545 lineto
545 545 lineto
551 545 lineto
557 545 lineto
563 545 lineto
570 545 lineto
574 545 lineto
stroke
showpage
%%EOF
