v 20130925 2
C 40000 40000 0 0 0 title-B.sym
C 41800 41500 1 0 0 npn-2.sym
{
T 42400 42000 5 10 0 0 0 0 1
device=NPN_TRANSISTOR
T 42400 42000 5 10 1 1 0 0 1
refdes=Q?
}
C 41400 41500 1 0 1 npn-2.sym
{
T 40800 42000 5 10 0 0 0 6 1
device=NPN_TRANSISTOR
T 40800 42000 5 10 1 1 0 6 1
refdes=Q?
}
C 42400 50400 1 180 0 pnp-2.sym
{
T 41800 50000 5 10 0 0 180 0 1
device=PNP_TRANSISTOR
T 41800 49900 5 10 1 1 180 0 1
refdes=Q?
}
C 41800 42900 1 0 0 npn-2.sym
{
T 42400 43400 5 10 0 0 0 0 1
device=NPN_TRANSISTOR
T 42400 43400 5 10 1 1 0 0 1
refdes=Q?
}
C 42900 41500 1 0 0 npn-2.sym
{
T 43500 42000 5 10 0 0 0 0 1
device=NPN_TRANSISTOR
T 43500 42000 5 10 1 1 0 0 1
refdes=Q?
}
N 41400 42000 41800 42000 4
N 42300 42500 42300 42900 4
N 42300 42700 41600 42700 4
N 41600 42700 41600 42000 4
N 42900 42000 41600 42000 4
C 43200 44300 1 0 1 npn-2.sym
{
T 42600 44800 5 10 0 0 0 6 1
device=NPN_TRANSISTOR
T 42600 44800 5 10 1 1 0 6 1
refdes=Q?
}
C 41400 44300 1 0 0 npn-2.sym
{
T 42000 44800 5 10 0 0 0 0 1
device=NPN_TRANSISTOR
T 42000 44800 5 10 1 1 0 0 1
refdes=Q?
}
N 42300 43900 42300 44100 4
N 42700 44300 42700 44100 4
N 41900 44100 42700 44100 4
N 41900 44300 41900 44100 4
C 43900 45100 1 0 1 npn-2.sym
{
T 43300 45600 5 10 0 0 0 6 1
device=NPN_TRANSISTOR
T 43300 45600 5 10 1 1 0 6 1
refdes=Q?
}
C 40700 45100 1 0 0 npn-2.sym
{
T 41300 45600 5 10 0 0 0 0 1
device=NPN_TRANSISTOR
T 41300 45600 5 10 1 1 0 0 1
refdes=Q?
}
N 43200 44800 44100 44800 4
N 41400 44800 40700 44800 4
N 41200 45100 41200 44800 4
N 43400 45100 43400 44800 4
N 41200 46100 41200 46500 4
N 40500 46500 43400 46500 4
N 43400 46500 43400 46100 4
N 40700 45600 40500 45600 4
N 40500 45600 40500 46300 4
N 40500 46300 41200 46300 4
N 43900 45600 44100 45600 4
N 44100 45600 44100 46300 4
N 44100 46300 43400 46300 4
C 42800 50400 1 180 1 pnp-2.sym
{
T 43400 50000 5 10 0 0 180 6 1
device=PNP_TRANSISTOR
T 43400 49900 5 10 1 1 180 6 1
refdes=Q?
}
N 42800 49900 42400 49900 4
C 42800 49200 1 180 1 pnp-2.sym
{
T 43400 48800 5 10 0 0 180 6 1
device=PNP_TRANSISTOR
T 43400 48700 5 10 1 1 180 6 1
refdes=Q?
}
N 43300 49200 43300 49400 4
N 43300 49300 42600 49300 4
N 42600 49300 42600 49900 4
N 41900 45300 41900 49400 4
N 41800 43400 40700 43400 4
N 40900 42500 40900 43400 4
C 45700 41700 1 0 0 npn-2.sym
{
T 46300 42200 5 10 0 0 0 0 1
device=NPN_TRANSISTOR
T 46300 42200 5 10 1 1 0 0 1
refdes=Q?
}
C 45300 41700 1 0 1 npn-2.sym
{
T 44700 42200 5 10 0 0 0 6 1
device=NPN_TRANSISTOR
T 44700 42200 5 10 1 1 0 6 1
refdes=Q?
}
C 45700 43100 1 0 0 npn-2.sym
{
T 46300 43600 5 10 0 0 0 0 1
device=NPN_TRANSISTOR
T 46300 43600 5 10 1 1 0 0 1
refdes=Q?
}
N 45300 42200 45700 42200 4
N 46200 42700 46200 43100 4
N 46200 42900 45500 42900 4
N 45500 42900 45500 42200 4
N 45700 43600 44800 43600 4
N 44800 42700 44800 46900 4
N 40900 41500 40900 41300 4
N 40900 41300 42300 41300 4
N 42300 41300 42300 41500 4
C 45300 50400 1 180 0 pnp-2.sym
{
T 44700 50000 5 10 0 0 180 0 1
device=PNP_TRANSISTOR
T 44700 49900 5 10 1 1 180 0 1
refdes=Q?
}
C 45700 50400 1 180 1 pnp-2.sym
{
T 46300 50000 5 10 0 0 180 6 1
device=PNP_TRANSISTOR
T 46300 49900 5 10 1 1 180 6 1
refdes=Q?
}
N 45700 49900 45300 49900 4
C 45700 49200 1 180 1 pnp-2.sym
{
T 46300 48800 5 10 0 0 180 6 1
device=PNP_TRANSISTOR
T 46300 48700 5 10 1 1 180 6 1
refdes=Q?
}
N 46200 49200 46200 49400 4
N 46200 49300 45500 49300 4
N 45500 49300 45500 49900 4
N 46200 44100 46200 48200 4
C 47400 45900 1 0 0 npn-2.sym
{
T 48000 46400 5 10 0 0 0 0 1
device=NPN_TRANSISTOR
T 48000 46400 5 10 1 1 0 0 1
refdes=Q?
}
C 48400 45000 1 0 0 npn-2.sym
{
T 49000 45500 5 10 0 0 0 0 1
device=NPN_TRANSISTOR
T 49000 45500 5 10 1 1 0 0 1
refdes=Q?
}
N 48400 45500 47900 45500 4
N 47900 44600 47900 45900 4
C 47700 47400 1 0 0 vcc-1.sym
N 47900 46900 47900 47400 4
C 48700 46400 1 0 0 vcc-1.sym
N 48900 46400 48900 46000 4
C 42500 50600 1 0 0 vcc-1.sym
C 45300 50600 1 0 0 vcc-1.sym
N 45500 50600 45500 50400 4
N 44800 50400 46200 50400 4
N 42700 50600 42700 50400 4
N 41900 50400 43300 50400 4
N 42700 45300 42700 47300 4
N 42700 47300 44800 47300 4
N 44800 47300 44800 49400 4
N 45700 48700 44800 48700 4
N 43300 48200 43300 46900 4
N 43300 46900 44800 46900 4
C 41800 41100 1 180 0 vee-1.sym
N 41600 41100 41600 41300 4
C 43600 41200 1 180 0 vee-1.sym
N 43400 41200 43400 41500 4
N 44800 41700 44800 41300 4
N 44800 41300 46200 41300 4
N 46200 41300 46200 41700 4
C 45700 41200 1 180 0 vee-1.sym
N 45500 41200 45500 41300 4
N 43400 42500 43400 44600 4
N 43400 44600 47900 44600 4
N 47400 46400 46900 46400 4
T 46700 46500 9 10 1 0 0 0 2
Buffer
InPut
N 48900 45000 48900 44600 4
T 48300 44600 9 10 1 0 0 0 2
Buffer
OutPut
T 46500 45100 9 10 1 0 0 0 2
Buffer
OutPut
N 46200 45500 47000 45500 4
T 44100 44900 9 10 1 0 0 0 1
+ Input
T 40400 44900 9 10 1 0 0 0 1
- Input
T 40700 43500 9 10 1 0 0 0 1
BIAS
T 40600 46600 9 10 1 0 0 0 1
BIAS
N 42800 48700 41900 48700 4
