v 20130925 2
C 40000 40000 0 0 0 title-B.sym
C 44900 48100 1 90 0 inductor-1.sym
{
T 44400 48300 5 10 0 0 90 0 1
device=INDUCTOR
T 44200 48300 5 10 0 0 90 0 1
symversion=0.1
T 45200 48100 5 10 1 1 90 0 1
refdes=L_Variable
}
C 44400 48100 1 90 0 capacitor-1.sym
{
T 43700 48300 5 10 0 0 90 0 1
device=CAPACITOR
T 43500 48300 5 10 0 0 90 0 1
symversion=0.1
T 43900 48200 5 10 1 1 90 0 1
refdes=C_Variable
}
L 44500 48300 45000 48800 3 0 0 0 -1 -1
L 45000 48800 45000 48700 3 0 0 0 -1 -1
L 45000 48800 44900 48800 3 0 0 0 -1 -1
L 44000 48300 44400 48800 3 0 0 0 -1 -1
L 44400 48800 44400 48700 3 0 0 0 -1 -1
L 44400 48800 44300 48800 3 0 0 0 -1 -1
C 44200 46200 1 0 0 npn-3.sym
{
T 45100 46700 5 10 0 0 0 0 1
device=NPN_TRANSISTOR
T 45100 46700 5 10 1 1 0 0 1
refdes=Q1
}
C 46700 46200 1 0 1 npn-3.sym
{
T 45800 46700 5 10 0 0 0 6 1
device=NPN_TRANSISTOR
T 45800 46700 5 10 1 1 0 6 1
refdes=Q2
}
N 44800 48100 44800 47200 4
N 44800 48000 44100 48000 4
N 44200 48000 44200 48100 4
C 44000 45700 1 90 0 resistor-1.sym
{
T 43600 46000 5 10 0 0 90 0 1
device=RESISTOR
T 43700 45900 5 10 1 1 90 0 1
refdes=Rqb
}
N 44200 46700 43900 46700 4
N 43900 46700 43900 46600 4
C 43800 45300 1 0 0 gnd-1.sym
N 43900 45600 43900 45700 4
C 45700 44800 1 180 0 vee-1.sym
C 45600 45000 1 90 0 resistor-1.sym
{
T 45200 45300 5 10 0 0 90 0 1
device=RESISTOR
T 45300 45200 5 10 1 1 90 0 1
refdes=R_cola
}
N 46100 46200 46100 46000 4
N 44800 46000 46100 46000 4
N 44800 46000 44800 46200 4
N 45500 45900 45500 46000 4
N 45500 44800 45500 45000 4
C 47200 46900 1 90 0 resistor-1.sym
{
T 46800 47200 5 10 0 0 90 0 1
device=RESISTOR
T 46900 47100 5 10 1 1 90 0 1
refdes=Rq22
}
C 47200 45500 1 90 0 resistor-1.sym
{
T 46800 45800 5 10 0 0 90 0 1
device=RESISTOR
T 46900 45700 5 10 1 1 90 0 1
refdes=Rq21
}
C 47000 45000 1 0 0 gnd-1.sym
N 47100 45300 47100 45500 4
N 47100 46400 47100 46900 4
N 46700 46700 47100 46700 4
N 47100 47800 47100 48000 4
C 45900 49600 1 0 0 vcc-1.sym
N 46100 49600 46100 47200 4
N 44200 49000 44200 49300 4
N 44200 49300 46100 49300 4
N 44800 49000 44800 49300 4
C 45800 48200 1 180 0 capacitor-1.sym
{
T 45600 47500 5 10 0 0 180 0 1
device=CAPACITOR
T 45600 47300 5 10 0 0 180 0 1
symversion=0.1
T 45600 47700 5 10 1 1 180 0 1
refdes=C1
}
N 47100 48000 45800 48000 4
N 44900 48000 44800 48000 4
C 44100 48100 1 180 0 output-1.sym
{
T 44000 47800 5 10 0 0 180 0 1
device=OUTPUT
T 43600 47700 5 10 1 1 0 0 1
value=Out
}
B 44000 47700 1200 1800 3 0 0 0 -1 -1 0 -1 -1 -1 -1 -1
T 44000 49600 9 10 1 0 0 0 1
Oscilador
