v 20130925 2
C 40000 40000 0 0 0 title-B.sym
C 43600 47300 1 90 0 inductor-1.sym
{
T 43100 47500 5 10 0 0 90 0 1
device=INDUCTOR
T 43900 47300 5 10 1 1 90 0 1
refdes=L_Variable
T 42900 47500 5 10 0 0 90 0 1
symversion=0.1
}
C 42700 47300 1 90 0 capacitor-1.sym
{
T 42000 47500 5 10 0 0 90 0 1
device=CAPACITOR
T 42200 47200 5 10 1 1 90 0 1
refdes=C_Variable
T 41800 47500 5 10 0 0 90 0 1
symversion=0.1
}
C 43700 48700 1 0 0 switch-pushbutton-no-1.sym
{
T 44100 49000 5 10 1 1 0 0 1
refdes=S1
T 44100 49300 5 10 0 0 0 0 1
device=SWITCH_PUSHBUTTON_NO
}
C 44800 47400 1 0 0 vdc-1.sym
{
T 45500 48050 5 10 1 1 0 0 1
refdes=V1
T 45500 48250 5 10 0 0 0 0 1
device=VOLTAGE_SOURCE
T 45500 48450 5 10 0 0 0 0 1
footprint=none
T 45500 47850 5 10 1 1 0 0 1
value=DC
}
C 42300 48800 1 180 0 output-1.sym
{
T 42200 48500 5 10 0 0 180 0 1
device=OUTPUT
T 41700 48900 5 10 1 1 0 0 1
value=Out
}
N 42500 48200 42500 48700 4
N 42300 48700 43700 48700 4
N 43500 48200 43500 48700 4
N 44700 48700 45100 48700 4
N 45100 48700 45100 48600 4
N 42500 47300 42500 46700 4
N 42500 46700 45100 46700 4
N 45100 46700 45100 47400 4
N 43500 47300 43500 46700 4
C 43400 46400 1 0 0 gnd-1.sym
L 43200 47500 43700 48000 3 0 0 0 -1 -1
L 43700 48000 43700 47900 3 0 0 0 -1 -1
L 43700 48000 43600 48000 3 0 0 0 -1 -1
L 42300 47500 42700 48000 3 0 0 0 -1 -1
L 42700 48000 42700 47900 3 0 0 0 -1 -1
L 42700 48000 42600 48000 3 0 0 0 -1 -1
