v 20130925 2
C 40000 40000 0 0 0 title-B.sym
C 44400 47100 1 0 0 resistor-1.sym
{
T 44700 47500 5 10 0 0 0 0 1
device=RESISTOR
T 44600 47400 5 10 1 1 0 0 1
refdes=R1
}
C 45700 46100 1 90 0 capacitor-1.sym
{
T 45000 46300 5 10 0 0 90 0 1
device=CAPACITOR
T 45200 46300 5 10 1 1 90 0 1
refdes=C2
T 44800 46300 5 10 0 0 90 0 1
symversion=0.1
}
C 45400 45500 1 0 0 gnd-1.sym
C 43100 47100 1 0 0 input-1.sym
{
T 43100 47400 5 10 0 0 0 0 1
device=INPUT
}
C 45700 47100 1 0 0 output-1.sym
{
T 45800 47400 5 10 0 0 0 0 1
device=OUTPUT
}
N 45500 45800 45500 46100 4
N 45700 47200 45300 47200 4
N 45500 47000 45500 47200 4
N 44400 47200 43900 47200 4
T 43200 47400 9 10 1 0 0 0 1
Input
T 45900 47400 9 10 1 0 0 0 1
Output
