%!PS-Adobe-3.0 EPSF-3.0
%%Creator: nutmeg
%%BoundingBox: 54 54 612 612
1 1 scale
1.000 1.000 1.000 setrgbcolor
newpath
54 54 moveto 612 54 lineto
612 612 lineto 54 612 lineto
closepath fill
/Helvetica findfont 10 scalefont setfont

0.000 0.000 0.000 setrgbcolor
0.502 0.502 0.502 setrgbcolor
0.000 0.000 0.000 setrgbcolor
0.000 0.000 0.000 setrgbcolor
243 66 moveto
(frequency) show
0.000 0.000 0.000 setrgbcolor
0.502 0.502 0.502 setrgbcolor
0.000 0.000 0.000 setrgbcolor
newpath
78 104 moveto
78 548 lineto
stroke
0.000 0.000 0.000 setrgbcolor
66 87 moveto
(10^3) show
0.000 0.000 0.000 setrgbcolor
0.502 0.502 0.502 setrgbcolor
newpath
127 104 moveto
127 548 lineto
stroke
newpath
157 104 moveto
157 548 lineto
stroke
newpath
177 104 moveto
177 548 lineto
stroke
newpath
194 104 moveto
194 548 lineto
stroke
newpath
207 104 moveto
207 548 lineto
stroke
newpath
218 104 moveto
218 548 lineto
stroke
newpath
227 104 moveto
227 548 lineto
stroke
newpath
236 104 moveto
236 548 lineto
stroke
0.000 0.000 0.000 setrgbcolor
newpath
244 104 moveto
244 548 lineto
stroke
0.000 0.000 0.000 setrgbcolor
232 87 moveto
(10^4) show
0.000 0.000 0.000 setrgbcolor
0.502 0.502 0.502 setrgbcolor
newpath
293 104 moveto
293 548 lineto
stroke
newpath
323 104 moveto
323 548 lineto
stroke
newpath
343 104 moveto
343 548 lineto
stroke
newpath
360 104 moveto
360 548 lineto
stroke
newpath
373 104 moveto
373 548 lineto
stroke
newpath
384 104 moveto
384 548 lineto
stroke
newpath
393 104 moveto
393 548 lineto
stroke
newpath
402 104 moveto
402 548 lineto
stroke
0.000 0.000 0.000 setrgbcolor
newpath
410 104 moveto
410 548 lineto
stroke
0.000 0.000 0.000 setrgbcolor
398 87 moveto
(10^5) show
0.000 0.000 0.000 setrgbcolor
0.502 0.502 0.502 setrgbcolor
newpath
459 104 moveto
459 548 lineto
stroke
newpath
489 104 moveto
489 548 lineto
stroke
newpath
509 104 moveto
509 548 lineto
stroke
newpath
526 104 moveto
526 548 lineto
stroke
newpath
539 104 moveto
539 548 lineto
stroke
newpath
550 104 moveto
550 548 lineto
stroke
newpath
559 104 moveto
559 548 lineto
stroke
newpath
568 104 moveto
568 548 lineto
stroke
0.000 0.000 0.000 setrgbcolor
newpath
576 104 moveto
576 548 lineto
stroke
0.000 0.000 0.000 setrgbcolor
564 87 moveto
(10^6) show
0.000 0.000 0.000 setrgbcolor
0.000 0.000 0.000 setrgbcolor
382 66 moveto
(Hz) show
0.000 0.000 0.000 setrgbcolor
0.502 0.502 0.502 setrgbcolor
newpath
78 104 moveto
576 104 lineto
stroke
0.000 0.000 0.000 setrgbcolor
0.000 0.000 0.000 setrgbcolor
54 101 moveto
(-1.0) show
0.000 0.000 0.000 setrgbcolor
0.502 0.502 0.502 setrgbcolor
newpath
78 215 moveto
576 215 lineto
stroke
0.000 0.000 0.000 setrgbcolor
0.000 0.000 0.000 setrgbcolor
54 212 moveto
(-0.5) show
0.000 0.000 0.000 setrgbcolor
0.502 0.502 0.502 setrgbcolor
0.000 0.000 0.000 setrgbcolor
newpath
78 326 moveto
576 326 lineto
stroke
0.502 0.502 0.502 setrgbcolor
0.000 0.000 0.000 setrgbcolor
0.000 0.000 0.000 setrgbcolor
60 323 moveto
(0.0) show
0.000 0.000 0.000 setrgbcolor
0.502 0.502 0.502 setrgbcolor
newpath
78 437 moveto
576 437 lineto
stroke
0.000 0.000 0.000 setrgbcolor
0.000 0.000 0.000 setrgbcolor
60 434 moveto
(0.5) show
0.000 0.000 0.000 setrgbcolor
0.502 0.502 0.502 setrgbcolor
newpath
78 548 moveto
576 548 lineto
stroke
0.000 0.000 0.000 setrgbcolor
0.000 0.000 0.000 setrgbcolor
60 545 moveto
(1.0) show
0.000 0.000 0.000 setrgbcolor
0.502 0.502 0.502 setrgbcolor
0.000 0.000 0.000 setrgbcolor
0.000 0.000 0.000 setrgbcolor
54 582 moveto
(V) show
0.000 0.000 0.000 setrgbcolor
0.502 0.502 0.502 setrgbcolor
1.000 0.000 0.000 setrgbcolor
newpath
297 586 moveto
321 586 lineto
stroke
0.000 0.000 0.000 setrgbcolor
0.000 0.000 0.000 setrgbcolor
327 582 moveto
(v(out)) show
0.000 0.000 0.000 setrgbcolor
1.000 0.000 0.000 setrgbcolor
newpath
78 326 moveto
80 326 lineto
81 326 lineto
83 326 lineto
85 326 lineto
86 326 lineto
88 326 lineto
90 326 lineto
91 326 lineto
93 326 lineto
95 326 lineto
96 326 lineto
98 326 lineto
100 326 lineto
101 326 lineto
103 326 lineto
105 326 lineto
106 326 lineto
108 326 lineto
110 326 lineto
111 326 lineto
113 326 lineto
115 326 lineto
116 326 lineto
118 326 lineto
120 326 lineto
121 326 lineto
123 326 lineto
124 326 lineto
126 326 lineto
128 326 lineto
129 326 lineto
131 326 lineto
133 326 lineto
134 326 lineto
136 326 lineto
138 326 lineto
139 326 lineto
141 326 lineto
143 326 lineto
144 326 lineto
146 326 lineto
148 326 lineto
149 326 lineto
151 326 lineto
153 326 lineto
154 326 lineto
156 326 lineto
158 326 lineto
159 326 lineto
161 326 lineto
163 326 lineto
164 326 lineto
166 326 lineto
168 326 lineto
169 326 lineto
171 326 lineto
173 326 lineto
174 326 lineto
176 326 lineto
178 326 lineto
179 326 lineto
181 326 lineto
183 326 lineto
184 326 lineto
186 326 lineto
188 326 lineto
189 326 lineto
191 326 lineto
193 326 lineto
194 326 lineto
196 326 lineto
198 326 lineto
199 326 lineto
201 326 lineto
202 326 lineto
204 326 lineto
206 326 lineto
207 326 lineto
209 326 lineto
211 326 lineto
212 326 lineto
214 326 lineto
216 326 lineto
217 326 lineto
219 326 lineto
221 326 lineto
222 326 lineto
224 326 lineto
226 326 lineto
227 326 lineto
229 326 lineto
231 326 lineto
232 326 lineto
234 326 lineto
236 326 lineto
237 326 lineto
239 326 lineto
241 326 lineto
242 326 lineto
244 326 lineto
246 326 lineto
247 326 lineto
249 326 lineto
251 326 lineto
252 326 lineto
254 326 lineto
256 326 lineto
257 326 lineto
259 326 lineto
261 326 lineto
262 326 lineto
264 326 lineto
266 326 lineto
267 326 lineto
269 326 lineto
271 326 lineto
272 326 lineto
274 326 lineto
276 326 lineto
277 326 lineto
279 326 lineto
281 326 lineto
282 326 lineto
284 326 lineto
285 326 lineto
287 326 lineto
289 326 lineto
290 326 lineto
292 326 lineto
294 326 lineto
295 326 lineto
297 326 lineto
299 326 lineto
300 326 lineto
302 326 lineto
304 326 lineto
305 326 lineto
307 326 lineto
309 326 lineto
310 326 lineto
312 326 lineto
314 326 lineto
315 326 lineto
317 326 lineto
319 326 lineto
320 326 lineto
322 326 lineto
324 326 lineto
325 326 lineto
327 326 lineto
329 326 lineto
330 326 lineto
332 326 lineto
334 326 lineto
335 326 lineto
337 326 lineto
339 326 lineto
340 326 lineto
342 326 lineto
344 326 lineto
345 326 lineto
347 326 lineto
349 326 lineto
350 326 lineto
352 326 lineto
354 326 lineto
355 326 lineto
357 326 lineto
359 326 lineto
360 326 lineto
362 326 lineto
364 326 lineto
365 326 lineto
367 326 lineto
368 326 lineto
370 326 lineto
372 326 lineto
373 326 lineto
375 326 lineto
377 326 lineto
378 326 lineto
380 326 lineto
382 326 lineto
383 326 lineto
385 326 lineto
387 326 lineto
388 326 lineto
390 326 lineto
392 326 lineto
393 326 lineto
395 326 lineto
397 326 lineto
398 326 lineto
400 326 lineto
402 326 lineto
403 326 lineto
405 326 lineto
407 326 lineto
408 326 lineto
410 326 lineto
412 326 lineto
413 326 lineto
415 326 lineto
417 326 lineto
418 326 lineto
420 326 lineto
422 326 lineto
423 326 lineto
425 326 lineto
427 326 lineto
428 326 lineto
430 326 lineto
432 326 lineto
433 326 lineto
435 326 lineto
437 326 lineto
438 326 lineto
440 326 lineto
442 326 lineto
443 326 lineto
445 326 lineto
447 326 lineto
448 326 lineto
450 326 lineto
451 326 lineto
453 326 lineto
455 326 lineto
456 326 lineto
458 326 lineto
460 326 lineto
461 326 lineto
463 326 lineto
465 326 lineto
466 326 lineto
468 326 lineto
470 326 lineto
471 326 lineto
473 326 lineto
475 326 lineto
476 326 lineto
478 326 lineto
480 326 lineto
481 326 lineto
483 326 lineto
485 326 lineto
486 326 lineto
488 326 lineto
490 326 lineto
491 326 lineto
493 326 lineto
495 326 lineto
496 326 lineto
498 326 lineto
500 326 lineto
501 326 lineto
503 326 lineto
505 326 lineto
506 326 lineto
508 326 lineto
510 326 lineto
511 326 lineto
513 326 lineto
515 326 lineto
516 326 lineto
518 326 lineto
520 326 lineto
521 326 lineto
523 326 lineto
525 326 lineto
526 326 lineto
528 326 lineto
530 326 lineto
531 326 lineto
533 326 lineto
534 326 lineto
536 326 lineto
538 326 lineto
539 326 lineto
541 326 lineto
543 326 lineto
544 326 lineto
546 326 lineto
548 326 lineto
549 326 lineto
551 326 lineto
553 326 lineto
554 326 lineto
556 326 lineto
558 326 lineto
559 326 lineto
561 326 lineto
563 326 lineto
564 326 lineto
566 326 lineto
568 326 lineto
569 326 lineto
571 326 lineto
573 326 lineto
574 326 lineto
576 326 lineto
stroke
showpage
%%EOF
