%!PS-Adobe-3.0 EPSF-3.0
%%Creator: nutmeg
%%BoundingBox: 54 54 612 612
1 1 scale
1.000 1.000 1.000 setrgbcolor
newpath
54 54 moveto 612 54 lineto
612 612 lineto 54 612 lineto
closepath fill
/Helvetica findfont 10 scalefont setfont

0.000 0.000 0.000 setrgbcolor
0.502 0.502 0.502 setrgbcolor
0.000 0.000 0.000 setrgbcolor
0.000 0.000 0.000 setrgbcolor
243 66 moveto
(time) show
0.000 0.000 0.000 setrgbcolor
0.502 0.502 0.502 setrgbcolor
newpath
78 104 moveto
78 545 lineto
stroke
0.000 0.000 0.000 setrgbcolor
0.000 0.000 0.000 setrgbcolor
60 87 moveto
(8.0080) show
0.000 0.000 0.000 setrgbcolor
0.502 0.502 0.502 setrgbcolor
newpath
140 104 moveto
140 545 lineto
stroke
0.000 0.000 0.000 setrgbcolor
0.000 0.000 0.000 setrgbcolor
122 87 moveto
(8.0090) show
0.000 0.000 0.000 setrgbcolor
0.502 0.502 0.502 setrgbcolor
newpath
202 104 moveto
202 545 lineto
stroke
0.000 0.000 0.000 setrgbcolor
0.000 0.000 0.000 setrgbcolor
184 87 moveto
(8.0100) show
0.000 0.000 0.000 setrgbcolor
0.502 0.502 0.502 setrgbcolor
newpath
264 104 moveto
264 545 lineto
stroke
0.000 0.000 0.000 setrgbcolor
0.000 0.000 0.000 setrgbcolor
246 87 moveto
(8.0110) show
0.000 0.000 0.000 setrgbcolor
0.502 0.502 0.502 setrgbcolor
newpath
326 104 moveto
326 545 lineto
stroke
0.000 0.000 0.000 setrgbcolor
0.000 0.000 0.000 setrgbcolor
308 87 moveto
(8.0120) show
0.000 0.000 0.000 setrgbcolor
0.502 0.502 0.502 setrgbcolor
newpath
388 104 moveto
388 545 lineto
stroke
0.000 0.000 0.000 setrgbcolor
0.000 0.000 0.000 setrgbcolor
370 87 moveto
(8.0130) show
0.000 0.000 0.000 setrgbcolor
0.502 0.502 0.502 setrgbcolor
newpath
450 104 moveto
450 545 lineto
stroke
0.000 0.000 0.000 setrgbcolor
0.000 0.000 0.000 setrgbcolor
432 87 moveto
(8.0140) show
0.000 0.000 0.000 setrgbcolor
0.502 0.502 0.502 setrgbcolor
newpath
512 104 moveto
512 545 lineto
stroke
0.000 0.000 0.000 setrgbcolor
0.000 0.000 0.000 setrgbcolor
494 87 moveto
(8.0150) show
0.000 0.000 0.000 setrgbcolor
0.502 0.502 0.502 setrgbcolor
newpath
574 104 moveto
574 545 lineto
stroke
0.000 0.000 0.000 setrgbcolor
0.000 0.000 0.000 setrgbcolor
556 87 moveto
(8.0160) show
0.000 0.000 0.000 setrgbcolor
0.502 0.502 0.502 setrgbcolor
0.000 0.000 0.000 setrgbcolor
0.000 0.000 0.000 setrgbcolor
382 66 moveto
(ms) show
0.000 0.000 0.000 setrgbcolor
0.502 0.502 0.502 setrgbcolor
newpath
78 104 moveto
574 104 lineto
stroke
0.000 0.000 0.000 setrgbcolor
0.000 0.000 0.000 setrgbcolor
54 101 moveto
(-4.0) show
0.000 0.000 0.000 setrgbcolor
0.502 0.502 0.502 setrgbcolor
newpath
78 167 moveto
574 167 lineto
stroke
0.000 0.000 0.000 setrgbcolor
0.000 0.000 0.000 setrgbcolor
54 164 moveto
(-3.0) show
0.000 0.000 0.000 setrgbcolor
0.502 0.502 0.502 setrgbcolor
newpath
78 230 moveto
574 230 lineto
stroke
0.000 0.000 0.000 setrgbcolor
0.000 0.000 0.000 setrgbcolor
54 227 moveto
(-2.0) show
0.000 0.000 0.000 setrgbcolor
0.502 0.502 0.502 setrgbcolor
newpath
78 293 moveto
574 293 lineto
stroke
0.000 0.000 0.000 setrgbcolor
0.000 0.000 0.000 setrgbcolor
54 290 moveto
(-1.0) show
0.000 0.000 0.000 setrgbcolor
0.502 0.502 0.502 setrgbcolor
0.000 0.000 0.000 setrgbcolor
newpath
78 356 moveto
574 356 lineto
stroke
0.502 0.502 0.502 setrgbcolor
0.000 0.000 0.000 setrgbcolor
0.000 0.000 0.000 setrgbcolor
60 353 moveto
(0.0) show
0.000 0.000 0.000 setrgbcolor
0.502 0.502 0.502 setrgbcolor
newpath
78 419 moveto
574 419 lineto
stroke
0.000 0.000 0.000 setrgbcolor
0.000 0.000 0.000 setrgbcolor
60 416 moveto
(1.0) show
0.000 0.000 0.000 setrgbcolor
0.502 0.502 0.502 setrgbcolor
newpath
78 482 moveto
574 482 lineto
stroke
0.000 0.000 0.000 setrgbcolor
0.000 0.000 0.000 setrgbcolor
60 479 moveto
(2.0) show
0.000 0.000 0.000 setrgbcolor
0.502 0.502 0.502 setrgbcolor
newpath
78 545 moveto
574 545 lineto
stroke
0.000 0.000 0.000 setrgbcolor
0.000 0.000 0.000 setrgbcolor
60 542 moveto
(3.0) show
0.000 0.000 0.000 setrgbcolor
0.502 0.502 0.502 setrgbcolor
0.000 0.000 0.000 setrgbcolor
0.000 0.000 0.000 setrgbcolor
54 582 moveto
(V) show
0.000 0.000 0.000 setrgbcolor
0.502 0.502 0.502 setrgbcolor
1.000 0.000 0.000 setrgbcolor
newpath
296 586 moveto
320 586 lineto
stroke
0.000 0.000 0.000 setrgbcolor
0.000 0.000 0.000 setrgbcolor
326 582 moveto
(v(vemisor)) show
0.000 0.000 0.000 setrgbcolor
1.000 0.000 0.000 setrgbcolor
newpath
78 311 moveto
79 311 lineto
80 311 lineto
81 312 lineto
81 314 lineto
82 318 lineto
83 322 lineto
83 327 lineto
84 332 lineto
84 336 lineto
85 341 lineto
86 346 lineto
86 351 lineto
87 355 lineto
88 360 lineto
88 365 lineto
89 369 lineto
89 374 lineto
90 378 lineto
91 383 lineto
91 387 lineto
92 392 lineto
92 396 lineto
93 400 lineto
94 404 lineto
94 408 lineto
95 412 lineto
96 416 lineto
96 420 lineto
97 424 lineto
97 427 lineto
98 431 lineto
99 434 lineto
99 438 lineto
100 441 lineto
101 444 lineto
101 447 lineto
102 450 lineto
102 453 lineto
103 456 lineto
104 458 lineto
104 461 lineto
105 463 lineto
105 466 lineto
106 468 lineto
107 470 lineto
107 472 lineto
108 473 lineto
109 475 lineto
109 477 lineto
110 478 lineto
110 479 lineto
111 480 lineto
112 481 lineto
112 482 lineto
113 483 lineto
114 483 lineto
114 484 lineto
115 484 lineto
116 484 lineto
117 484 lineto
118 484 lineto
119 483 lineto
120 482 lineto
120 481 lineto
121 480 lineto
122 479 lineto
122 477 lineto
123 476 lineto
123 474 lineto
124 473 lineto
125 471 lineto
125 469 lineto
126 467 lineto
127 465 lineto
127 462 lineto
128 460 lineto
128 457 lineto
129 455 lineto
130 452 lineto
130 449 lineto
131 446 lineto
132 443 lineto
132 440 lineto
133 436 lineto
133 433 lineto
134 430 lineto
135 426 lineto
135 422 lineto
136 419 lineto
136 415 lineto
137 411 lineto
138 407 lineto
138 403 lineto
139 399 lineto
140 394 lineto
140 390 lineto
141 386 lineto
141 381 lineto
142 377 lineto
143 372 lineto
143 368 lineto
144 363 lineto
145 358 lineto
145 354 lineto
146 349 lineto
146 344 lineto
147 340 lineto
148 335 lineto
148 330 lineto
149 325 lineto
150 320 lineto
150 316 lineto
151 311 lineto
151 308 lineto
152 311 lineto
153 310 lineto
153 311 lineto
154 310 lineto
154 311 lineto
155 310 lineto
156 310 lineto
157 310 lineto
158 310 lineto
159 310 lineto
160 310 lineto
161 310 lineto
162 310 lineto
163 310 lineto
164 310 lineto
165 310 lineto
166 310 lineto
167 310 lineto
168 310 lineto
169 310 lineto
170 310 lineto
171 310 lineto
172 309 lineto
172 300 lineto
173 286 lineto
173 271 lineto
174 257 lineto
175 244 lineto
175 232 lineto
176 220 lineto
177 210 lineto
177 200 lineto
178 190 lineto
178 182 lineto
179 175 lineto
180 168 lineto
180 162 lineto
181 158 lineto
181 154 lineto
182 151 lineto
183 149 lineto
183 147 lineto
184 146 lineto
185 147 lineto
186 149 lineto
186 151 lineto
187 154 lineto
188 158 lineto
188 162 lineto
189 167 lineto
190 172 lineto
190 178 lineto
191 184 lineto
191 191 lineto
192 198 lineto
193 206 lineto
193 214 lineto
194 223 lineto
194 233 lineto
195 243 lineto
196 253 lineto
196 264 lineto
197 275 lineto
198 287 lineto
198 298 lineto
199 309 lineto
199 311 lineto
200 311 lineto
201 311 lineto
202 311 lineto
203 311 lineto
204 311 lineto
205 311 lineto
206 311 lineto
207 311 lineto
208 311 lineto
209 311 lineto
210 311 lineto
211 311 lineto
212 311 lineto
213 311 lineto
214 311 lineto
215 311 lineto
216 311 lineto
217 311 lineto
218 311 lineto
219 311 lineto
219 312 lineto
220 313 lineto
221 316 lineto
221 320 lineto
222 324 lineto
222 328 lineto
223 333 lineto
223 338 lineto
224 343 lineto
225 347 lineto
225 352 lineto
226 357 lineto
227 362 lineto
227 366 lineto
228 371 lineto
228 375 lineto
229 380 lineto
230 384 lineto
230 389 lineto
231 393 lineto
232 397 lineto
232 402 lineto
233 406 lineto
233 410 lineto
234 414 lineto
235 417 lineto
235 421 lineto
236 425 lineto
237 429 lineto
237 432 lineto
238 436 lineto
238 439 lineto
239 442 lineto
240 445 lineto
240 448 lineto
241 451 lineto
241 454 lineto
242 457 lineto
243 459 lineto
243 462 lineto
244 464 lineto
245 466 lineto
245 468 lineto
246 470 lineto
246 472 lineto
247 474 lineto
248 476 lineto
248 477 lineto
249 478 lineto
250 480 lineto
250 481 lineto
251 482 lineto
252 483 lineto
253 484 lineto
254 484 lineto
255 484 lineto
256 484 lineto
257 484 lineto
258 483 lineto
258 482 lineto
259 482 lineto
259 481 lineto
260 480 lineto
261 478 lineto
261 477 lineto
262 476 lineto
263 474 lineto
263 472 lineto
264 470 lineto
264 468 lineto
265 466 lineto
266 464 lineto
266 462 lineto
267 459 lineto
268 457 lineto
268 454 lineto
269 451 lineto
269 448 lineto
270 445 lineto
271 442 lineto
271 439 lineto
272 435 lineto
272 432 lineto
273 428 lineto
274 425 lineto
274 421 lineto
275 417 lineto
276 413 lineto
276 409 lineto
277 405 lineto
277 401 lineto
278 397 lineto
279 393 lineto
279 389 lineto
280 384 lineto
281 380 lineto
281 375 lineto
282 371 lineto
282 366 lineto
283 362 lineto
284 357 lineto
284 352 lineto
285 348 lineto
285 343 lineto
286 338 lineto
287 333 lineto
287 328 lineto
288 324 lineto
289 319 lineto
289 314 lineto
290 310 lineto
290 309 lineto
291 311 lineto
291 310 lineto
292 311 lineto
293 310 lineto
293 311 lineto
294 310 lineto
295 310 lineto
296 310 lineto
297 310 lineto
298 310 lineto
299 310 lineto
300 310 lineto
301 310 lineto
302 310 lineto
303 310 lineto
304 310 lineto
305 310 lineto
306 310 lineto
307 310 lineto
308 310 lineto
309 310 lineto
310 310 lineto
310 309 lineto
311 299 lineto
312 285 lineto
312 270 lineto
313 256 lineto
314 243 lineto
314 231 lineto
315 219 lineto
315 209 lineto
316 199 lineto
317 190 lineto
317 181 lineto
318 174 lineto
319 168 lineto
319 162 lineto
320 157 lineto
320 154 lineto
321 151 lineto
322 148 lineto
322 147 lineto
323 146 lineto
324 147 lineto
325 149 lineto
325 151 lineto
326 154 lineto
327 158 lineto
327 162 lineto
328 167 lineto
328 172 lineto
329 178 lineto
330 185 lineto
330 191 lineto
331 199 lineto
332 206 lineto
332 215 lineto
333 224 lineto
333 233 lineto
334 243 lineto
335 254 lineto
335 265 lineto
336 276 lineto
337 288 lineto
337 299 lineto
338 309 lineto
338 311 lineto
339 311 lineto
340 311 lineto
341 311 lineto
342 311 lineto
343 311 lineto
344 311 lineto
345 311 lineto
346 311 lineto
347 311 lineto
348 311 lineto
349 311 lineto
350 311 lineto
351 311 lineto
352 311 lineto
353 311 lineto
354 311 lineto
355 311 lineto
356 311 lineto
357 311 lineto
358 311 lineto
358 312 lineto
359 313 lineto
359 316 lineto
360 320 lineto
361 325 lineto
361 329 lineto
362 334 lineto
363 339 lineto
363 344 lineto
364 348 lineto
364 353 lineto
365 358 lineto
366 363 lineto
366 367 lineto
367 372 lineto
367 376 lineto
368 381 lineto
369 385 lineto
369 390 lineto
370 394 lineto
371 398 lineto
371 402 lineto
372 406 lineto
372 410 lineto
373 414 lineto
374 418 lineto
374 422 lineto
375 426 lineto
376 429 lineto
376 433 lineto
377 436 lineto
377 440 lineto
378 443 lineto
379 446 lineto
379 449 lineto
380 452 lineto
380 455 lineto
381 457 lineto
382 460 lineto
382 462 lineto
383 465 lineto
384 467 lineto
384 469 lineto
385 471 lineto
385 473 lineto
386 474 lineto
387 476 lineto
387 477 lineto
388 479 lineto
389 480 lineto
389 481 lineto
390 482 lineto
390 483 lineto
391 483 lineto
392 484 lineto
393 484 lineto
394 484 lineto
395 484 lineto
396 484 lineto
397 483 lineto
397 482 lineto
398 481 lineto
398 480 lineto
399 479 lineto
400 478 lineto
400 477 lineto
401 475 lineto
402 474 lineto
402 472 lineto
403 470 lineto
403 468 lineto
404 466 lineto
405 464 lineto
405 461 lineto
406 459 lineto
407 456 lineto
407 453 lineto
408 451 lineto
408 448 lineto
409 445 lineto
410 441 lineto
410 438 lineto
411 435 lineto
411 431 lineto
412 428 lineto
413 424 lineto
413 420 lineto
414 417 lineto
415 413 lineto
415 409 lineto
416 405 lineto
416 401 lineto
417 396 lineto
418 392 lineto
418 388 lineto
419 383 lineto
420 379 lineto
420 374 lineto
421 370 lineto
421 365 lineto
422 361 lineto
423 356 lineto
423 351 lineto
424 347 lineto
425 342 lineto
425 337 lineto
426 332 lineto
426 327 lineto
427 323 lineto
428 318 lineto
428 313 lineto
429 309 lineto
430 311 lineto
431 310 lineto
431 311 lineto
432 310 lineto
432 311 lineto
433 310 lineto
434 310 lineto
435 310 lineto
436 310 lineto
437 310 lineto
438 310 lineto
439 310 lineto
440 310 lineto
441 310 lineto
442 310 lineto
443 310 lineto
444 310 lineto
445 310 lineto
446 310 lineto
447 310 lineto
448 310 lineto
449 309 lineto
450 306 lineto
450 292 lineto
451 277 lineto
452 263 lineto
452 250 lineto
453 237 lineto
453 225 lineto
454 214 lineto
455 204 lineto
455 194 lineto
456 185 lineto
457 178 lineto
457 171 lineto
458 165 lineto
458 160 lineto
459 155 lineto
460 152 lineto
460 149 lineto
461 148 lineto
461 147 lineto
462 146 lineto
463 147 lineto
463 148 lineto
464 150 lineto
465 153 lineto
465 156 lineto
466 160 lineto
466 164 lineto
467 170 lineto
468 175 lineto
468 181 lineto
469 188 lineto
470 195 lineto
470 203 lineto
471 211 lineto
471 219 lineto
472 229 lineto
473 238 lineto
473 249 lineto
474 259 lineto
474 270 lineto
475 282 lineto
476 293 lineto
476 305 lineto
477 311 lineto
478 311 lineto
479 311 lineto
480 311 lineto
481 311 lineto
482 311 lineto
483 311 lineto
484 311 lineto
485 311 lineto
486 311 lineto
487 311 lineto
488 311 lineto
489 311 lineto
490 311 lineto
491 311 lineto
492 311 lineto
493 311 lineto
494 311 lineto
495 311 lineto
496 311 lineto
497 311 lineto
497 312 lineto
498 314 lineto
499 318 lineto
499 322 lineto
500 327 lineto
500 332 lineto
501 336 lineto
502 341 lineto
502 346 lineto
503 351 lineto
504 355 lineto
504 360 lineto
505 365 lineto
505 369 lineto
506 374 lineto
507 378 lineto
507 383 lineto
508 387 lineto
509 392 lineto
509 396 lineto
510 400 lineto
510 404 lineto
511 408 lineto
512 412 lineto
512 416 lineto
513 420 lineto
513 424 lineto
514 427 lineto
515 431 lineto
515 434 lineto
516 438 lineto
517 441 lineto
517 444 lineto
518 447 lineto
518 450 lineto
519 453 lineto
520 456 lineto
520 458 lineto
521 461 lineto
522 463 lineto
522 466 lineto
523 468 lineto
523 470 lineto
524 472 lineto
525 473 lineto
525 475 lineto
526 477 lineto
526 478 lineto
527 479 lineto
528 480 lineto
528 481 lineto
529 482 lineto
530 483 lineto
531 484 lineto
532 484 lineto
533 484 lineto
534 484 lineto
535 484 lineto
535 483 lineto
536 483 lineto
536 482 lineto
537 481 lineto
538 480 lineto
538 479 lineto
539 477 lineto
540 476 lineto
540 474 lineto
541 473 lineto
541 471 lineto
542 469 lineto
543 467 lineto
543 465 lineto
544 462 lineto
544 460 lineto
545 457 lineto
546 455 lineto
546 452 lineto
547 449 lineto
548 446 lineto
548 443 lineto
549 440 lineto
549 436 lineto
550 433 lineto
551 430 lineto
551 426 lineto
552 422 lineto
553 419 lineto
553 415 lineto
554 411 lineto
554 407 lineto
555 403 lineto
556 399 lineto
556 394 lineto
557 390 lineto
557 386 lineto
558 381 lineto
559 377 lineto
559 372 lineto
560 368 lineto
561 363 lineto
561 358 lineto
562 354 lineto
562 349 lineto
563 344 lineto
564 340 lineto
564 335 lineto
565 330 lineto
566 325 lineto
566 320 lineto
567 316 lineto
567 311 lineto
568 308 lineto
569 311 lineto
569 310 lineto
570 311 lineto
570 310 lineto
571 311 lineto
571 310 lineto
572 310 lineto
573 310 lineto
574 310 lineto
stroke
0.000 0.000 1.000 setrgbcolor
newpath
78 586 moveto
102 586 lineto
stroke
0.000 0.000 0.000 setrgbcolor
0.000 0.000 0.000 setrgbcolor
108 582 moveto
(v(out)) show
0.000 0.000 0.000 setrgbcolor
0.000 0.000 1.000 setrgbcolor
newpath
78 334 moveto
79 338 lineto
80 343 lineto
80 347 lineto
81 352 lineto
81 357 lineto
82 361 lineto
83 366 lineto
83 371 lineto
84 376 lineto
84 380 lineto
85 385 lineto
86 390 lineto
86 395 lineto
87 399 lineto
88 404 lineto
88 409 lineto
89 413 lineto
89 418 lineto
90 423 lineto
91 427 lineto
91 431 lineto
92 436 lineto
92 440 lineto
93 444 lineto
94 448 lineto
94 453 lineto
95 457 lineto
96 460 lineto
96 464 lineto
97 468 lineto
97 472 lineto
98 475 lineto
99 479 lineto
99 482 lineto
100 485 lineto
101 489 lineto
101 492 lineto
102 495 lineto
102 497 lineto
103 500 lineto
104 503 lineto
104 505 lineto
105 508 lineto
105 510 lineto
106 512 lineto
107 514 lineto
107 516 lineto
108 518 lineto
109 519 lineto
109 521 lineto
110 522 lineto
110 524 lineto
111 525 lineto
112 526 lineto
113 527 lineto
114 528 lineto
115 529 lineto
116 529 lineto
117 529 lineto
117 528 lineto
118 528 lineto
119 528 lineto
119 527 lineto
120 526 lineto
120 525 lineto
121 524 lineto
122 523 lineto
122 522 lineto
123 520 lineto
123 519 lineto
124 517 lineto
125 515 lineto
125 513 lineto
126 511 lineto
127 509 lineto
127 507 lineto
128 504 lineto
128 502 lineto
129 499 lineto
130 496 lineto
130 493 lineto
131 490 lineto
132 487 lineto
132 484 lineto
133 481 lineto
133 477 lineto
134 474 lineto
135 470 lineto
135 467 lineto
136 463 lineto
136 459 lineto
137 455 lineto
138 451 lineto
138 447 lineto
139 443 lineto
140 438 lineto
140 434 lineto
141 430 lineto
141 425 lineto
142 421 lineto
143 416 lineto
143 412 lineto
144 407 lineto
145 402 lineto
145 398 lineto
146 393 lineto
146 388 lineto
147 384 lineto
148 379 lineto
148 374 lineto
149 369 lineto
150 364 lineto
150 359 lineto
151 354 lineto
151 349 lineto
152 344 lineto
153 340 lineto
153 336 lineto
154 331 lineto
154 326 lineto
155 321 lineto
155 316 lineto
156 311 lineto
157 306 lineto
157 301 lineto
158 296 lineto
159 291 lineto
159 287 lineto
160 282 lineto
160 277 lineto
161 273 lineto
162 268 lineto
162 264 lineto
163 259 lineto
163 255 lineto
164 251 lineto
165 247 lineto
165 243 lineto
166 239 lineto
167 235 lineto
167 231 lineto
168 227 lineto
168 224 lineto
169 221 lineto
170 217 lineto
170 214 lineto
171 211 lineto
172 208 lineto
172 205 lineto
173 202 lineto
173 200 lineto
174 197 lineto
175 195 lineto
175 193 lineto
176 191 lineto
177 189 lineto
177 188 lineto
178 186 lineto
178 185 lineto
179 184 lineto
180 183 lineto
180 182 lineto
181 182 lineto
181 181 lineto
182 181 lineto
183 181 lineto
184 181 lineto
185 182 lineto
186 183 lineto
187 184 lineto
188 185 lineto
188 186 lineto
189 187 lineto
190 189 lineto
190 190 lineto
191 192 lineto
191 193 lineto
192 195 lineto
193 196 lineto
193 198 lineto
194 200 lineto
194 202 lineto
195 204 lineto
196 207 lineto
196 209 lineto
197 211 lineto
198 214 lineto
198 217 lineto
199 219 lineto
199 222 lineto
200 225 lineto
201 228 lineto
201 231 lineto
202 234 lineto
203 237 lineto
203 241 lineto
204 244 lineto
204 247 lineto
205 251 lineto
206 255 lineto
206 258 lineto
207 262 lineto
208 266 lineto
208 270 lineto
209 274 lineto
209 278 lineto
210 282 lineto
211 287 lineto
211 291 lineto
212 295 lineto
212 299 lineto
213 304 lineto
214 308 lineto
214 313 lineto
215 317 lineto
216 322 lineto
216 326 lineto
217 331 lineto
217 335 lineto
218 340 lineto
219 345 lineto
219 349 lineto
220 354 lineto
221 359 lineto
221 363 lineto
222 368 lineto
222 372 lineto
223 377 lineto
223 382 lineto
224 387 lineto
225 391 lineto
225 396 lineto
226 401 lineto
227 406 lineto
227 410 lineto
228 415 lineto
228 419 lineto
229 424 lineto
230 428 lineto
230 433 lineto
231 437 lineto
232 441 lineto
232 446 lineto
233 450 lineto
233 454 lineto
234 458 lineto
235 462 lineto
235 465 lineto
236 469 lineto
237 473 lineto
237 476 lineto
238 480 lineto
238 483 lineto
239 486 lineto
240 490 lineto
240 493 lineto
241 495 lineto
241 498 lineto
242 501 lineto
243 504 lineto
243 506 lineto
244 508 lineto
245 511 lineto
245 513 lineto
246 515 lineto
246 517 lineto
247 518 lineto
248 520 lineto
248 521 lineto
249 523 lineto
250 524 lineto
250 525 lineto
251 526 lineto
251 527 lineto
252 527 lineto
253 528 lineto
254 529 lineto
255 529 lineto
256 529 lineto
256 528 lineto
257 528 lineto
258 527 lineto
259 526 lineto
259 525 lineto
260 524 lineto
261 523 lineto
261 521 lineto
262 520 lineto
263 518 lineto
263 516 lineto
264 515 lineto
264 513 lineto
265 511 lineto
266 508 lineto
266 506 lineto
267 503 lineto
268 501 lineto
268 498 lineto
269 495 lineto
269 492 lineto
270 489 lineto
271 486 lineto
271 483 lineto
272 480 lineto
272 476 lineto
273 473 lineto
274 469 lineto
274 465 lineto
275 461 lineto
276 458 lineto
276 454 lineto
277 450 lineto
277 445 lineto
278 441 lineto
279 437 lineto
279 433 lineto
280 428 lineto
281 424 lineto
281 419 lineto
282 415 lineto
282 410 lineto
283 406 lineto
284 401 lineto
284 396 lineto
285 392 lineto
285 387 lineto
286 382 lineto
287 377 lineto
287 372 lineto
288 368 lineto
289 363 lineto
289 358 lineto
290 353 lineto
290 348 lineto
291 344 lineto
291 339 lineto
292 335 lineto
293 331 lineto
293 326 lineto
294 321 lineto
294 316 lineto
295 311 lineto
296 306 lineto
296 301 lineto
297 296 lineto
297 291 lineto
298 286 lineto
299 282 lineto
299 277 lineto
300 272 lineto
301 268 lineto
301 263 lineto
302 259 lineto
302 255 lineto
303 251 lineto
304 246 lineto
304 242 lineto
305 238 lineto
306 235 lineto
306 231 lineto
307 227 lineto
307 224 lineto
308 220 lineto
309 217 lineto
309 214 lineto
310 211 lineto
310 208 lineto
311 205 lineto
312 202 lineto
312 200 lineto
313 197 lineto
314 195 lineto
314 193 lineto
315 191 lineto
315 189 lineto
316 188 lineto
317 186 lineto
317 185 lineto
318 184 lineto
319 183 lineto
319 182 lineto
320 182 lineto
320 181 lineto
321 181 lineto
322 181 lineto
323 181 lineto
324 182 lineto
325 183 lineto
326 184 lineto
327 185 lineto
327 186 lineto
328 187 lineto
328 189 lineto
329 190 lineto
330 192 lineto
330 193 lineto
331 195 lineto
332 197 lineto
332 198 lineto
333 200 lineto
333 202 lineto
334 205 lineto
335 207 lineto
335 209 lineto
336 212 lineto
337 214 lineto
337 217 lineto
338 219 lineto
338 222 lineto
339 225 lineto
340 228 lineto
340 231 lineto
341 234 lineto
341 237 lineto
342 241 lineto
343 244 lineto
343 248 lineto
344 251 lineto
345 255 lineto
345 259 lineto
346 263 lineto
346 266 lineto
347 270 lineto
348 274 lineto
348 279 lineto
349 283 lineto
350 287 lineto
350 291 lineto
351 295 lineto
351 300 lineto
352 304 lineto
353 309 lineto
353 313 lineto
354 318 lineto
355 322 lineto
355 327 lineto
356 331 lineto
356 336 lineto
357 340 lineto
358 345 lineto
358 350 lineto
359 354 lineto
359 359 lineto
360 364 lineto
361 369 lineto
361 373 lineto
362 378 lineto
363 383 lineto
363 388 lineto
364 392 lineto
364 397 lineto
365 402 lineto
366 407 lineto
366 411 lineto
367 416 lineto
367 420 lineto
368 425 lineto
369 429 lineto
369 434 lineto
370 438 lineto
371 442 lineto
371 446 lineto
372 451 lineto
372 455 lineto
373 459 lineto
374 462 lineto
374 466 lineto
375 470 lineto
376 474 lineto
376 477 lineto
377 480 lineto
377 484 lineto
378 487 lineto
379 490 lineto
379 493 lineto
380 496 lineto
380 499 lineto
381 501 lineto
382 504 lineto
382 506 lineto
383 509 lineto
384 511 lineto
384 513 lineto
385 515 lineto
385 517 lineto
386 519 lineto
387 520 lineto
387 522 lineto
388 523 lineto
389 524 lineto
389 525 lineto
390 526 lineto
390 527 lineto
391 528 lineto
392 528 lineto
393 529 lineto
394 529 lineto
395 529 lineto
395 528 lineto
396 528 lineto
397 527 lineto
398 526 lineto
398 525 lineto
399 524 lineto
400 522 lineto
400 521 lineto
401 520 lineto
402 518 lineto
402 516 lineto
403 514 lineto
403 512 lineto
404 510 lineto
405 508 lineto
405 505 lineto
406 503 lineto
407 500 lineto
407 498 lineto
408 495 lineto
408 492 lineto
409 489 lineto
410 486 lineto
410 482 lineto
411 479 lineto
411 475 lineto
412 472 lineto
413 468 lineto
413 465 lineto
414 461 lineto
415 457 lineto
415 453 lineto
416 449 lineto
416 445 lineto
417 440 lineto
418 436 lineto
418 432 lineto
419 427 lineto
420 423 lineto
420 418 lineto
421 414 lineto
421 409 lineto
422 405 lineto
423 400 lineto
423 395 lineto
424 391 lineto
425 386 lineto
425 381 lineto
426 376 lineto
426 371 lineto
427 367 lineto
428 362 lineto
428 357 lineto
429 352 lineto
429 347 lineto
430 343 lineto
431 338 lineto
431 333 lineto
432 328 lineto
432 323 lineto
433 318 lineto
434 313 lineto
434 308 lineto
435 303 lineto
435 298 lineto
436 293 lineto
437 289 lineto
437 284 lineto
438 279 lineto
439 275 lineto
439 270 lineto
440 266 lineto
440 261 lineto
441 257 lineto
442 253 lineto
442 248 lineto
443 244 lineto
443 240 lineto
444 237 lineto
445 233 lineto
445 229 lineto
446 225 lineto
447 222 lineto
447 219 lineto
448 215 lineto
448 212 lineto
449 209 lineto
450 206 lineto
450 203 lineto
451 201 lineto
452 198 lineto
452 196 lineto
453 194 lineto
453 192 lineto
454 190 lineto
455 188 lineto
455 187 lineto
456 186 lineto
457 184 lineto
457 183 lineto
458 183 lineto
458 182 lineto
459 182 lineto
460 181 lineto
461 181 lineto
462 181 lineto
463 182 lineto
464 183 lineto
465 184 lineto
465 185 lineto
466 186 lineto
466 187 lineto
467 188 lineto
468 189 lineto
468 191 lineto
469 192 lineto
470 194 lineto
470 196 lineto
471 198 lineto
471 199 lineto
472 201 lineto
473 204 lineto
473 206 lineto
474 208 lineto
474 210 lineto
475 213 lineto
476 215 lineto
476 218 lineto
477 221 lineto
478 224 lineto
478 227 lineto
479 230 lineto
479 233 lineto
480 236 lineto
481 239 lineto
481 243 lineto
482 246 lineto
483 250 lineto
483 253 lineto
484 257 lineto
484 261 lineto
485 265 lineto
486 268 lineto
486 272 lineto
487 277 lineto
488 281 lineto
488 285 lineto
489 289 lineto
489 293 lineto
490 298 lineto
491 302 lineto
491 306 lineto
492 311 lineto
492 315 lineto
493 320 lineto
494 324 lineto
494 329 lineto
495 334 lineto
496 338 lineto
496 343 lineto
497 347 lineto
497 352 lineto
498 357 lineto
499 361 lineto
499 366 lineto
500 371 lineto
500 376 lineto
501 380 lineto
502 385 lineto
502 390 lineto
503 395 lineto
504 399 lineto
504 404 lineto
505 409 lineto
505 413 lineto
506 418 lineto
507 423 lineto
507 427 lineto
508 431 lineto
509 436 lineto
509 440 lineto
510 444 lineto
510 448 lineto
511 453 lineto
512 457 lineto
512 460 lineto
513 464 lineto
513 468 lineto
514 472 lineto
515 475 lineto
515 479 lineto
516 482 lineto
517 485 lineto
517 489 lineto
518 492 lineto
518 495 lineto
519 497 lineto
520 500 lineto
520 503 lineto
521 505 lineto
522 508 lineto
522 510 lineto
523 512 lineto
523 514 lineto
524 516 lineto
525 518 lineto
525 519 lineto
526 521 lineto
526 522 lineto
527 524 lineto
528 525 lineto
528 526 lineto
529 526 lineto
530 527 lineto
530 528 lineto
531 528 lineto
531 529 lineto
532 529 lineto
533 529 lineto
534 528 lineto
535 528 lineto
536 527 lineto
536 526 lineto
537 525 lineto
538 524 lineto
538 523 lineto
539 522 lineto
540 520 lineto
540 519 lineto
541 517 lineto
541 515 lineto
542 513 lineto
543 511 lineto
543 509 lineto
544 507 lineto
544 504 lineto
545 502 lineto
546 499 lineto
546 496 lineto
547 493 lineto
548 490 lineto
548 487 lineto
549 484 lineto
549 481 lineto
550 477 lineto
551 474 lineto
551 470 lineto
552 467 lineto
553 463 lineto
553 459 lineto
554 455 lineto
554 451 lineto
555 447 lineto
556 443 lineto
556 438 lineto
557 434 lineto
557 430 lineto
558 425 lineto
559 421 lineto
559 416 lineto
560 412 lineto
561 407 lineto
561 402 lineto
562 398 lineto
562 393 lineto
563 388 lineto
564 384 lineto
564 379 lineto
565 374 lineto
566 369 lineto
566 364 lineto
567 359 lineto
567 354 lineto
568 349 lineto
569 344 lineto
569 340 lineto
570 336 lineto
570 331 lineto
571 326 lineto
571 321 lineto
572 316 lineto
573 311 lineto
573 306 lineto
574 301 lineto
stroke
showpage
%%EOF
