EESchema Schematic File Version 2
LIBS:theremind-rescue
LIBS:power
LIBS:device
LIBS:transistors
LIBS:conn
LIBS:linear
LIBS:regul
LIBS:74xx
LIBS:cmos4000
LIBS:adc-dac
LIBS:memory
LIBS:xilinx
LIBS:microcontrollers
LIBS:dsp
LIBS:microchip
LIBS:analog_switches
LIBS:motorola
LIBS:texas
LIBS:intel
LIBS:audio
LIBS:interface
LIBS:digital-audio
LIBS:philips
LIBS:display
LIBS:cypress
LIBS:siliconi
LIBS:opto
LIBS:atmel
LIBS:contrib
LIBS:valves
LIBS:switches
LIBS:myTransistors
LIBS:theremind-cache
EELAYER 25 0
EELAYER END
$Descr A4 11693 8268
encoding utf-8
Sheet 11 11
Title "Theremind"
Date ""
Rev "0.1"
Comp "Hijos de Pachamama"
Comment1 "jgcubidesc@unal.edu.co"
Comment2 "Johnny Cubides"
Comment3 "crpulidog@unal.edu.co"
Comment4 "Carolina Pulido "
$EndDescr
$Comp
L LM13600 U3
U 3 1 5923ABD8
P 4500 3650
F 0 "U3" H 4650 3850 50  0000 C CNN
F 1 "LM13600" H 4700 3450 50  0000 C CNN
F 2 "" H 4400 3675 50  0001 C CNN
F 3 "" H 4400 3675 50  0000 C CNN
	3    4500 3650
	1    0    0    -1  
$EndComp
$Comp
L R Rj3
U 1 1 5923AC74
P 3200 3800
F 0 "Rj3" V 3280 3800 50  0000 C CNN
F 1 "330k" V 3200 3800 50  0000 C CNN
F 2 "" V 3130 3800 50  0001 C CNN
F 3 "" H 3200 3800 50  0000 C CNN
	1    3200 3800
	-1   0    0    1   
$EndComp
$Comp
L R Rj2
U 1 1 5923ACE1
P 3200 3300
F 0 "Rj2" V 3280 3300 50  0000 C CNN
F 1 "150k" V 3200 3300 50  0000 C CNN
F 2 "" V 3130 3300 50  0001 C CNN
F 3 "" H 3200 3300 50  0000 C CNN
	1    3200 3300
	1    0    0    -1  
$EndComp
$Comp
L R Rj1
U 1 1 5923AD08
P 2800 3550
F 0 "Rj1" V 2880 3550 50  0000 C CNN
F 1 "4.7k" V 2800 3550 50  0000 C CNN
F 2 "" V 2730 3550 50  0001 C CNN
F 3 "" H 2800 3550 50  0000 C CNN
	1    2800 3550
	0    1    1    0   
$EndComp
$Comp
L GND #PWR054
U 1 1 5923AD2B
P 2500 3550
F 0 "#PWR054" H 2500 3300 50  0001 C CNN
F 1 "GND" H 2500 3400 50  0000 C CNN
F 2 "" H 2500 3550 50  0000 C CNN
F 3 "" H 2500 3550 50  0000 C CNN
	1    2500 3550
	0    1    1    0   
$EndComp
Wire Wire Line
	2500 3550 2650 3550
Wire Wire Line
	2950 3550 4300 3550
Wire Wire Line
	3200 3450 3200 3650
Connection ~ 3200 3550
$Comp
L VEE #PWR055
U 1 1 5923AD72
P 3200 4050
F 0 "#PWR055" H 3200 3900 50  0001 C CNN
F 1 "VEE" H 3200 4200 50  0000 C CNN
F 2 "" H 3200 4050 50  0000 C CNN
F 3 "" H 3200 4050 50  0000 C CNN
	1    3200 4050
	-1   0    0    1   
$EndComp
Wire Wire Line
	3200 3950 3200 4050
Text HLabel 3200 3000 1    60   Input ~ 0
ondaForm
Wire Wire Line
	3200 3000 3200 3150
$Comp
L R Rj4
U 1 1 5923B151
P 4050 3650
F 0 "Rj4" V 4130 3650 50  0000 C CNN
F 1 "100k" V 4050 3650 50  0000 C CNN
F 2 "" V 3980 3650 50  0001 C CNN
F 3 "" H 4050 3650 50  0000 C CNN
	1    4050 3650
	0    1    1    0   
$EndComp
Wire Wire Line
	4300 3650 4200 3650
Text HLabel 3800 3650 0    60   Input ~ 0
inBrillo
Wire Wire Line
	3900 3650 3800 3650
Text HLabel 4100 3900 0    60   Input ~ 0
inOnda
Wire Wire Line
	4300 3750 4200 3750
Wire Wire Line
	4200 3750 4200 3900
Wire Wire Line
	4200 3900 4100 3900
$Comp
L VCC #PWR056
U 1 1 5923B5AD
P 4500 3250
F 0 "#PWR056" H 4500 3100 50  0001 C CNN
F 1 "VCC" H 4500 3400 50  0000 C CNN
F 2 "" H 4500 3250 50  0000 C CNN
F 3 "" H 4500 3250 50  0000 C CNN
	1    4500 3250
	1    0    0    -1  
$EndComp
Wire Wire Line
	4500 3250 4500 3350
$Comp
L VEE #PWR057
U 1 1 5923B788
P 4500 4050
F 0 "#PWR057" H 4500 3900 50  0001 C CNN
F 1 "VEE" H 4500 4200 50  0000 C CNN
F 2 "" H 4500 4050 50  0000 C CNN
F 3 "" H 4500 4050 50  0000 C CNN
	1    4500 4050
	-1   0    0    1   
$EndComp
Wire Wire Line
	4500 3950 4500 4050
$Comp
L R Rj5
U 1 1 5923B91C
P 5000 4050
F 0 "Rj5" V 5080 4050 50  0000 C CNN
F 1 "100k" V 5000 4050 50  0000 C CNN
F 2 "" V 4930 4050 50  0001 C CNN
F 3 "" H 5000 4050 50  0000 C CNN
	1    5000 4050
	1    0    0    -1  
$EndComp
$Comp
L R Rj6
U 1 1 5923B97C
P 5250 4050
F 0 "Rj6" V 5330 4050 50  0000 C CNN
F 1 "47k" V 5250 4050 50  0000 C CNN
F 2 "" V 5180 4050 50  0001 C CNN
F 3 "" H 5250 4050 50  0000 C CNN
	1    5250 4050
	1    0    0    -1  
$EndComp
$Comp
L VEE #PWR058
U 1 1 5923BB8F
P 5000 4300
F 0 "#PWR058" H 5000 4150 50  0001 C CNN
F 1 "VEE" H 5000 4450 50  0000 C CNN
F 2 "" H 5000 4300 50  0000 C CNN
F 3 "" H 5000 4300 50  0000 C CNN
	1    5000 4300
	-1   0    0    1   
$EndComp
Wire Wire Line
	5000 4200 5000 4300
Wire Wire Line
	5000 3900 5000 3750
Wire Wire Line
	4900 3750 5250 3750
Wire Wire Line
	5250 3750 5250 3900
Connection ~ 5000 3750
Text HLabel 5250 4300 3    60   Input ~ 0
inVolAmp
Wire Wire Line
	5250 4200 5250 4300
$Comp
L LM13600 U3
U 4 1 5923C11B
P 6300 3650
F 0 "U3" H 6450 3850 50  0000 C CNN
F 1 "LM13600" H 6500 3450 50  0000 C CNN
F 2 "" H 6200 3675 50  0001 C CNN
F 3 "" H 6200 3675 50  0000 C CNN
	4    6300 3650
	1    0    0    -1  
$EndComp
$Comp
L VCC #PWR059
U 1 1 5923C2E8
P 6300 3250
F 0 "#PWR059" H 6300 3100 50  0001 C CNN
F 1 "VCC" H 6300 3400 50  0000 C CNN
F 2 "" H 6300 3250 50  0000 C CNN
F 3 "" H 6300 3250 50  0000 C CNN
	1    6300 3250
	1    0    0    -1  
$EndComp
Wire Wire Line
	6300 3250 6300 3350
$Comp
L VEE #PWR060
U 1 1 5923C608
P 6300 4050
F 0 "#PWR060" H 6300 3900 50  0001 C CNN
F 1 "VEE" H 6300 4200 50  0000 C CNN
F 2 "" H 6300 4050 50  0000 C CNN
F 3 "" H 6300 4050 50  0000 C CNN
	1    6300 4050
	-1   0    0    1   
$EndComp
Wire Wire Line
	6300 3950 6300 4050
$Comp
L R Rj8
U 1 1 5923C7C9
P 6900 3950
F 0 "Rj8" V 6980 3950 50  0000 C CNN
F 1 "4.7k" V 6900 3950 50  0000 C CNN
F 2 "" V 6830 3950 50  0001 C CNN
F 3 "" H 6900 3950 50  0000 C CNN
	1    6900 3950
	1    0    0    -1  
$EndComp
$Comp
L VEE #PWR061
U 1 1 5923C82E
P 6900 4200
F 0 "#PWR061" H 6900 4050 50  0001 C CNN
F 1 "VEE" H 6900 4350 50  0000 C CNN
F 2 "" H 6900 4200 50  0000 C CNN
F 3 "" H 6900 4200 50  0000 C CNN
	1    6900 4200
	-1   0    0    1   
$EndComp
Wire Wire Line
	6900 4100 6900 4200
$Comp
L CP Cj2
U 1 1 5923CB4D
P 7200 3650
F 0 "Cj2" H 7225 3750 50  0000 L CNN
F 1 "1uF" H 7225 3550 50  0000 L CNN
F 2 "" H 7238 3500 50  0001 C CNN
F 3 "" H 7200 3650 50  0000 C CNN
	1    7200 3650
	0    1    1    0   
$EndComp
Wire Wire Line
	7050 3650 6600 3650
Wire Wire Line
	6900 3800 6900 3650
Connection ~ 6900 3650
$Comp
L R Rj9
U 1 1 5923CD3C
P 7600 3650
F 0 "Rj9" V 7680 3650 50  0000 C CNN
F 1 "4.7k" V 7600 3650 50  0000 C CNN
F 2 "" V 7530 3650 50  0001 C CNN
F 3 "" H 7600 3650 50  0000 C CNN
	1    7600 3650
	0    1    1    0   
$EndComp
$Comp
L C Cj3
U 1 1 5923CD88
P 7850 3950
F 0 "Cj3" H 7875 4050 50  0000 L CNN
F 1 "0.01u" H 7875 3850 50  0000 L CNN
F 2 "" H 7888 3800 50  0001 C CNN
F 3 "" H 7850 3950 50  0000 C CNN
	1    7850 3950
	1    0    0    -1  
$EndComp
$Comp
L R Rj10
U 1 1 5923CDF3
P 8200 3900
F 0 "Rj10" V 8280 3900 50  0000 C CNN
F 1 "4.7k" V 8200 3900 50  0000 C CNN
F 2 "" V 8130 3900 50  0001 C CNN
F 3 "" H 8200 3900 50  0000 C CNN
	1    8200 3900
	-1   0    0    1   
$EndComp
Wire Wire Line
	8200 3750 8200 3650
Wire Wire Line
	7750 3650 8450 3650
Wire Wire Line
	7850 3800 7850 3650
Connection ~ 7850 3650
$Comp
L GND #PWR062
U 1 1 5923CE9C
P 7850 4200
F 0 "#PWR062" H 7850 3950 50  0001 C CNN
F 1 "GND" H 7850 4050 50  0000 C CNN
F 2 "" H 7850 4200 50  0000 C CNN
F 3 "" H 7850 4200 50  0000 C CNN
	1    7850 4200
	1    0    0    -1  
$EndComp
$Comp
L GND #PWR063
U 1 1 5923CED5
P 8200 4200
F 0 "#PWR063" H 8200 3950 50  0001 C CNN
F 1 "GND" H 8200 4050 50  0000 C CNN
F 2 "" H 8200 4200 50  0000 C CNN
F 3 "" H 8200 4200 50  0000 C CNN
	1    8200 4200
	1    0    0    -1  
$EndComp
Wire Wire Line
	8200 4050 8200 4200
Wire Wire Line
	7850 4100 7850 4200
Wire Wire Line
	7350 3650 7450 3650
$Comp
L R Rj7
U 1 1 5923D41B
P 5550 4000
F 0 "Rj7" V 5630 4000 50  0000 C CNN
F 1 "4.7k" V 5550 4000 50  0000 C CNN
F 2 "" V 5480 4000 50  0001 C CNN
F 3 "" H 5550 4000 50  0000 C CNN
	1    5550 4000
	1    0    0    -1  
$EndComp
$Comp
L C Cj1
U 1 1 5923D4D5
P 5850 4000
F 0 "Cj1" H 5875 4100 50  0000 L CNN
F 1 "0.01u" H 5875 3900 50  0000 L CNN
F 2 "" H 5888 3850 50  0001 C CNN
F 3 "" H 5850 4000 50  0000 C CNN
	1    5850 4000
	1    0    0    -1  
$EndComp
$Comp
L GND #PWR064
U 1 1 5923D608
P 5700 4300
F 0 "#PWR064" H 5700 4050 50  0001 C CNN
F 1 "GND" H 5700 4150 50  0000 C CNN
F 2 "" H 5700 4300 50  0000 C CNN
F 3 "" H 5700 4300 50  0000 C CNN
	1    5700 4300
	1    0    0    -1  
$EndComp
Wire Wire Line
	5550 4150 5850 4150
Wire Wire Line
	5700 4150 5700 4300
Connection ~ 5700 4150
Wire Wire Line
	4900 3650 6000 3650
Wire Wire Line
	5850 3850 5850 3650
Connection ~ 5850 3650
Wire Wire Line
	5550 3850 5550 3650
Connection ~ 5550 3650
Text HLabel 8450 3650 2    60   Output ~ 0
outAudio
Connection ~ 8200 3650
$EndSCHEMATC
