EESchema Schematic File Version 2
LIBS:theremind-rescue
LIBS:power
LIBS:device
LIBS:transistors
LIBS:conn
LIBS:linear
LIBS:regul
LIBS:74xx
LIBS:cmos4000
LIBS:adc-dac
LIBS:memory
LIBS:xilinx
LIBS:microcontrollers
LIBS:dsp
LIBS:microchip
LIBS:analog_switches
LIBS:motorola
LIBS:texas
LIBS:intel
LIBS:audio
LIBS:interface
LIBS:digital-audio
LIBS:philips
LIBS:display
LIBS:cypress
LIBS:siliconi
LIBS:opto
LIBS:atmel
LIBS:contrib
LIBS:valves
LIBS:switches
LIBS:myTransistors
LIBS:theremind-cache
EELAYER 25 0
EELAYER END
$Descr A4 11693 8268
encoding utf-8
Sheet 8 11
Title "Theremind"
Date ""
Rev "0.1"
Comp "Hijos de Pachamama"
Comment1 "jgcubidesc@unal.edu.co"
Comment2 "Johnny Cubides"
Comment3 "crpulidog@unal.edu.co"
Comment4 "Carolina Pulido "
$EndDescr
$Comp
L LM7812CT U4
U 1 1 59239C93
P 4200 3000
F 0 "U4" H 4000 3200 50  0000 C CNN
F 1 "LM7812CT" H 4200 3200 50  0000 L CNN
F 2 "Power_Integrations:TO-220" H 4200 3100 50  0000 C CIN
F 3 "" H 4200 3000 50  0000 C CNN
	1    4200 3000
	1    0    0    -1  
$EndComp
$Comp
L LM7912CT U5
U 1 1 59239CF4
P 4200 4050
F 0 "U5" H 4000 3850 50  0000 C CNN
F 1 "LM7912CT" H 4200 3850 50  0000 L CNN
F 2 "Power_Integrations:TO-220" H 4200 3950 50  0000 C CIN
F 3 "" H 4200 4050 50  0000 C CNN
	1    4200 4050
	1    0    0    -1  
$EndComp
$Comp
L CP Cg1
U 1 1 59239D21
P 3400 3250
F 0 "Cg1" H 3425 3350 50  0000 L CNN
F 1 "2200uF" H 3425 3150 50  0000 L CNN
F 2 "" H 3438 3100 50  0001 C CNN
F 3 "" H 3400 3250 50  0000 C CNN
	1    3400 3250
	1    0    0    -1  
$EndComp
$Comp
L CP Cg2
U 1 1 59239D51
P 3400 3850
F 0 "Cg2" H 3425 3950 50  0000 L CNN
F 1 "2200uF" H 3425 3750 50  0000 L CNN
F 2 "" H 3438 3700 50  0001 C CNN
F 3 "" H 3400 3850 50  0000 C CNN
	1    3400 3850
	1    0    0    -1  
$EndComp
$Comp
L D Dg1
U 1 1 59239DA8
P 2900 2950
F 0 "Dg1" H 2900 3050 50  0000 C CNN
F 1 "1n4001" H 2900 2850 50  0000 C CNN
F 2 "" H 2900 2950 50  0001 C CNN
F 3 "" H 2900 2950 50  0000 C CNN
	1    2900 2950
	-1   0    0    1   
$EndComp
$Comp
L D Dg2
U 1 1 59239DD6
P 2900 4100
F 0 "Dg2" H 2900 4200 50  0000 C CNN
F 1 "1n4001" H 2900 4000 50  0000 C CNN
F 2 "" H 2900 4100 50  0001 C CNN
F 3 "" H 2900 4100 50  0000 C CNN
	1    2900 4100
	1    0    0    -1  
$EndComp
$Comp
L C Cg3
U 1 1 59239ED9
P 4850 3350
F 0 "Cg3" H 4875 3450 50  0000 L CNN
F 1 "0.1uF" H 4875 3250 50  0000 L CNN
F 2 "" H 4888 3200 50  0001 C CNN
F 3 "" H 4850 3350 50  0000 C CNN
	1    4850 3350
	1    0    0    -1  
$EndComp
$Comp
L C Cg4
U 1 1 59239F0D
P 4850 3800
F 0 "Cg4" H 4875 3900 50  0000 L CNN
F 1 "0.1uF" H 4875 3700 50  0000 L CNN
F 2 "" H 4888 3650 50  0001 C CNN
F 3 "" H 4850 3800 50  0000 C CNN
	1    4850 3800
	1    0    0    -1  
$EndComp
Wire Wire Line
	4200 3800 4200 3250
Wire Wire Line
	4850 3650 4850 3500
Wire Wire Line
	1300 3550 5100 3550
Connection ~ 4200 3550
Connection ~ 4850 3550
Wire Wire Line
	3400 3400 3400 3700
Connection ~ 3400 3550
Wire Wire Line
	3800 4100 3050 4100
Wire Wire Line
	3400 4000 3400 4100
Connection ~ 3400 4100
Wire Wire Line
	3800 2950 3050 2950
Wire Wire Line
	3400 3100 3400 2950
Connection ~ 3400 2950
$Comp
L VCC #PWR031
U 1 1 5923A341
P 4850 2850
F 0 "#PWR031" H 4850 2700 50  0001 C CNN
F 1 "VCC" H 4850 3000 50  0000 C CNN
F 2 "" H 4850 2850 50  0000 C CNN
F 3 "" H 4850 2850 50  0000 C CNN
	1    4850 2850
	1    0    0    -1  
$EndComp
$Comp
L VEE #PWR032
U 1 1 5923A3A5
P 4850 4200
F 0 "#PWR032" H 4850 4050 50  0001 C CNN
F 1 "VEE" H 4850 4350 50  0000 C CNN
F 2 "" H 4850 4200 50  0000 C CNN
F 3 "" H 4850 4200 50  0000 C CNN
	1    4850 4200
	-1   0    0    1   
$EndComp
Wire Wire Line
	4600 4100 4850 4100
Wire Wire Line
	4850 3950 4850 4200
Connection ~ 4850 4100
Wire Wire Line
	4850 2850 4850 3200
Wire Wire Line
	4600 2950 4850 2950
Connection ~ 4850 2950
$Comp
L GND #PWR033
U 1 1 5923A606
P 5100 3550
F 0 "#PWR033" H 5100 3300 50  0001 C CNN
F 1 "GND" H 5100 3400 50  0000 C CNN
F 2 "" H 5100 3550 50  0000 C CNN
F 3 "" H 5100 3550 50  0000 C CNN
	1    5100 3550
	0    -1   -1   0   
$EndComp
$Comp
L SW_SPST SWg1
U 1 1 5922D6A4
P 2000 2950
F 0 "SWg1" H 2000 3075 50  0000 C CNN
F 1 "SW_SPST" H 2000 2850 50  0000 C CNN
F 2 "" H 2000 2950 50  0001 C CNN
F 3 "" H 2000 2950 50  0001 C CNN
	1    2000 2950
	1    0    0    -1  
$EndComp
$Comp
L Fuse Fg1
U 1 1 5922D6FC
P 1450 2950
F 0 "Fg1" V 1530 2950 50  0000 C CNN
F 1 "1A" V 1375 2950 50  0000 C CNN
F 2 "" V 1380 2950 50  0001 C CNN
F 3 "" H 1450 2950 50  0000 C CNN
	1    1450 2950
	0    1    1    0   
$EndComp
Wire Wire Line
	2750 2950 2200 2950
Wire Wire Line
	1800 2950 1600 2950
Wire Wire Line
	2550 4100 2750 4100
Wire Wire Line
	2550 2950 2550 4100
$Comp
L CONN_01X02-RESCUE-theremind Pg1
U 1 1 5922DAB3
P 950 3000
AR Path="/5922DAB3" Ref="Pg1"  Part="1" 
AR Path="/59239C32/5922DAB3" Ref="Pg1"  Part="1" 
F 0 "Pg1" H 950 3150 50  0000 C CNN
F 1 "CONN_01X02" V 1050 3000 50  0000 C CNN
F 2 "" H 950 3000 50  0001 C CNN
F 3 "" H 950 3000 50  0000 C CNN
	1    950  3000
	-1   0    0    1   
$EndComp
Wire Wire Line
	1150 2950 1300 2950
Connection ~ 2550 2950
Wire Wire Line
	1150 3050 1300 3050
Wire Wire Line
	1300 3050 1300 3550
$Comp
L CONN_01X03 P1
U 1 1 59321977
P 5950 2800
F 0 "P1" H 5950 3000 50  0000 C CNN
F 1 "CONN_01X03" V 6050 2800 50  0000 C CNN
F 2 "" H 5950 2800 50  0000 C CNN
F 3 "" H 5950 2800 50  0000 C CNN
	1    5950 2800
	0    -1   -1   0   
$EndComp
$Comp
L GND #PWR034
U 1 1 59321BC5
P 5950 3100
F 0 "#PWR034" H 5950 2850 50  0001 C CNN
F 1 "GND" H 5950 2950 50  0000 C CNN
F 2 "" H 5950 3100 50  0000 C CNN
F 3 "" H 5950 3100 50  0000 C CNN
	1    5950 3100
	1    0    0    -1  
$EndComp
$Comp
L VCC #PWR035
U 1 1 59321BFD
P 6050 3300
F 0 "#PWR035" H 6050 3150 50  0001 C CNN
F 1 "VCC" H 6050 3450 50  0000 C CNN
F 2 "" H 6050 3300 50  0000 C CNN
F 3 "" H 6050 3300 50  0000 C CNN
	1    6050 3300
	-1   0    0    1   
$EndComp
$Comp
L VEE #PWR036
U 1 1 59321C35
P 5850 3300
F 0 "#PWR036" H 5850 3150 50  0001 C CNN
F 1 "VEE" H 5850 3450 50  0000 C CNN
F 2 "" H 5850 3300 50  0000 C CNN
F 3 "" H 5850 3300 50  0000 C CNN
	1    5850 3300
	-1   0    0    1   
$EndComp
Wire Wire Line
	5850 3000 5850 3300
Wire Wire Line
	5950 3000 5950 3100
Wire Wire Line
	6050 3000 6050 3300
$EndSCHEMATC
