EESchema Schematic File Version 2
LIBS:theremind-rescue
LIBS:power
LIBS:device
LIBS:transistors
LIBS:conn
LIBS:linear
LIBS:regul
LIBS:74xx
LIBS:cmos4000
LIBS:adc-dac
LIBS:memory
LIBS:xilinx
LIBS:microcontrollers
LIBS:dsp
LIBS:microchip
LIBS:analog_switches
LIBS:motorola
LIBS:texas
LIBS:intel
LIBS:audio
LIBS:interface
LIBS:digital-audio
LIBS:philips
LIBS:display
LIBS:cypress
LIBS:siliconi
LIBS:opto
LIBS:atmel
LIBS:contrib
LIBS:valves
LIBS:switches
LIBS:myTransistors
LIBS:theremind-cache
EELAYER 25 0
EELAYER END
$Descr A4 11693 8268
encoding utf-8
Sheet 10 11
Title "Theremind"
Date ""
Rev "0.1"
Comp "Hijos de Pachamama"
Comment1 "jgcubidesc@unal.edu.co"
Comment2 "Johnny Cubides"
Comment3 "crpulidog@unal.edu.co"
Comment4 "Carolina Pulido "
$EndDescr
$Comp
L R Rf3
U 1 1 592364F8
P 3350 2950
F 0 "Rf3" V 3430 2950 50  0000 C CNN
F 1 "1.8M" V 3350 2950 50  0000 C CNN
F 2 "" V 3280 2950 50  0001 C CNN
F 3 "" H 3350 2950 50  0000 C CNN
	1    3350 2950
	0    1    1    0   
$EndComp
$Comp
L R Rf1
U 1 1 5923652B
P 3050 3200
F 0 "Rf1" V 3130 3200 50  0000 C CNN
F 1 "1.8M" V 3050 3200 50  0000 C CNN
F 2 "" V 2980 3200 50  0001 C CNN
F 3 "" H 3050 3200 50  0000 C CNN
	1    3050 3200
	-1   0    0    1   
$EndComp
$Comp
L C Cf1
U 1 1 592365A4
P 2850 3900
F 0 "Cf1" H 2875 4000 50  0000 L CNN
F 1 "0.1uF" H 2875 3800 50  0000 L CNN
F 2 "" H 2888 3750 50  0001 C CNN
F 3 "" H 2850 3900 50  0000 C CNN
	1    2850 3900
	0    1    1    0   
$EndComp
$Comp
L R Rf2
U 1 1 592365D3
P 3050 4300
F 0 "Rf2" V 3130 4300 50  0000 C CNN
F 1 "4.7M" V 3050 4300 50  0000 C CNN
F 2 "" V 2980 4300 50  0001 C CNN
F 3 "" H 3050 4300 50  0000 C CNN
	1    3050 4300
	1    0    0    -1  
$EndComp
$Comp
L LM13600 U3
U 1 1 59236669
P 3800 3850
F 0 "U3" H 3950 4050 50  0000 C CNN
F 1 "LM13600" H 4000 3650 50  0000 C CNN
F 2 "" H 3700 3875 50  0001 C CNN
F 3 "" H 3700 3875 50  0000 C CNN
	1    3800 3850
	1    0    0    -1  
$EndComp
$Comp
L D Df1
U 1 1 59236776
P 3300 4600
F 0 "Df1" H 3300 4700 50  0000 C CNN
F 1 "1n4148" H 3300 4500 50  0000 C CNN
F 2 "" H 3300 4600 50  0001 C CNN
F 3 "" H 3300 4600 50  0000 C CNN
	1    3300 4600
	-1   0    0    1   
$EndComp
$Comp
L VCC #PWR046
U 1 1 592367B1
P 3800 3400
F 0 "#PWR046" H 3800 3250 50  0001 C CNN
F 1 "VCC" H 3800 3550 50  0000 C CNN
F 2 "" H 3800 3400 50  0000 C CNN
F 3 "" H 3800 3400 50  0000 C CNN
	1    3800 3400
	1    0    0    -1  
$EndComp
Wire Wire Line
	3800 3400 3800 3550
$Comp
L VEE #PWR047
U 1 1 59236940
P 3800 4300
F 0 "#PWR047" H 3800 4150 50  0001 C CNN
F 1 "VEE" H 3800 4450 50  0000 C CNN
F 2 "" H 3800 4300 50  0000 C CNN
F 3 "" H 3800 4300 50  0000 C CNN
	1    3800 4300
	-1   0    0    1   
$EndComp
$Comp
L R Rf4
U 1 1 59236964
P 4600 3950
F 0 "Rf4" V 4680 3950 50  0000 C CNN
F 1 "47k" V 4600 3950 50  0000 C CNN
F 2 "" V 4530 3950 50  0001 C CNN
F 3 "" H 4600 3950 50  0000 C CNN
	1    4600 3950
	0    1    1    0   
$EndComp
Wire Wire Line
	4200 3950 4450 3950
Wire Wire Line
	4900 3950 4750 3950
$Comp
L VCC #PWR048
U 1 1 59236CE4
P 4900 3850
F 0 "#PWR048" H 4900 3700 50  0001 C CNN
F 1 "VCC" H 4900 4000 50  0000 C CNN
F 2 "" H 4900 3850 50  0000 C CNN
F 3 "" H 4900 3850 50  0000 C CNN
	1    4900 3850
	1    0    0    -1  
$EndComp
Wire Wire Line
	4900 3850 4900 3950
Wire Wire Line
	3800 4300 3800 4150
Wire Wire Line
	4200 3850 4300 3850
Wire Wire Line
	4300 3850 4300 4600
Wire Wire Line
	3450 4600 4400 4600
Wire Wire Line
	3150 4600 3050 4600
Wire Wire Line
	3050 4600 3050 4450
Wire Wire Line
	3050 3350 3050 4150
Wire Wire Line
	3050 3900 3000 3900
$Comp
L GND #PWR049
U 1 1 59237095
P 3500 4050
F 0 "#PWR049" H 3500 3800 50  0001 C CNN
F 1 "GND" H 3500 3900 50  0000 C CNN
F 2 "" H 3500 4050 50  0000 C CNN
F 3 "" H 3500 4050 50  0000 C CNN
	1    3500 4050
	1    0    0    -1  
$EndComp
Wire Wire Line
	3500 4050 3500 3950
Wire Wire Line
	3500 3950 3600 3950
$Comp
L GND #PWR050
U 1 1 592370D1
P 2600 4000
F 0 "#PWR050" H 2600 3750 50  0001 C CNN
F 1 "GND" H 2600 3850 50  0000 C CNN
F 2 "" H 2600 4000 50  0000 C CNN
F 3 "" H 2600 4000 50  0000 C CNN
	1    2600 4000
	1    0    0    -1  
$EndComp
Wire Wire Line
	2600 4000 2600 3900
Wire Wire Line
	2600 3900 2700 3900
Connection ~ 3050 3900
Wire Wire Line
	3600 3850 3450 3850
Wire Wire Line
	3450 3850 3450 3250
Wire Wire Line
	3450 3250 3550 3250
Wire Wire Line
	3550 3250 3550 2950
Wire Wire Line
	3550 2950 3500 2950
$Comp
L VCC #PWR051
U 1 1 592375C9
P 2950 2950
F 0 "#PWR051" H 2950 2800 50  0001 C CNN
F 1 "VCC" H 2950 3100 50  0000 C CNN
F 2 "" H 2950 2950 50  0000 C CNN
F 3 "" H 2950 2950 50  0000 C CNN
	1    2950 2950
	0    -1   -1   0   
$EndComp
Wire Wire Line
	2950 2950 3200 2950
Wire Wire Line
	3050 2950 3050 3050
Connection ~ 3050 2950
Text HLabel 2850 3750 0    60   Input ~ 0
inVolAnt
Text HLabel 4400 4600 2    60   Output ~ 0
VolAmpAnt
Connection ~ 4300 4600
$Comp
L LM13600 U3
U 2 1 59250B89
P 5550 3750
F 0 "U3" H 5700 3950 50  0000 C CNN
F 1 "LM13600" H 5750 3550 50  0000 C CNN
F 2 "" H 5450 3775 50  0001 C CNN
F 3 "" H 5450 3775 50  0000 C CNN
	2    5550 3750
	1    0    0    -1  
$EndComp
$Comp
L VCC #PWR052
U 1 1 59250C1F
P 5550 3400
F 0 "#PWR052" H 5550 3250 50  0001 C CNN
F 1 "VCC" H 5550 3550 50  0000 C CNN
F 2 "" H 5550 3400 50  0000 C CNN
F 3 "" H 5550 3400 50  0000 C CNN
	1    5550 3400
	1    0    0    -1  
$EndComp
Wire Wire Line
	5550 3400 5550 3450
$Comp
L VEE #PWR053
U 1 1 59250F45
P 5550 4150
F 0 "#PWR053" H 5550 4000 50  0001 C CNN
F 1 "VEE" H 5550 4300 50  0000 C CNN
F 2 "" H 5550 4150 50  0000 C CNN
F 3 "" H 5550 4150 50  0000 C CNN
	1    5550 4150
	-1   0    0    1   
$EndComp
Wire Wire Line
	5550 4050 5550 4150
NoConn ~ 5850 3750
NoConn ~ 5250 3750
Wire Wire Line
	2850 3750 3600 3750
Connection ~ 3050 3750
$EndSCHEMATC
