v 20130925 2
C 40000 40000 0 0 0 title-B.sym
C 44800 45400 1 0 0 npn-3.sym
{
T 45700 45900 5 10 0 0 0 0 1
device=NPN_TRANSISTOR
T 45700 45900 5 10 1 1 0 0 1
refdes=Q1
T 45600 45500 5 10 1 1 0 0 1
model-name=CA3046
}
C 47800 45400 1 0 1 npn-3.sym
{
T 46900 45900 5 10 0 0 0 6 1
device=NPN_TRANSISTOR
T 46900 45900 5 10 1 1 0 6 1
refdes=Q2
T 46400 45500 5 10 1 1 0 0 1
model-name=CA3046
}
C 46400 44000 1 90 0 resistor-1.sym
{
T 46000 44300 5 10 0 0 90 0 1
device=RESISTOR
T 46100 44200 5 10 1 1 90 0 1
refdes=R1
T 46400 44000 5 10 1 1 0 0 1
value=2.2k
}
C 44500 44800 1 90 0 resistor-1.sym
{
T 44100 45100 5 10 0 0 90 0 1
device=RESISTOR
T 44200 45000 5 10 1 1 90 0 1
refdes=R2
T 44500 44800 5 10 1 1 0 0 1
value=1k
}
C 48400 44700 1 90 0 resistor-1.sym
{
T 48000 45000 5 10 0 0 90 0 1
device=RESISTOR
T 48100 44900 5 10 1 1 90 0 1
refdes=R3
T 48400 44700 5 10 1 1 0 0 1
value=1k
}
C 48400 46000 1 90 0 resistor-1.sym
{
T 48000 46300 5 10 0 0 90 0 1
device=RESISTOR
T 48100 46200 5 10 1 1 90 0 1
refdes=R4
T 48400 46000 5 10 1 1 0 0 1
value=47k
}
C 46100 46800 1 0 0 capacitor-1.sym
{
T 46300 47500 5 10 0 0 0 0 1
device=CAPACITOR
T 46300 47300 5 10 1 1 0 0 1
refdes=C1
T 46300 47700 5 10 0 0 0 0 1
symversion=0.1
T 46000 46700 5 10 1 1 0 0 1
value=0.01u
}
C 45500 47200 1 90 0 inductor-1.sym
{
T 45000 47400 5 10 0 0 90 0 1
device=INDUCTOR
T 45200 47400 5 10 1 1 90 0 1
refdes=L1
T 44800 47400 5 10 0 0 90 0 1
symversion=0.1
T 45500 47600 5 10 1 1 0 0 1
value=100u
}
C 44800 47200 1 90 0 capacitor-1.sym
{
T 44100 47400 5 10 0 0 90 0 1
device=CAPACITOR
T 44300 47400 5 10 1 1 90 0 1
refdes=C2
T 43900 47400 5 10 0 0 90 0 1
symversion=0.1
T 44700 47300 5 10 1 1 0 0 1
value=4n
}
N 47200 46400 47200 48500 4
N 45400 46400 45400 47200 4
N 44600 47200 44600 47000 4
C 45200 48500 1 0 0 vcc-1.sym
N 45400 48500 45400 48100 4
N 44600 48100 44600 48300 4
N 44600 48300 45400 48300 4
C 49600 45600 1 90 0 capacitor-1.sym
{
T 48900 45800 5 10 0 0 90 0 1
device=CAPACITOR
T 49100 45800 5 10 1 1 90 0 1
refdes=C4
T 48700 45800 5 10 0 0 90 0 1
symversion=0.1
T 49600 45600 5 10 1 1 0 0 1
value=1u
}
C 48200 44200 1 0 0 gnd-1.sym
C 49300 44300 1 0 0 gnd-1.sym
N 49400 44600 49400 45600 4
C 49200 47000 1 0 0 vcc-1.sym
N 49400 46500 49400 47000 4
N 48300 45600 48300 46000 4
N 48300 44500 48300 44700 4
N 44400 45700 44400 45900 4
N 44400 45900 44800 45900 4
N 46300 44900 46300 45400 4
N 45400 45400 47200 45400 4
N 46300 43800 46300 44000 4
C 44300 44300 1 0 0 gnd-1.sym
N 44400 44800 44400 44600 4
C 47000 48500 1 0 0 vcc-1.sym
N 46100 47000 45400 47000 4
N 43600 47000 45400 47000 4
N 47000 47000 48300 47000 4
N 48300 47000 48300 46900 4
N 47800 45900 48300 45900 4
C 43500 45300 1 270 0 output-2.sym
{
T 43700 44400 5 10 1 0 270 0 1
net=out:1
T 44200 45100 5 10 0 0 270 0 1
device=none
T 43600 44400 5 10 1 1 270 1 1
value=out
}
C 42400 48100 1 0 0 spice-model-1.sym
{
T 42500 48800 5 10 0 1 0 0 1
device=model
T 42500 48700 5 10 1 1 0 0 1
refdes=A1
T 43700 48400 5 10 1 1 0 0 1
model-name=CA3046
T 42900 48200 5 10 1 1 0 0 1
file=ca3046.mdl
}
C 50300 46300 1 0 0 vdc-1.sym
{
T 51000 46950 5 10 1 1 0 0 1
refdes=V1
T 51000 47150 5 10 0 0 0 0 1
device=VOLTAGE_SOURCE
T 51000 47350 5 10 0 0 0 0 1
footprint=none
T 51000 46750 5 10 1 1 0 0 1
value=DC 12V
}
C 50300 44500 1 0 0 vdc-1.sym
{
T 51000 45150 5 10 1 1 0 0 1
refdes=V2
T 51000 45350 5 10 0 0 0 0 1
device=VOLTAGE_SOURCE
T 51000 45550 5 10 0 0 0 0 1
footprint=none
T 51000 44950 5 10 1 1 0 0 1
value=DC 12V
}
N 50600 46300 50600 45700 4
C 51100 45900 1 90 0 gnd-1.sym
C 50400 47700 1 0 0 vcc-1.sym
N 50600 47700 50600 47500 4
N 50800 46000 50600 46000 4
C 50800 44200 1 180 0 vee-1.sym
N 50600 44200 50600 44500 4
C 46500 43800 1 180 0 vee-1.sym
C 47100 45100 1 270 0 output-2.sym
{
T 47300 44200 5 10 1 0 270 0 1
net=vemisor:1
T 47800 44900 5 10 0 0 270 0 1
device=none
T 47200 44200 5 10 1 1 270 1 1
value=vemisor
}
N 47200 45100 47200 45200 4
N 47200 45200 46300 45200 4
C 48700 45600 1 270 0 output-2.sym
{
T 48900 44700 5 10 1 0 270 0 1
net=base2:1
T 49400 45400 5 10 0 0 270 0 1
device=none
T 48800 44700 5 10 1 1 270 1 1
value=base2
}
N 48800 45600 48800 45900 4
N 48800 45900 48300 45900 4
C 44600 44700 1 270 0 output-2.sym
{
T 44800 43800 5 10 1 0 270 0 1
net=base1:1
T 45300 44500 5 10 0 0 270 0 1
device=none
T 44700 43800 5 10 1 1 270 1 1
value=base1
}
N 44700 44700 44700 45900 4
C 43800 45800 1 90 0 capacitor-1.sym
{
T 43100 46000 5 10 0 0 90 0 1
device=CAPACITOR
T 43300 46000 5 10 1 1 90 0 1
refdes=C3
T 42900 46000 5 10 0 0 90 0 1
symversion=0.1
T 43700 45900 5 10 1 1 0 0 1
value=22p
}
N 43600 47000 43600 46700 4
N 43600 45300 43600 45800 4
C 43000 45700 1 90 0 resistor-2.sym
{
T 42650 46100 5 10 0 0 90 0 1
device=RESISTOR
T 42700 45900 5 10 1 1 90 0 1
refdes=Rload
T 43200 46300 5 10 1 1 90 0 1
value=300k
}
C 43000 47100 1 180 0 gnd-1.sym
N 42900 45700 42900 45500 4
N 42900 45500 43600 45500 4
N 42900 46800 42900 46600 4
T 45400 49100 9 14 1 0 0 0 2
Oscilador de Tono Variable

