%!PS-Adobe-3.0 EPSF-3.0
%%Creator: nutmeg
%%BoundingBox: 54 54 612 612
1 1 scale
1.000 1.000 1.000 setrgbcolor
newpath
54 54 moveto 612 54 lineto
612 612 lineto 54 612 lineto
closepath fill
/Helvetica findfont 10 scalefont setfont

0.000 0.000 0.000 setrgbcolor
0.502 0.502 0.502 setrgbcolor
0.000 0.000 0.000 setrgbcolor
0.000 0.000 0.000 setrgbcolor
243 66 moveto
(time) show
0.000 0.000 0.000 setrgbcolor
0.502 0.502 0.502 setrgbcolor
newpath
84 104 moveto
84 544 lineto
stroke
0.000 0.000 0.000 setrgbcolor
0.000 0.000 0.000 setrgbcolor
66 87 moveto
(8.0080) show
0.000 0.000 0.000 setrgbcolor
0.502 0.502 0.502 setrgbcolor
newpath
144 104 moveto
144 544 lineto
stroke
0.000 0.000 0.000 setrgbcolor
0.000 0.000 0.000 setrgbcolor
126 87 moveto
(8.0090) show
0.000 0.000 0.000 setrgbcolor
0.502 0.502 0.502 setrgbcolor
newpath
204 104 moveto
204 544 lineto
stroke
0.000 0.000 0.000 setrgbcolor
0.000 0.000 0.000 setrgbcolor
186 87 moveto
(8.0100) show
0.000 0.000 0.000 setrgbcolor
0.502 0.502 0.502 setrgbcolor
newpath
264 104 moveto
264 544 lineto
stroke
0.000 0.000 0.000 setrgbcolor
0.000 0.000 0.000 setrgbcolor
246 87 moveto
(8.0110) show
0.000 0.000 0.000 setrgbcolor
0.502 0.502 0.502 setrgbcolor
newpath
324 104 moveto
324 544 lineto
stroke
0.000 0.000 0.000 setrgbcolor
0.000 0.000 0.000 setrgbcolor
306 87 moveto
(8.0120) show
0.000 0.000 0.000 setrgbcolor
0.502 0.502 0.502 setrgbcolor
newpath
384 104 moveto
384 544 lineto
stroke
0.000 0.000 0.000 setrgbcolor
0.000 0.000 0.000 setrgbcolor
366 87 moveto
(8.0130) show
0.000 0.000 0.000 setrgbcolor
0.502 0.502 0.502 setrgbcolor
newpath
444 104 moveto
444 544 lineto
stroke
0.000 0.000 0.000 setrgbcolor
0.000 0.000 0.000 setrgbcolor
426 87 moveto
(8.0140) show
0.000 0.000 0.000 setrgbcolor
0.502 0.502 0.502 setrgbcolor
newpath
504 104 moveto
504 544 lineto
stroke
0.000 0.000 0.000 setrgbcolor
0.000 0.000 0.000 setrgbcolor
486 87 moveto
(8.0150) show
0.000 0.000 0.000 setrgbcolor
0.502 0.502 0.502 setrgbcolor
newpath
564 104 moveto
564 544 lineto
stroke
0.000 0.000 0.000 setrgbcolor
0.000 0.000 0.000 setrgbcolor
546 87 moveto
(8.0160) show
0.000 0.000 0.000 setrgbcolor
0.502 0.502 0.502 setrgbcolor
0.000 0.000 0.000 setrgbcolor
0.000 0.000 0.000 setrgbcolor
382 66 moveto
(ms) show
0.000 0.000 0.000 setrgbcolor
0.502 0.502 0.502 setrgbcolor
newpath
84 104 moveto
564 104 lineto
stroke
0.000 0.000 0.000 setrgbcolor
0.000 0.000 0.000 setrgbcolor
54 101 moveto
(-20.0) show
0.000 0.000 0.000 setrgbcolor
0.502 0.502 0.502 setrgbcolor
newpath
84 159 moveto
564 159 lineto
stroke
0.000 0.000 0.000 setrgbcolor
0.000 0.000 0.000 setrgbcolor
54 156 moveto
(-15.0) show
0.000 0.000 0.000 setrgbcolor
0.502 0.502 0.502 setrgbcolor
newpath
84 214 moveto
564 214 lineto
stroke
0.000 0.000 0.000 setrgbcolor
0.000 0.000 0.000 setrgbcolor
54 211 moveto
(-10.0) show
0.000 0.000 0.000 setrgbcolor
0.502 0.502 0.502 setrgbcolor
newpath
84 269 moveto
564 269 lineto
stroke
0.000 0.000 0.000 setrgbcolor
0.000 0.000 0.000 setrgbcolor
60 266 moveto
(-5.0) show
0.000 0.000 0.000 setrgbcolor
0.502 0.502 0.502 setrgbcolor
0.000 0.000 0.000 setrgbcolor
newpath
84 324 moveto
564 324 lineto
stroke
0.502 0.502 0.502 setrgbcolor
0.000 0.000 0.000 setrgbcolor
0.000 0.000 0.000 setrgbcolor
66 321 moveto
(0.0) show
0.000 0.000 0.000 setrgbcolor
0.502 0.502 0.502 setrgbcolor
newpath
84 379 moveto
564 379 lineto
stroke
0.000 0.000 0.000 setrgbcolor
0.000 0.000 0.000 setrgbcolor
66 376 moveto
(5.0) show
0.000 0.000 0.000 setrgbcolor
0.502 0.502 0.502 setrgbcolor
newpath
84 434 moveto
564 434 lineto
stroke
0.000 0.000 0.000 setrgbcolor
0.000 0.000 0.000 setrgbcolor
60 431 moveto
(10.0) show
0.000 0.000 0.000 setrgbcolor
0.502 0.502 0.502 setrgbcolor
newpath
84 489 moveto
564 489 lineto
stroke
0.000 0.000 0.000 setrgbcolor
0.000 0.000 0.000 setrgbcolor
60 486 moveto
(15.0) show
0.000 0.000 0.000 setrgbcolor
0.502 0.502 0.502 setrgbcolor
newpath
84 544 moveto
564 544 lineto
stroke
0.000 0.000 0.000 setrgbcolor
0.000 0.000 0.000 setrgbcolor
60 541 moveto
(20.0) show
0.000 0.000 0.000 setrgbcolor
0.502 0.502 0.502 setrgbcolor
0.000 0.000 0.000 setrgbcolor
0.000 0.000 0.000 setrgbcolor
54 582 moveto
(V) show
0.000 0.000 0.000 setrgbcolor
0.502 0.502 0.502 setrgbcolor
1.000 0.000 0.000 setrgbcolor
newpath
288 586 moveto
312 586 lineto
stroke
0.000 0.000 0.000 setrgbcolor
0.000 0.000 0.000 setrgbcolor
318 582 moveto
(v(out)) show
0.000 0.000 0.000 setrgbcolor
1.000 0.000 0.000 setrgbcolor
newpath
85 364 moveto
85 366 lineto
86 369 lineto
86 372 lineto
87 374 lineto
88 377 lineto
88 379 lineto
89 382 lineto
89 384 lineto
90 387 lineto
91 389 lineto
91 392 lineto
92 394 lineto
92 397 lineto
93 399 lineto
94 402 lineto
94 404 lineto
95 407 lineto
95 409 lineto
96 411 lineto
97 414 lineto
97 416 lineto
98 418 lineto
98 421 lineto
99 423 lineto
100 425 lineto
100 427 lineto
101 430 lineto
101 432 lineto
102 434 lineto
103 436 lineto
103 438 lineto
104 440 lineto
104 442 lineto
105 444 lineto
106 446 lineto
106 448 lineto
107 450 lineto
107 452 lineto
108 453 lineto
109 455 lineto
109 457 lineto
110 459 lineto
110 460 lineto
111 462 lineto
112 464 lineto
112 465 lineto
113 467 lineto
113 468 lineto
114 470 lineto
115 471 lineto
115 473 lineto
116 474 lineto
116 475 lineto
117 477 lineto
118 478 lineto
118 479 lineto
119 480 lineto
119 481 lineto
120 483 lineto
121 484 lineto
121 485 lineto
122 486 lineto
122 487 lineto
123 487 lineto
124 488 lineto
124 489 lineto
125 490 lineto
125 491 lineto
126 491 lineto
127 492 lineto
127 493 lineto
128 493 lineto
128 494 lineto
129 494 lineto
130 495 lineto
131 495 lineto
131 496 lineto
132 496 lineto
133 496 lineto
134 496 lineto
134 497 lineto
135 497 lineto
136 497 lineto
137 497 lineto
137 496 lineto
138 496 lineto
139 496 lineto
140 496 lineto
140 495 lineto
141 495 lineto
142 494 lineto
143 493 lineto
144 492 lineto
145 492 lineto
145 491 lineto
146 490 lineto
146 489 lineto
147 489 lineto
148 488 lineto
148 487 lineto
149 486 lineto
149 485 lineto
150 484 lineto
151 483 lineto
151 482 lineto
152 481 lineto
152 480 lineto
153 478 lineto
154 477 lineto
154 476 lineto
155 475 lineto
155 473 lineto
156 472 lineto
157 470 lineto
157 469 lineto
158 467 lineto
158 466 lineto
159 464 lineto
160 463 lineto
160 461 lineto
161 459 lineto
161 458 lineto
162 456 lineto
163 454 lineto
163 452 lineto
164 451 lineto
164 449 lineto
165 447 lineto
166 445 lineto
166 443 lineto
167 441 lineto
167 439 lineto
168 437 lineto
169 435 lineto
169 433 lineto
170 431 lineto
170 428 lineto
171 426 lineto
172 424 lineto
172 422 lineto
173 419 lineto
173 417 lineto
174 415 lineto
175 413 lineto
175 410 lineto
176 408 lineto
176 405 lineto
177 403 lineto
178 401 lineto
178 398 lineto
179 396 lineto
179 393 lineto
180 391 lineto
181 388 lineto
181 386 lineto
182 383 lineto
182 380 lineto
183 378 lineto
184 375 lineto
184 373 lineto
185 370 lineto
185 367 lineto
186 365 lineto
187 362 lineto
187 359 lineto
188 357 lineto
188 354 lineto
189 351 lineto
190 349 lineto
190 346 lineto
191 343 lineto
191 340 lineto
192 338 lineto
193 335 lineto
193 332 lineto
194 329 lineto
194 327 lineto
195 324 lineto
196 321 lineto
196 318 lineto
197 316 lineto
197 313 lineto
198 310 lineto
199 307 lineto
199 305 lineto
200 302 lineto
200 299 lineto
201 296 lineto
202 294 lineto
202 291 lineto
203 288 lineto
203 285 lineto
204 283 lineto
205 280 lineto
205 277 lineto
206 274 lineto
206 272 lineto
207 269 lineto
208 266 lineto
208 264 lineto
209 261 lineto
209 258 lineto
210 256 lineto
211 253 lineto
211 251 lineto
212 248 lineto
212 245 lineto
213 243 lineto
214 240 lineto
214 238 lineto
215 235 lineto
215 233 lineto
216 230 lineto
217 228 lineto
217 226 lineto
218 223 lineto
218 221 lineto
219 219 lineto
220 216 lineto
220 214 lineto
221 212 lineto
221 210 lineto
222 207 lineto
223 205 lineto
223 203 lineto
224 201 lineto
224 199 lineto
225 197 lineto
226 195 lineto
226 193 lineto
227 191 lineto
227 189 lineto
228 187 lineto
229 185 lineto
229 184 lineto
230 182 lineto
230 180 lineto
231 178 lineto
232 177 lineto
232 175 lineto
233 174 lineto
233 172 lineto
234 171 lineto
234 170 lineto
235 169 lineto
235 168 lineto
236 167 lineto
236 166 lineto
237 165 lineto
237 164 lineto
238 163 lineto
239 162 lineto
239 161 lineto
240 160 lineto
240 159 lineto
241 158 lineto
242 157 lineto
243 156 lineto
243 155 lineto
244 155 lineto
245 154 lineto
245 153 lineto
246 153 lineto
247 152 lineto
248 152 lineto
249 151 lineto
250 151 lineto
251 151 lineto
252 151 lineto
253 151 lineto
254 151 lineto
255 151 lineto
256 152 lineto
257 152 lineto
258 153 lineto
259 154 lineto
260 154 lineto
260 155 lineto
261 155 lineto
261 156 lineto
262 157 lineto
263 158 lineto
264 159 lineto
264 160 lineto
265 161 lineto
266 162 lineto
266 163 lineto
267 164 lineto
267 165 lineto
268 166 lineto
269 167 lineto
269 168 lineto
270 169 lineto
270 171 lineto
271 172 lineto
272 173 lineto
272 174 lineto
273 176 lineto
273 177 lineto
274 179 lineto
275 180 lineto
275 182 lineto
276 183 lineto
276 185 lineto
277 186 lineto
278 188 lineto
278 190 lineto
279 191 lineto
279 193 lineto
280 195 lineto
281 196 lineto
281 198 lineto
282 200 lineto
282 201 lineto
283 203 lineto
284 205 lineto
284 207 lineto
285 209 lineto
285 210 lineto
286 212 lineto
287 214 lineto
287 216 lineto
288 218 lineto
288 220 lineto
289 222 lineto
290 224 lineto
290 226 lineto
291 228 lineto
291 231 lineto
292 233 lineto
293 235 lineto
293 237 lineto
294 239 lineto
294 242 lineto
295 244 lineto
296 246 lineto
296 248 lineto
297 251 lineto
297 253 lineto
298 255 lineto
299 258 lineto
299 260 lineto
300 263 lineto
300 265 lineto
301 268 lineto
302 270 lineto
302 272 lineto
303 275 lineto
303 277 lineto
304 280 lineto
305 282 lineto
305 285 lineto
306 288 lineto
306 290 lineto
307 293 lineto
308 295 lineto
308 298 lineto
309 300 lineto
309 303 lineto
310 306 lineto
311 308 lineto
311 311 lineto
312 313 lineto
312 316 lineto
313 319 lineto
314 321 lineto
314 324 lineto
315 327 lineto
315 329 lineto
316 332 lineto
317 335 lineto
317 337 lineto
318 340 lineto
318 343 lineto
319 345 lineto
320 348 lineto
320 350 lineto
321 353 lineto
321 356 lineto
322 358 lineto
323 361 lineto
323 364 lineto
324 366 lineto
324 369 lineto
325 371 lineto
326 374 lineto
326 377 lineto
327 379 lineto
327 382 lineto
328 384 lineto
329 387 lineto
329 389 lineto
330 392 lineto
330 394 lineto
331 397 lineto
332 399 lineto
332 402 lineto
333 404 lineto
333 407 lineto
334 409 lineto
335 411 lineto
335 414 lineto
336 416 lineto
336 418 lineto
337 421 lineto
338 423 lineto
338 425 lineto
339 427 lineto
339 429 lineto
340 432 lineto
341 434 lineto
341 436 lineto
342 438 lineto
342 440 lineto
343 442 lineto
344 444 lineto
344 446 lineto
345 448 lineto
345 450 lineto
346 452 lineto
347 453 lineto
347 455 lineto
348 457 lineto
348 459 lineto
349 460 lineto
350 462 lineto
350 464 lineto
351 465 lineto
351 467 lineto
352 468 lineto
353 470 lineto
353 471 lineto
354 473 lineto
354 474 lineto
355 475 lineto
356 477 lineto
356 478 lineto
357 479 lineto
357 480 lineto
358 481 lineto
359 483 lineto
359 484 lineto
360 485 lineto
360 486 lineto
361 487 lineto
362 487 lineto
362 488 lineto
363 489 lineto
363 490 lineto
364 491 lineto
365 491 lineto
365 492 lineto
366 493 lineto
367 494 lineto
368 494 lineto
368 495 lineto
369 495 lineto
370 496 lineto
371 496 lineto
372 496 lineto
373 497 lineto
374 497 lineto
375 497 lineto
376 496 lineto
377 496 lineto
378 496 lineto
379 495 lineto
380 495 lineto
380 494 lineto
381 494 lineto
381 493 lineto
382 493 lineto
383 492 lineto
384 491 lineto
384 490 lineto
385 490 lineto
386 489 lineto
386 488 lineto
387 487 lineto
387 486 lineto
388 485 lineto
389 484 lineto
389 483 lineto
390 482 lineto
390 481 lineto
391 480 lineto
392 479 lineto
392 477 lineto
393 476 lineto
393 475 lineto
394 473 lineto
395 472 lineto
395 471 lineto
396 469 lineto
396 468 lineto
397 466 lineto
398 464 lineto
398 463 lineto
399 461 lineto
399 460 lineto
400 458 lineto
401 456 lineto
401 454 lineto
402 453 lineto
402 451 lineto
403 449 lineto
404 447 lineto
404 445 lineto
405 443 lineto
405 441 lineto
406 439 lineto
407 437 lineto
407 435 lineto
408 433 lineto
408 431 lineto
409 428 lineto
410 426 lineto
410 424 lineto
411 422 lineto
411 420 lineto
412 417 lineto
413 415 lineto
413 413 lineto
414 410 lineto
414 408 lineto
415 406 lineto
416 403 lineto
416 401 lineto
417 398 lineto
417 396 lineto
418 393 lineto
419 391 lineto
419 388 lineto
420 386 lineto
420 383 lineto
421 381 lineto
422 378 lineto
422 375 lineto
423 373 lineto
423 370 lineto
424 368 lineto
425 365 lineto
425 362 lineto
426 360 lineto
426 357 lineto
427 354 lineto
428 351 lineto
428 349 lineto
429 346 lineto
429 343 lineto
430 341 lineto
431 338 lineto
431 335 lineto
432 332 lineto
432 330 lineto
433 327 lineto
434 324 lineto
434 321 lineto
435 319 lineto
435 316 lineto
436 313 lineto
437 310 lineto
437 308 lineto
438 305 lineto
438 302 lineto
439 299 lineto
440 296 lineto
440 294 lineto
441 291 lineto
441 288 lineto
442 285 lineto
443 283 lineto
443 280 lineto
444 277 lineto
444 275 lineto
445 272 lineto
446 269 lineto
446 267 lineto
447 264 lineto
447 261 lineto
448 259 lineto
449 256 lineto
449 253 lineto
450 251 lineto
450 248 lineto
451 246 lineto
452 243 lineto
452 240 lineto
453 238 lineto
453 235 lineto
454 233 lineto
455 231 lineto
455 228 lineto
456 226 lineto
456 223 lineto
457 221 lineto
458 219 lineto
458 216 lineto
459 214 lineto
459 212 lineto
460 210 lineto
461 207 lineto
461 205 lineto
462 203 lineto
462 201 lineto
463 199 lineto
464 197 lineto
464 195 lineto
465 193 lineto
465 191 lineto
466 189 lineto
467 187 lineto
467 186 lineto
468 184 lineto
468 182 lineto
469 180 lineto
470 179 lineto
470 177 lineto
471 175 lineto
471 174 lineto
472 172 lineto
473 171 lineto
473 170 lineto
474 169 lineto
474 168 lineto
475 167 lineto
475 166 lineto
476 165 lineto
476 163 lineto
477 162 lineto
478 161 lineto
478 160 lineto
479 160 lineto
479 159 lineto
480 158 lineto
481 157 lineto
481 156 lineto
482 156 lineto
482 155 lineto
483 154 lineto
484 154 lineto
484 153 lineto
485 153 lineto
485 152 lineto
486 152 lineto
487 152 lineto
488 151 lineto
489 151 lineto
490 151 lineto
491 151 lineto
492 151 lineto
493 151 lineto
494 151 lineto
494 152 lineto
495 152 lineto
496 152 lineto
497 153 lineto
498 154 lineto
499 154 lineto
499 155 lineto
500 156 lineto
501 157 lineto
502 158 lineto
503 159 lineto
503 160 lineto
504 161 lineto
505 162 lineto
505 163 lineto
506 164 lineto
506 165 lineto
507 166 lineto
508 167 lineto
508 168 lineto
509 170 lineto
509 171 lineto
510 172 lineto
511 173 lineto
511 175 lineto
512 176 lineto
512 178 lineto
513 179 lineto
514 180 lineto
514 182 lineto
515 183 lineto
515 185 lineto
516 187 lineto
517 188 lineto
517 190 lineto
518 192 lineto
518 193 lineto
519 195 lineto
520 197 lineto
520 198 lineto
521 200 lineto
521 202 lineto
522 203 lineto
523 205 lineto
523 207 lineto
524 209 lineto
524 211 lineto
525 213 lineto
526 215 lineto
526 217 lineto
527 219 lineto
527 221 lineto
528 223 lineto
529 225 lineto
529 227 lineto
530 229 lineto
530 231 lineto
531 233 lineto
532 235 lineto
532 238 lineto
533 240 lineto
533 242 lineto
534 244 lineto
535 247 lineto
535 249 lineto
536 251 lineto
536 254 lineto
537 256 lineto
538 258 lineto
538 261 lineto
539 263 lineto
539 266 lineto
540 268 lineto
541 271 lineto
541 273 lineto
542 276 lineto
542 278 lineto
543 281 lineto
544 283 lineto
544 286 lineto
545 288 lineto
545 291 lineto
546 293 lineto
547 296 lineto
547 298 lineto
548 301 lineto
548 304 lineto
549 306 lineto
550 309 lineto
550 311 lineto
551 314 lineto
551 317 lineto
552 319 lineto
553 322 lineto
553 325 lineto
554 327 lineto
554 330 lineto
555 333 lineto
556 335 lineto
556 338 lineto
557 340 lineto
557 343 lineto
558 346 lineto
559 348 lineto
559 351 lineto
560 354 lineto
560 356 lineto
561 359 lineto
562 362 lineto
562 364 lineto
563 367 lineto
563 369 lineto
564 372 lineto
stroke
showpage
%%EOF
