%!PS-Adobe-3.0 EPSF-3.0
%%Creator: nutmeg
%%BoundingBox: 54 54 612 612
1 1 scale
1.000 1.000 1.000 setrgbcolor
newpath
54 54 moveto 612 54 lineto
612 612 lineto 54 612 lineto
closepath fill
/Helvetica findfont 10 scalefont setfont

0.000 0.000 0.000 setrgbcolor
0.502 0.502 0.502 setrgbcolor
0.000 0.000 0.000 setrgbcolor
0.000 0.000 0.000 setrgbcolor
243 66 moveto
(time) show
0.000 0.000 0.000 setrgbcolor
0.502 0.502 0.502 setrgbcolor
newpath
84 104 moveto
84 548 lineto
stroke
0.000 0.000 0.000 setrgbcolor
0.000 0.000 0.000 setrgbcolor
66 87 moveto
(8.0080) show
0.000 0.000 0.000 setrgbcolor
0.502 0.502 0.502 setrgbcolor
newpath
144 104 moveto
144 548 lineto
stroke
0.000 0.000 0.000 setrgbcolor
0.000 0.000 0.000 setrgbcolor
126 87 moveto
(8.0090) show
0.000 0.000 0.000 setrgbcolor
0.502 0.502 0.502 setrgbcolor
newpath
204 104 moveto
204 548 lineto
stroke
0.000 0.000 0.000 setrgbcolor
0.000 0.000 0.000 setrgbcolor
186 87 moveto
(8.0100) show
0.000 0.000 0.000 setrgbcolor
0.502 0.502 0.502 setrgbcolor
newpath
264 104 moveto
264 548 lineto
stroke
0.000 0.000 0.000 setrgbcolor
0.000 0.000 0.000 setrgbcolor
246 87 moveto
(8.0110) show
0.000 0.000 0.000 setrgbcolor
0.502 0.502 0.502 setrgbcolor
newpath
324 104 moveto
324 548 lineto
stroke
0.000 0.000 0.000 setrgbcolor
0.000 0.000 0.000 setrgbcolor
306 87 moveto
(8.0120) show
0.000 0.000 0.000 setrgbcolor
0.502 0.502 0.502 setrgbcolor
newpath
384 104 moveto
384 548 lineto
stroke
0.000 0.000 0.000 setrgbcolor
0.000 0.000 0.000 setrgbcolor
366 87 moveto
(8.0130) show
0.000 0.000 0.000 setrgbcolor
0.502 0.502 0.502 setrgbcolor
newpath
444 104 moveto
444 548 lineto
stroke
0.000 0.000 0.000 setrgbcolor
0.000 0.000 0.000 setrgbcolor
426 87 moveto
(8.0140) show
0.000 0.000 0.000 setrgbcolor
0.502 0.502 0.502 setrgbcolor
newpath
504 104 moveto
504 548 lineto
stroke
0.000 0.000 0.000 setrgbcolor
0.000 0.000 0.000 setrgbcolor
486 87 moveto
(8.0150) show
0.000 0.000 0.000 setrgbcolor
0.502 0.502 0.502 setrgbcolor
newpath
564 104 moveto
564 548 lineto
stroke
0.000 0.000 0.000 setrgbcolor
0.000 0.000 0.000 setrgbcolor
546 87 moveto
(8.0160) show
0.000 0.000 0.000 setrgbcolor
0.502 0.502 0.502 setrgbcolor
0.000 0.000 0.000 setrgbcolor
0.000 0.000 0.000 setrgbcolor
382 66 moveto
(ms) show
0.000 0.000 0.000 setrgbcolor
0.502 0.502 0.502 setrgbcolor
newpath
84 104 moveto
564 104 lineto
stroke
0.000 0.000 0.000 setrgbcolor
0.000 0.000 0.000 setrgbcolor
54 101 moveto
(-15.0) show
0.000 0.000 0.000 setrgbcolor
0.502 0.502 0.502 setrgbcolor
newpath
84 178 moveto
564 178 lineto
stroke
0.000 0.000 0.000 setrgbcolor
0.000 0.000 0.000 setrgbcolor
54 175 moveto
(-10.0) show
0.000 0.000 0.000 setrgbcolor
0.502 0.502 0.502 setrgbcolor
newpath
84 252 moveto
564 252 lineto
stroke
0.000 0.000 0.000 setrgbcolor
0.000 0.000 0.000 setrgbcolor
60 249 moveto
(-5.0) show
0.000 0.000 0.000 setrgbcolor
0.502 0.502 0.502 setrgbcolor
0.000 0.000 0.000 setrgbcolor
newpath
84 326 moveto
564 326 lineto
stroke
0.502 0.502 0.502 setrgbcolor
0.000 0.000 0.000 setrgbcolor
0.000 0.000 0.000 setrgbcolor
66 323 moveto
(0.0) show
0.000 0.000 0.000 setrgbcolor
0.502 0.502 0.502 setrgbcolor
newpath
84 400 moveto
564 400 lineto
stroke
0.000 0.000 0.000 setrgbcolor
0.000 0.000 0.000 setrgbcolor
66 397 moveto
(5.0) show
0.000 0.000 0.000 setrgbcolor
0.502 0.502 0.502 setrgbcolor
newpath
84 474 moveto
564 474 lineto
stroke
0.000 0.000 0.000 setrgbcolor
0.000 0.000 0.000 setrgbcolor
60 471 moveto
(10.0) show
0.000 0.000 0.000 setrgbcolor
0.502 0.502 0.502 setrgbcolor
newpath
84 548 moveto
564 548 lineto
stroke
0.000 0.000 0.000 setrgbcolor
0.000 0.000 0.000 setrgbcolor
60 545 moveto
(15.0) show
0.000 0.000 0.000 setrgbcolor
0.502 0.502 0.502 setrgbcolor
0.000 0.000 0.000 setrgbcolor
0.000 0.000 0.000 setrgbcolor
54 582 moveto
(V) show
0.000 0.000 0.000 setrgbcolor
0.502 0.502 0.502 setrgbcolor
1.000 0.000 0.000 setrgbcolor
newpath
288 586 moveto
312 586 lineto
stroke
0.000 0.000 0.000 setrgbcolor
0.000 0.000 0.000 setrgbcolor
318 582 moveto
(v(out)) show
0.000 0.000 0.000 setrgbcolor
1.000 0.000 0.000 setrgbcolor
newpath
84 143 moveto
85 145 lineto
85 146 lineto
86 148 lineto
87 150 lineto
87 152 lineto
88 154 lineto
88 156 lineto
89 158 lineto
90 160 lineto
90 162 lineto
91 164 lineto
91 166 lineto
92 169 lineto
93 171 lineto
93 173 lineto
94 175 lineto
94 178 lineto
95 180 lineto
96 183 lineto
96 185 lineto
97 188 lineto
97 190 lineto
98 193 lineto
99 195 lineto
99 198 lineto
100 201 lineto
100 203 lineto
101 206 lineto
102 209 lineto
102 212 lineto
103 214 lineto
103 217 lineto
104 220 lineto
105 223 lineto
105 226 lineto
106 229 lineto
106 232 lineto
107 235 lineto
108 238 lineto
108 241 lineto
109 244 lineto
109 247 lineto
110 250 lineto
111 253 lineto
111 256 lineto
112 260 lineto
112 263 lineto
113 266 lineto
114 269 lineto
114 272 lineto
115 275 lineto
115 279 lineto
116 282 lineto
117 285 lineto
117 288 lineto
118 292 lineto
118 295 lineto
119 298 lineto
120 301 lineto
120 305 lineto
121 308 lineto
121 311 lineto
122 315 lineto
123 318 lineto
123 321 lineto
124 324 lineto
124 328 lineto
125 331 lineto
126 334 lineto
126 338 lineto
127 341 lineto
127 344 lineto
128 348 lineto
129 351 lineto
129 354 lineto
130 358 lineto
130 361 lineto
131 365 lineto
132 368 lineto
132 371 lineto
133 375 lineto
133 378 lineto
134 381 lineto
135 385 lineto
135 388 lineto
136 391 lineto
136 395 lineto
137 398 lineto
138 401 lineto
138 404 lineto
139 408 lineto
139 411 lineto
140 414 lineto
141 417 lineto
141 420 lineto
142 423 lineto
142 426 lineto
143 429 lineto
144 432 lineto
144 435 lineto
145 438 lineto
145 441 lineto
146 444 lineto
147 447 lineto
147 450 lineto
148 453 lineto
148 455 lineto
149 458 lineto
150 461 lineto
150 463 lineto
151 466 lineto
151 469 lineto
152 471 lineto
153 474 lineto
153 476 lineto
154 479 lineto
154 481 lineto
155 483 lineto
156 486 lineto
156 488 lineto
157 490 lineto
157 492 lineto
158 494 lineto
159 497 lineto
159 499 lineto
160 501 lineto
160 503 lineto
161 505 lineto
162 506 lineto
162 508 lineto
163 510 lineto
163 512 lineto
164 513 lineto
165 515 lineto
165 517 lineto
166 518 lineto
166 520 lineto
167 521 lineto
168 523 lineto
168 524 lineto
169 525 lineto
169 527 lineto
170 528 lineto
171 529 lineto
171 530 lineto
172 531 lineto
172 532 lineto
173 533 lineto
174 534 lineto
174 535 lineto
175 535 lineto
175 536 lineto
176 537 lineto
177 538 lineto
178 539 lineto
179 539 lineto
180 540 lineto
181 540 lineto
181 541 lineto
182 541 lineto
183 541 lineto
184 541 lineto
185 541 lineto
186 540 lineto
187 540 lineto
188 539 lineto
189 539 lineto
189 538 lineto
190 538 lineto
190 537 lineto
191 536 lineto
192 536 lineto
192 535 lineto
193 534 lineto
193 533 lineto
194 532 lineto
195 531 lineto
195 530 lineto
196 529 lineto
196 528 lineto
197 527 lineto
198 526 lineto
198 525 lineto
199 523 lineto
199 522 lineto
200 520 lineto
201 519 lineto
201 517 lineto
202 516 lineto
202 514 lineto
203 513 lineto
204 511 lineto
204 509 lineto
205 507 lineto
205 506 lineto
206 504 lineto
207 502 lineto
207 500 lineto
208 498 lineto
208 496 lineto
209 494 lineto
210 492 lineto
210 489 lineto
211 487 lineto
211 485 lineto
212 483 lineto
213 480 lineto
213 478 lineto
214 476 lineto
214 473 lineto
215 471 lineto
216 468 lineto
216 466 lineto
217 463 lineto
217 460 lineto
218 458 lineto
219 455 lineto
219 452 lineto
220 450 lineto
220 447 lineto
221 444 lineto
222 441 lineto
222 438 lineto
223 435 lineto
223 433 lineto
224 430 lineto
225 427 lineto
225 424 lineto
226 421 lineto
226 418 lineto
227 415 lineto
228 412 lineto
228 408 lineto
229 405 lineto
229 402 lineto
230 399 lineto
231 396 lineto
231 393 lineto
232 390 lineto
232 386 lineto
233 383 lineto
234 380 lineto
234 377 lineto
235 373 lineto
235 370 lineto
236 367 lineto
237 364 lineto
237 360 lineto
238 357 lineto
238 354 lineto
239 350 lineto
240 347 lineto
240 344 lineto
241 340 lineto
241 337 lineto
242 334 lineto
243 330 lineto
243 327 lineto
244 324 lineto
244 320 lineto
245 317 lineto
246 314 lineto
246 310 lineto
247 307 lineto
247 304 lineto
248 300 lineto
249 297 lineto
249 293 lineto
250 290 lineto
250 286 lineto
251 283 lineto
252 280 lineto
252 276 lineto
253 273 lineto
253 269 lineto
254 266 lineto
255 263 lineto
255 259 lineto
256 256 lineto
256 253 lineto
257 249 lineto
258 246 lineto
258 243 lineto
259 240 lineto
259 237 lineto
260 233 lineto
261 230 lineto
261 227 lineto
262 224 lineto
262 221 lineto
263 218 lineto
264 215 lineto
264 212 lineto
265 209 lineto
265 206 lineto
266 203 lineto
267 200 lineto
267 198 lineto
268 195 lineto
268 192 lineto
269 189 lineto
270 187 lineto
270 184 lineto
271 182 lineto
271 179 lineto
272 176 lineto
273 174 lineto
273 171 lineto
274 169 lineto
274 167 lineto
275 164 lineto
276 162 lineto
276 160 lineto
277 158 lineto
277 155 lineto
278 153 lineto
279 151 lineto
279 149 lineto
280 147 lineto
280 145 lineto
281 143 lineto
282 142 lineto
282 140 lineto
283 138 lineto
283 136 lineto
284 135 lineto
285 133 lineto
285 132 lineto
286 130 lineto
286 129 lineto
287 127 lineto
288 126 lineto
288 125 lineto
289 123 lineto
289 122 lineto
290 121 lineto
291 120 lineto
291 119 lineto
292 118 lineto
292 117 lineto
293 116 lineto
294 116 lineto
294 115 lineto
295 114 lineto
296 113 lineto
297 113 lineto
297 112 lineto
298 112 lineto
299 111 lineto
300 111 lineto
301 111 lineto
302 111 lineto
303 111 lineto
304 111 lineto
305 112 lineto
306 112 lineto
307 113 lineto
308 114 lineto
309 114 lineto
309 115 lineto
310 116 lineto
310 117 lineto
311 117 lineto
312 118 lineto
312 119 lineto
313 120 lineto
313 121 lineto
314 122 lineto
315 123 lineto
315 124 lineto
316 126 lineto
316 127 lineto
317 128 lineto
318 129 lineto
318 131 lineto
319 132 lineto
319 134 lineto
320 135 lineto
321 137 lineto
321 138 lineto
322 140 lineto
322 142 lineto
323 143 lineto
324 145 lineto
324 147 lineto
325 149 lineto
325 151 lineto
326 153 lineto
327 154 lineto
327 156 lineto
328 159 lineto
328 161 lineto
329 163 lineto
330 165 lineto
330 167 lineto
331 169 lineto
331 172 lineto
332 174 lineto
333 176 lineto
333 179 lineto
334 181 lineto
334 183 lineto
335 186 lineto
336 188 lineto
336 191 lineto
337 194 lineto
337 196 lineto
338 199 lineto
339 202 lineto
339 204 lineto
340 207 lineto
340 210 lineto
341 213 lineto
342 215 lineto
342 218 lineto
343 221 lineto
343 224 lineto
344 227 lineto
345 230 lineto
345 233 lineto
346 236 lineto
346 239 lineto
347 242 lineto
348 245 lineto
348 248 lineto
349 251 lineto
349 254 lineto
350 257 lineto
351 261 lineto
351 264 lineto
352 267 lineto
352 270 lineto
353 273 lineto
354 277 lineto
354 280 lineto
355 283 lineto
355 286 lineto
356 290 lineto
357 293 lineto
357 296 lineto
358 299 lineto
358 303 lineto
359 306 lineto
360 309 lineto
360 312 lineto
361 316 lineto
361 319 lineto
362 322 lineto
363 326 lineto
363 329 lineto
364 332 lineto
364 335 lineto
365 339 lineto
366 342 lineto
366 345 lineto
367 349 lineto
367 352 lineto
368 356 lineto
369 359 lineto
369 362 lineto
370 366 lineto
370 369 lineto
371 373 lineto
372 376 lineto
372 379 lineto
373 383 lineto
373 386 lineto
374 389 lineto
375 393 lineto
375 396 lineto
376 399 lineto
376 402 lineto
377 406 lineto
378 409 lineto
378 412 lineto
379 415 lineto
379 418 lineto
380 421 lineto
381 424 lineto
381 427 lineto
382 430 lineto
382 433 lineto
383 436 lineto
384 439 lineto
384 442 lineto
385 445 lineto
385 448 lineto
386 451 lineto
387 454 lineto
387 456 lineto
388 459 lineto
388 462 lineto
389 464 lineto
390 467 lineto
390 470 lineto
391 472 lineto
391 475 lineto
392 477 lineto
393 479 lineto
393 482 lineto
394 484 lineto
394 486 lineto
395 489 lineto
396 491 lineto
396 493 lineto
397 495 lineto
397 497 lineto
398 499 lineto
399 501 lineto
399 503 lineto
400 505 lineto
400 507 lineto
401 509 lineto
402 511 lineto
402 512 lineto
403 514 lineto
403 516 lineto
404 517 lineto
405 519 lineto
405 520 lineto
406 522 lineto
406 523 lineto
407 524 lineto
408 526 lineto
408 527 lineto
409 528 lineto
409 529 lineto
410 530 lineto
411 531 lineto
411 532 lineto
412 533 lineto
412 534 lineto
413 535 lineto
414 536 lineto
415 537 lineto
415 538 lineto
416 538 lineto
417 539 lineto
418 540 lineto
419 540 lineto
420 540 lineto
420 541 lineto
421 541 lineto
422 541 lineto
423 541 lineto
424 541 lineto
424 540 lineto
425 540 lineto
426 540 lineto
426 539 lineto
427 539 lineto
428 538 lineto
429 538 lineto
429 537 lineto
430 536 lineto
430 535 lineto
431 535 lineto
432 534 lineto
432 533 lineto
433 532 lineto
433 531 lineto
434 530 lineto
435 529 lineto
435 528 lineto
436 527 lineto
436 525 lineto
437 524 lineto
438 523 lineto
438 521 lineto
439 520 lineto
439 518 lineto
440 517 lineto
441 515 lineto
441 514 lineto
442 512 lineto
442 510 lineto
443 509 lineto
444 507 lineto
444 505 lineto
445 503 lineto
445 501 lineto
446 499 lineto
447 497 lineto
447 495 lineto
448 493 lineto
448 491 lineto
449 489 lineto
450 486 lineto
450 484 lineto
451 482 lineto
451 479 lineto
452 477 lineto
453 475 lineto
453 472 lineto
454 470 lineto
454 467 lineto
455 465 lineto
456 462 lineto
456 459 lineto
457 457 lineto
457 454 lineto
458 451 lineto
459 449 lineto
459 446 lineto
460 443 lineto
460 440 lineto
461 437 lineto
462 434 lineto
462 432 lineto
463 429 lineto
463 426 lineto
464 423 lineto
465 420 lineto
465 417 lineto
466 414 lineto
466 410 lineto
467 407 lineto
468 404 lineto
468 401 lineto
469 398 lineto
469 395 lineto
470 392 lineto
471 388 lineto
471 385 lineto
472 382 lineto
472 379 lineto
473 375 lineto
474 372 lineto
474 369 lineto
475 366 lineto
475 362 lineto
476 359 lineto
477 356 lineto
477 352 lineto
478 349 lineto
478 346 lineto
479 342 lineto
480 339 lineto
480 336 lineto
481 333 lineto
481 329 lineto
482 326 lineto
483 323 lineto
483 319 lineto
484 316 lineto
484 313 lineto
485 309 lineto
486 306 lineto
486 302 lineto
487 299 lineto
487 296 lineto
488 292 lineto
489 289 lineto
489 285 lineto
490 282 lineto
490 278 lineto
491 275 lineto
492 272 lineto
492 268 lineto
493 265 lineto
493 262 lineto
494 258 lineto
495 255 lineto
495 252 lineto
496 248 lineto
496 245 lineto
497 242 lineto
498 239 lineto
498 236 lineto
499 232 lineto
499 229 lineto
500 226 lineto
501 223 lineto
501 220 lineto
502 217 lineto
502 214 lineto
503 211 lineto
504 208 lineto
504 205 lineto
505 202 lineto
505 200 lineto
506 197 lineto
507 194 lineto
507 191 lineto
508 188 lineto
508 186 lineto
509 183 lineto
510 181 lineto
510 178 lineto
511 176 lineto
511 173 lineto
512 171 lineto
513 168 lineto
513 166 lineto
514 164 lineto
514 161 lineto
515 159 lineto
516 157 lineto
516 155 lineto
517 153 lineto
517 151 lineto
518 149 lineto
519 147 lineto
519 145 lineto
520 143 lineto
520 141 lineto
521 139 lineto
522 137 lineto
522 136 lineto
523 134 lineto
523 133 lineto
524 131 lineto
525 130 lineto
525 128 lineto
526 127 lineto
526 125 lineto
527 124 lineto
528 123 lineto
528 122 lineto
529 121 lineto
529 120 lineto
530 119 lineto
531 118 lineto
531 117 lineto
532 116 lineto
532 115 lineto
533 115 lineto
534 114 lineto
534 113 lineto
535 113 lineto
535 112 lineto
536 112 lineto
537 112 lineto
537 111 lineto
538 111 lineto
539 111 lineto
540 111 lineto
541 111 lineto
542 111 lineto
543 111 lineto
544 112 lineto
545 113 lineto
546 113 lineto
546 114 lineto
547 114 lineto
547 115 lineto
548 115 lineto
549 116 lineto
549 117 lineto
550 118 lineto
550 119 lineto
551 119 lineto
552 120 lineto
552 121 lineto
553 123 lineto
553 124 lineto
554 125 lineto
555 126 lineto
555 127 lineto
556 129 lineto
556 130 lineto
557 131 lineto
558 133 lineto
558 134 lineto
559 136 lineto
559 137 lineto
560 139 lineto
561 141 lineto
561 142 lineto
562 144 lineto
562 146 lineto
563 148 lineto
564 149 lineto
564 151 lineto
stroke
showpage
%%EOF
