%!PS-Adobe-3.0 EPSF-3.0
%%Creator: nutmeg
%%BoundingBox: 54 54 612 612
1 1 scale
1.000 1.000 1.000 setrgbcolor
newpath
54 54 moveto 612 54 lineto
612 612 lineto 54 612 lineto
closepath fill
/Helvetica findfont 10 scalefont setfont

0.000 0.000 0.000 setrgbcolor
0.502 0.502 0.502 setrgbcolor
0.000 0.000 0.000 setrgbcolor
0.000 0.000 0.000 setrgbcolor
243 66 moveto
(time) show
0.000 0.000 0.000 setrgbcolor
0.502 0.502 0.502 setrgbcolor
newpath
90 104 moveto
90 549 lineto
stroke
0.000 0.000 0.000 setrgbcolor
0.000 0.000 0.000 setrgbcolor
72 87 moveto
(8.0080) show
0.000 0.000 0.000 setrgbcolor
0.502 0.502 0.502 setrgbcolor
newpath
149 104 moveto
149 549 lineto
stroke
0.000 0.000 0.000 setrgbcolor
0.000 0.000 0.000 setrgbcolor
131 87 moveto
(8.0090) show
0.000 0.000 0.000 setrgbcolor
0.502 0.502 0.502 setrgbcolor
newpath
208 104 moveto
208 549 lineto
stroke
0.000 0.000 0.000 setrgbcolor
0.000 0.000 0.000 setrgbcolor
190 87 moveto
(8.0100) show
0.000 0.000 0.000 setrgbcolor
0.502 0.502 0.502 setrgbcolor
newpath
267 104 moveto
267 549 lineto
stroke
0.000 0.000 0.000 setrgbcolor
0.000 0.000 0.000 setrgbcolor
249 87 moveto
(8.0110) show
0.000 0.000 0.000 setrgbcolor
0.502 0.502 0.502 setrgbcolor
newpath
326 104 moveto
326 549 lineto
stroke
0.000 0.000 0.000 setrgbcolor
0.000 0.000 0.000 setrgbcolor
308 87 moveto
(8.0120) show
0.000 0.000 0.000 setrgbcolor
0.502 0.502 0.502 setrgbcolor
newpath
385 104 moveto
385 549 lineto
stroke
0.000 0.000 0.000 setrgbcolor
0.000 0.000 0.000 setrgbcolor
367 87 moveto
(8.0130) show
0.000 0.000 0.000 setrgbcolor
0.502 0.502 0.502 setrgbcolor
newpath
444 104 moveto
444 549 lineto
stroke
0.000 0.000 0.000 setrgbcolor
0.000 0.000 0.000 setrgbcolor
426 87 moveto
(8.0140) show
0.000 0.000 0.000 setrgbcolor
0.502 0.502 0.502 setrgbcolor
newpath
503 104 moveto
503 549 lineto
stroke
0.000 0.000 0.000 setrgbcolor
0.000 0.000 0.000 setrgbcolor
485 87 moveto
(8.0150) show
0.000 0.000 0.000 setrgbcolor
0.502 0.502 0.502 setrgbcolor
newpath
562 104 moveto
562 549 lineto
stroke
0.000 0.000 0.000 setrgbcolor
0.000 0.000 0.000 setrgbcolor
544 87 moveto
(8.0160) show
0.000 0.000 0.000 setrgbcolor
0.502 0.502 0.502 setrgbcolor
0.000 0.000 0.000 setrgbcolor
0.000 0.000 0.000 setrgbcolor
382 66 moveto
(ms) show
0.000 0.000 0.000 setrgbcolor
0.502 0.502 0.502 setrgbcolor
newpath
90 104 moveto
562 104 lineto
stroke
0.000 0.000 0.000 setrgbcolor
0.000 0.000 0.000 setrgbcolor
54 101 moveto
(-500.0) show
0.000 0.000 0.000 setrgbcolor
0.502 0.502 0.502 setrgbcolor
newpath
90 193 moveto
562 193 lineto
stroke
0.000 0.000 0.000 setrgbcolor
0.000 0.000 0.000 setrgbcolor
54 190 moveto
(-400.0) show
0.000 0.000 0.000 setrgbcolor
0.502 0.502 0.502 setrgbcolor
newpath
90 282 moveto
562 282 lineto
stroke
0.000 0.000 0.000 setrgbcolor
0.000 0.000 0.000 setrgbcolor
54 279 moveto
(-300.0) show
0.000 0.000 0.000 setrgbcolor
0.502 0.502 0.502 setrgbcolor
newpath
90 371 moveto
562 371 lineto
stroke
0.000 0.000 0.000 setrgbcolor
0.000 0.000 0.000 setrgbcolor
54 368 moveto
(-200.0) show
0.000 0.000 0.000 setrgbcolor
0.502 0.502 0.502 setrgbcolor
newpath
90 460 moveto
562 460 lineto
stroke
0.000 0.000 0.000 setrgbcolor
0.000 0.000 0.000 setrgbcolor
54 457 moveto
(-100.0) show
0.000 0.000 0.000 setrgbcolor
0.502 0.502 0.502 setrgbcolor
0.000 0.000 0.000 setrgbcolor
newpath
90 549 moveto
562 549 lineto
stroke
0.502 0.502 0.502 setrgbcolor
0.000 0.000 0.000 setrgbcolor
0.000 0.000 0.000 setrgbcolor
72 546 moveto
(0.0) show
0.000 0.000 0.000 setrgbcolor
0.502 0.502 0.502 setrgbcolor
0.000 0.000 0.000 setrgbcolor
0.000 0.000 0.000 setrgbcolor
54 582 moveto
(MV) show
0.000 0.000 0.000 setrgbcolor
0.502 0.502 0.502 setrgbcolor
1.000 0.000 0.000 setrgbcolor
newpath
284 586 moveto
307 586 lineto
stroke
0.000 0.000 0.000 setrgbcolor
0.000 0.000 0.000 setrgbcolor
313 582 moveto
(v(diodebias)) show
0.000 0.000 0.000 setrgbcolor
1.000 0.000 0.000 setrgbcolor
newpath
92 104 moveto
98 104 lineto
103 104 lineto
109 104 lineto
115 104 lineto
121 104 lineto
127 104 lineto
133 104 lineto
139 104 lineto
145 104 lineto
151 104 lineto
157 104 lineto
162 104 lineto
168 104 lineto
174 104 lineto
180 104 lineto
186 104 lineto
192 104 lineto
198 104 lineto
204 104 lineto
210 104 lineto
216 104 lineto
221 104 lineto
227 104 lineto
233 104 lineto
239 104 lineto
245 104 lineto
251 104 lineto
257 104 lineto
263 104 lineto
269 104 lineto
275 104 lineto
280 104 lineto
286 104 lineto
292 104 lineto
298 104 lineto
304 104 lineto
310 104 lineto
316 104 lineto
322 104 lineto
328 104 lineto
334 104 lineto
339 104 lineto
345 104 lineto
351 104 lineto
357 104 lineto
363 104 lineto
369 104 lineto
375 104 lineto
381 104 lineto
387 104 lineto
393 104 lineto
398 104 lineto
404 104 lineto
410 104 lineto
416 104 lineto
422 104 lineto
428 104 lineto
434 104 lineto
440 104 lineto
446 104 lineto
452 104 lineto
457 104 lineto
463 104 lineto
469 104 lineto
475 104 lineto
481 104 lineto
487 104 lineto
493 104 lineto
499 104 lineto
505 104 lineto
511 104 lineto
516 104 lineto
522 104 lineto
528 104 lineto
534 104 lineto
540 104 lineto
546 104 lineto
552 104 lineto
558 104 lineto
562 104 lineto
stroke
0.000 0.000 1.000 setrgbcolor
newpath
90 586 moveto
113 586 lineto
stroke
0.000 0.000 0.000 setrgbcolor
0.000 0.000 0.000 setrgbcolor
119 582 moveto
(v(inputa)) show
0.000 0.000 0.000 setrgbcolor
0.000 0.000 1.000 setrgbcolor
newpath
92 549 moveto
98 549 lineto
103 549 lineto
109 549 lineto
115 549 lineto
121 549 lineto
127 549 lineto
133 549 lineto
139 549 lineto
145 549 lineto
151 549 lineto
157 549 lineto
162 549 lineto
168 549 lineto
174 549 lineto
180 549 lineto
186 549 lineto
192 549 lineto
198 549 lineto
204 549 lineto
210 549 lineto
216 549 lineto
221 549 lineto
227 549 lineto
233 549 lineto
239 549 lineto
245 549 lineto
251 549 lineto
257 549 lineto
263 549 lineto
269 549 lineto
275 549 lineto
280 549 lineto
286 549 lineto
292 549 lineto
298 549 lineto
304 549 lineto
310 549 lineto
316 549 lineto
322 549 lineto
328 549 lineto
334 549 lineto
339 549 lineto
345 549 lineto
351 549 lineto
357 549 lineto
363 549 lineto
369 549 lineto
375 549 lineto
381 549 lineto
387 549 lineto
393 549 lineto
398 549 lineto
404 549 lineto
410 549 lineto
416 549 lineto
422 549 lineto
428 549 lineto
434 549 lineto
440 549 lineto
446 549 lineto
452 549 lineto
457 549 lineto
463 549 lineto
469 549 lineto
475 549 lineto
481 549 lineto
487 549 lineto
493 549 lineto
499 549 lineto
505 549 lineto
511 549 lineto
516 549 lineto
522 549 lineto
528 549 lineto
534 549 lineto
540 549 lineto
546 549 lineto
552 549 lineto
558 549 lineto
562 549 lineto
stroke
0.000 1.000 0.000 setrgbcolor
newpath
284 572 moveto
307 572 lineto
stroke
0.000 0.000 0.000 setrgbcolor
0.000 0.000 0.000 setrgbcolor
313 568 moveto
(v(inputb)) show
0.000 0.000 0.000 setrgbcolor
0.000 1.000 0.000 setrgbcolor
newpath
92 549 moveto
98 549 lineto
103 549 lineto
109 549 lineto
115 549 lineto
121 549 lineto
127 549 lineto
133 549 lineto
139 549 lineto
145 549 lineto
151 549 lineto
157 549 lineto
162 549 lineto
168 549 lineto
174 549 lineto
180 549 lineto
186 549 lineto
192 549 lineto
198 549 lineto
204 549 lineto
210 549 lineto
216 549 lineto
221 549 lineto
227 549 lineto
233 549 lineto
239 549 lineto
245 549 lineto
251 549 lineto
257 549 lineto
263 549 lineto
269 549 lineto
275 549 lineto
280 549 lineto
286 549 lineto
292 549 lineto
298 549 lineto
304 549 lineto
310 549 lineto
316 549 lineto
322 549 lineto
328 549 lineto
334 549 lineto
339 549 lineto
345 549 lineto
351 549 lineto
357 549 lineto
363 549 lineto
369 549 lineto
375 549 lineto
381 549 lineto
387 549 lineto
393 549 lineto
398 549 lineto
404 549 lineto
410 549 lineto
416 549 lineto
422 549 lineto
428 549 lineto
434 549 lineto
440 549 lineto
446 549 lineto
452 549 lineto
457 549 lineto
463 549 lineto
469 549 lineto
475 549 lineto
481 549 lineto
487 549 lineto
493 549 lineto
499 549 lineto
505 549 lineto
511 549 lineto
516 549 lineto
522 549 lineto
528 549 lineto
534 549 lineto
540 549 lineto
546 549 lineto
552 549 lineto
558 549 lineto
562 549 lineto
stroke
showpage
%%EOF
