v 20130925 2
C 40000 40000 0 0 0 title-B.sym
C 43400 41600 1 0 1 npn-3.sym
{
T 42500 42100 5 10 0 0 0 6 1
device=NPN_TRANSISTOR
T 42500 42100 5 10 1 1 0 6 1
refdes=Q1
T 43600 41600 5 10 1 1 0 6 1
model-name=CA3046
}
C 40200 50000 1 0 0 spice-model-1.sym
{
T 40300 50700 5 10 0 1 0 0 1
device=model
T 40300 50600 5 10 1 1 0 0 1
refdes=A1
T 41500 50300 5 10 1 1 0 0 1
model-name=CA3046
T 40700 50100 5 10 1 1 0 0 1
file=ca3046.mdl
}
C 42300 50000 1 0 0 spice-model-1.sym
{
T 42400 50700 5 10 0 1 0 0 1
device=model
T 42400 50600 5 10 1 1 0 0 1
refdes=A2
T 43600 50300 5 10 1 1 0 0 1
model-name=2N3906
T 42800 50100 5 10 1 1 0 0 1
file=2n390x.lib
}
C 44600 41600 1 0 0 npn-3.sym
{
T 45500 42100 5 10 0 0 0 0 1
device=NPN_TRANSISTOR
T 45500 42100 5 10 1 1 0 0 1
refdes=Q3
T 44400 41600 5 10 1 1 0 0 1
model-name=CA3046
}
C 44200 40600 1 180 0 vee-1.sym
N 42800 41600 42800 40800 4
N 42800 40800 44000 40800 4
N 44000 40600 44000 41400 4
N 44000 40800 45200 40800 4
N 45200 40800 45200 41600 4
C 43400 42600 1 0 0 npn-3.sym
{
T 44300 43100 5 10 0 0 0 0 1
device=NPN_TRANSISTOR
T 44300 43100 5 10 1 1 0 0 1
refdes=Q2
T 43200 42600 5 10 1 1 0 0 1
model-name=CA3046
}
N 42800 42600 42800 43100 4
N 42500 43100 43400 43100 4
C 41100 43000 1 0 0 input-2.sym
{
T 41100 43200 5 10 1 0 0 0 1
net=amp:1
T 41700 43700 5 10 0 0 0 0 1
device=none
T 41600 43100 5 10 1 1 0 7 1
value=amp
}
C 42800 44000 1 0 0 npn-3.sym
{
T 43700 44500 5 10 0 0 0 0 1
device=NPN_TRANSISTOR
T 43700 44500 5 10 1 1 0 0 1
refdes=Q4
T 42600 44000 5 10 1 1 0 0 1
model-name=CA3046
}
C 45300 44000 1 0 1 npn-3.sym
{
T 44400 44500 5 10 0 0 0 6 1
device=NPN_TRANSISTOR
T 44400 44500 5 10 1 1 0 6 1
refdes=Q5
T 45500 44000 5 10 1 1 0 6 1
model-name=CA3046
}
N 44000 43600 44000 43800 4
N 44700 43800 44700 44000 4
N 43400 44000 43400 43800 4
C 40500 44400 1 0 0 input-2.sym
{
T 40500 44600 5 10 1 0 0 0 1
net=inputa:1
T 41100 45100 5 10 0 0 0 0 1
device=none
T 41000 44500 5 10 1 1 0 7 1
value=inputa
}
N 42200 44700 42200 44500 4
N 41900 44500 42800 44500 4
C 47500 44600 1 180 0 input-2.sym
{
T 47500 44400 5 10 1 0 180 0 1
net=inputb:1
T 46900 43900 5 10 0 0 180 0 1
device=none
T 47000 44500 5 10 1 1 180 7 1
value=inputb
}
N 46100 44500 45300 44500 4
N 45800 44700 45800 44500 4
C 40400 46000 1 0 0 input-2.sym
{
T 40400 46200 5 10 1 0 0 0 1
net=diodebias:1
T 41000 46700 5 10 0 0 0 0 1
device=none
T 40900 46100 5 10 1 1 0 7 1
value=diodebias
}
C 44000 48700 1 180 0 pnp-3.sym
{
T 43100 48200 5 10 0 0 180 0 1
device=PNP_TRANSISTOR
T 43100 48200 5 10 1 1 180 0 1
refdes=Q6
T 43700 48700 5 10 1 1 180 6 1
model-name=2N3906
}
C 44300 47900 1 180 1 pnp-3.sym
{
T 45200 47400 5 10 0 0 180 6 1
device=PNP_TRANSISTOR
T 45200 47400 5 10 1 1 180 6 1
refdes=Q7
T 44600 47900 5 10 1 1 180 0 1
model-name=2N3906
}
N 43400 45000 43400 47700 4
C 44000 49600 1 0 0 vcc-1.sym
N 44900 49400 44900 49600 4
N 43400 49600 44900 49600 4
N 43400 48700 43400 49600 4
N 44000 48200 44900 48200 4
N 44300 47400 43400 47400 4
C 50200 48800 1 180 0 pnp-3.sym
{
T 49300 48300 5 10 0 0 180 0 1
device=PNP_TRANSISTOR
T 49300 48300 5 10 1 1 180 0 1
refdes=Q10
T 49900 48800 5 10 1 1 180 6 1
model-name=2N3906
}
C 50500 48000 1 180 1 pnp-3.sym
{
T 51400 47500 5 10 0 0 180 6 1
device=PNP_TRANSISTOR
T 51400 47500 5 10 1 1 180 6 1
refdes=Q11
T 50800 48000 5 10 1 1 180 0 1
model-name=2N3906
}
C 50200 49700 1 0 0 vcc-1.sym
N 51100 49500 51100 49700 4
N 49600 49700 51100 49700 4
N 49600 48800 49600 49700 4
N 50200 48300 51100 48300 4
N 50500 47500 49600 47500 4
N 44700 45000 44700 46400 4
N 44700 46400 49600 46400 4
N 49600 46400 49600 47800 4
C 51300 41800 1 180 0 vee-1.sym
N 49900 42800 49900 42000 4
N 49900 42000 51100 42000 4
C 50500 43800 1 0 0 npn-3.sym
{
T 51400 44300 5 10 0 0 0 0 1
device=NPN_TRANSISTOR
T 51400 44300 5 10 1 1 0 0 1
refdes=Q9
T 50300 43800 5 10 1 1 0 0 1
model-name=CA3046
}
N 49900 43800 49900 46200 4
N 51100 47000 51100 44800 4
N 44900 46900 44900 46200 4
N 44900 46200 49900 46200 4
N 50500 43300 51100 43300 4
N 50500 44300 49900 44300 4
C 50500 42800 1 0 1 npn-3.sym
{
T 49600 43300 5 10 0 0 0 6 1
device=NPN_TRANSISTOR
T 49600 43300 5 10 1 1 0 6 1
refdes=Q8
T 50700 42800 5 10 1 1 0 6 1
model-name=CA3046
}
C 53100 46300 1 0 0 npn-3.sym
{
T 54000 46800 5 10 0 0 0 0 1
device=NPN_TRANSISTOR
T 54000 46800 5 10 1 1 0 0 1
refdes=Q12
T 52900 46300 5 10 1 1 0 0 1
model-name=CA3046
}
C 54000 45500 1 0 0 npn-3.sym
{
T 54900 46000 5 10 0 0 0 0 1
device=NPN_TRANSISTOR
T 54900 46000 5 10 1 1 0 0 1
refdes=Q13
T 53800 45500 5 10 1 1 0 0 1
model-name=CA3046
}
N 51300 46000 51100 46000 4
C 51400 46700 1 0 0 input-2.sym
{
T 51400 46900 5 10 1 0 0 0 1
net=buffer_in:1
T 52000 47400 5 10 0 0 0 0 1
device=none
T 51900 46800 5 10 1 1 0 7 1
value=buffer_in
}
C 54100 47600 1 0 0 vcc-1.sym
N 54600 46500 54600 47400 4
N 53700 47400 54600 47400 4
N 53700 47300 53700 47400 4
N 54300 47400 54300 47600 4
N 54000 46000 53700 46000 4
N 53700 45500 53700 46300 4
N 53100 46800 52800 46800 4
N 54800 45500 54600 45500 4
N 45200 42600 45200 43300 4
N 45200 43300 48500 43300 4
N 48500 43300 48500 45500 4
N 48500 45500 53700 45500 4
C 54800 45400 1 0 0 output-2.sym
{
T 55700 45600 5 10 1 0 0 0 1
net=buffer_out:1
T 55000 46100 5 10 0 0 0 0 1
device=none
T 55700 45500 5 10 1 1 0 1 1
value=buffer_out
}
C 51300 45900 1 0 0 output-2.sym
{
T 52200 46100 5 10 1 0 0 0 1
net=output:1
T 51500 46600 5 10 0 0 0 0 1
device=none
T 52200 46000 5 10 1 1 0 1 1
value=output
}
C 43400 41400 1 0 0 npn-3.sym
{
T 44300 41900 5 10 0 0 0 0 1
device=NPN_TRANSISTOR
T 44300 41900 5 10 1 1 0 0 1
refdes=Qq1
T 43200 41400 5 10 1 1 0 0 1
model-name=CA3046
}
N 43400 41900 43400 42400 4
N 43400 42400 44600 42400 4
N 44000 42600 44000 42400 4
N 44600 42400 44600 42100 4
C 41600 44700 1 0 0 npn-3.sym
{
T 42500 45200 5 10 0 0 0 0 1
device=NPN_TRANSISTOR
T 42500 45200 5 10 1 1 0 0 1
refdes=Qq2
T 41400 44700 5 10 1 1 0 0 1
model-name=CA3046
}
C 46400 44700 1 0 1 npn-3.sym
{
T 45500 45200 5 10 0 0 0 6 1
device=NPN_TRANSISTOR
T 45500 45200 5 10 1 1 0 6 1
refdes=Qq3
T 46600 44700 5 10 1 1 0 6 1
model-name=CA3046
}
N 41600 45200 41600 45700 4
N 41600 45700 42200 45700 4
N 46400 45200 46400 45700 4
N 46400 45700 45800 45700 4
N 41800 46100 45800 46100 4
N 45800 46100 45800 45700 4
N 42200 45700 42200 46100 4
C 44300 49400 1 180 1 pnp-3.sym
{
T 45200 48900 5 10 0 0 180 6 1
device=PNP_TRANSISTOR
T 45200 48900 5 10 1 1 180 6 1
refdes=Qq4
T 44600 49400 5 10 1 1 180 0 1
model-name=2N3906
}
N 44900 47900 44900 48400 4
N 44300 48900 44300 48200 4
C 50500 49500 1 180 1 pnp-3.sym
{
T 51400 49000 5 10 0 0 180 6 1
device=PNP_TRANSISTOR
T 51400 49000 5 10 1 1 180 6 1
refdes=Qq5
T 50800 49500 5 10 1 1 180 0 1
model-name=2N3906
}
N 51100 48000 51100 48500 4
N 50500 49000 50500 48300 4
C 50500 42100 1 0 0 npn-3.sym
{
T 51400 42600 5 10 0 0 0 0 1
device=NPN_TRANSISTOR
T 51400 42600 5 10 1 1 0 0 1
refdes=Qq6
T 50300 42100 5 10 1 1 0 0 1
model-name=CA3046
}
N 50500 42600 50500 43300 4
N 51100 43100 51100 43800 4
N 51100 41800 51100 42100 4
N 43400 43800 44700 43800 4
