v 20130925 2
C 40000 40000 0 0 0 title-B.sym
C 49000 46700 1 0 0 npn-3.sym
{
T 49900 47200 5 10 0 0 0 0 1
device=NPN_TRANSISTOR
T 49900 47200 5 10 1 1 0 0 1
refdes=Q1
T 49800 46800 5 10 1 1 0 0 1
model-name=Q2N3904
}
C 49700 48200 1 90 0 resistor-1.sym
{
T 49300 48500 5 10 0 0 90 0 1
device=RESISTOR
T 49400 48400 5 10 1 1 90 0 1
refdes=Rc
T 49700 48200 5 10 1 1 0 0 1
value=404
}
C 49700 45200 1 90 0 resistor-1.sym
{
T 49300 45500 5 10 0 0 90 0 1
device=RESISTOR
T 49400 45400 5 10 1 1 90 0 1
refdes=Re
T 49700 45200 5 10 1 1 0 0 1
value=330
}
C 47600 48200 1 90 0 resistor-1.sym
{
T 47200 48500 5 10 0 0 90 0 1
device=RESISTOR
T 47300 48400 5 10 1 1 90 0 1
refdes=R1
T 47600 48200 5 10 1 1 0 0 1
value=7.272K
}
C 47600 45100 1 90 0 resistor-1.sym
{
T 47200 45400 5 10 0 0 90 0 1
device=RESISTOR
T 47300 45300 5 10 1 1 90 0 1
refdes=R2
T 47600 45100 5 10 1 1 0 0 1
value=4K
}
C 45900 47000 1 0 0 capacitor-2.sym
{
T 46100 47700 5 10 0 0 0 0 1
device=POLARIZED_CAPACITOR
T 46100 47500 5 10 1 1 0 0 1
refdes=C1
T 46100 47900 5 10 0 0 0 0 1
symversion=0.1
T 45900 47000 5 10 1 1 0 0 1
value=1u
}
C 44600 47100 1 0 0 resistor-1.sym
{
T 44900 47500 5 10 0 0 0 0 1
device=RESISTOR
T 44800 47400 5 10 1 1 0 0 1
refdes=Rg
T 44700 47000 5 10 1 1 0 0 1
value=50
}
C 43800 45600 1 0 0 vsin-1.sym
{
T 44500 46250 5 10 1 1 0 0 1
refdes=V2
T 44500 46450 5 10 0 0 0 0 1
device=vsin
T 44500 46650 5 10 0 0 0 0 1
footprint=none
T 44500 46050 5 10 1 1 0 0 1
value=dc 0 sin(0 10m 200k 0 0)
}
N 46800 47200 47500 47200 4
N 47500 46000 47500 48200 4
N 49000 47200 47500 47200 4
N 49600 47700 49600 48200 4
N 49600 46100 49600 46700 4
N 45900 47200 45500 47200 4
C 44000 45000 1 0 0 gnd-1.sym
C 47400 44500 1 0 0 gnd-1.sym
C 49500 44600 1 0 0 gnd-1.sym
N 49600 49400 49600 49100 4
N 47500 49300 47500 49100 4
N 47500 44800 47500 45100 4
N 49600 44900 49600 45200 4
N 44100 45300 44100 45600 4
C 43900 48800 1 0 0 spice-model-1.sym
{
T 44000 49500 5 10 0 1 0 0 1
device=model
T 44000 49400 5 10 1 1 0 0 1
refdes=A1
T 45200 49100 5 10 1 1 0 0 1
model-name=Q2N3904
T 44400 48900 5 10 1 1 0 0 1
file=Q2N3904.lib
}
C 49400 49400 1 0 0 vcc-1.sym
C 47300 49300 1 0 0 vcc-1.sym
C 52000 46500 1 0 0 vcc-1.sym
C 52100 44600 1 0 0 gnd-1.sym
C 51900 45100 1 0 0 vdc-1.sym
{
T 52600 45750 5 10 1 1 0 0 1
refdes=V1
T 52600 45950 5 10 0 0 0 0 1
device=VOLTAGE_SOURCE
T 52600 46150 5 10 0 0 0 0 1
footprint=none
T 52600 45550 5 10 1 1 0 0 1
value=DC 12V
}
N 52200 46500 52200 46300 4
N 52200 44900 52200 45100 4
N 44100 47200 44600 47200 4
C 44100 48000 1 0 0 input-2.sym
{
T 44100 48200 5 10 1 0 0 0 1
net=in:1
T 44700 48700 5 10 0 0 0 0 1
device=none
T 44600 48100 5 10 1 1 0 7 1
value=in
}
C 51700 47900 1 0 0 output-2.sym
{
T 52600 48100 5 10 1 0 0 0 1
net=out:1
T 51900 48600 5 10 0 0 0 0 1
device=none
T 52600 48000 5 10 1 1 0 1 1
value=out
}
C 50200 47800 1 0 0 capacitor-2.sym
{
T 50400 48500 5 10 0 0 0 0 1
device=POLARIZED_CAPACITOR
T 50400 48300 5 10 1 1 0 0 1
refdes=C2
T 50400 48700 5 10 0 0 0 0 1
symversion=0.1
T 50200 47800 5 10 1 1 0 0 1
value=1u
}
N 51100 48000 51700 48000 4
N 50200 48000 49600 48000 4
C 51500 46800 1 90 0 resistor-1.sym
{
T 51100 47100 5 10 0 0 90 0 1
device=RESISTOR
T 51200 47000 5 10 1 1 90 0 1
refdes=RL
T 51500 47200 5 10 1 1 0 0 1
value=1Meg
}
C 51300 46300 1 0 0 gnd-1.sym
N 51400 47700 51400 48000 4
N 51400 46800 51400 46600 4
N 45500 48100 45700 48100 4
N 45700 48100 45700 47200 4
N 44100 46800 44100 47200 4
C 49300 46500 1 180 0 output-2.sym
{
T 48400 46300 5 10 0 1 180 0 1
net=e:1
T 49100 45800 5 10 0 1 180 0 1
device=none
T 48400 46400 5 10 1 1 180 1 1
value=e
}
C 49400 48100 1 180 0 output-2.sym
{
T 48500 47900 5 10 0 1 180 0 1
net=c:1
T 49200 47400 5 10 0 1 180 0 1
device=none
T 48500 48000 5 10 1 1 180 1 1
value=c
}
N 49400 48000 49600 48000 4
C 47700 47400 1 0 0 output-2.sym
{
T 48600 47600 5 10 0 1 0 0 1
net=b:1
T 47900 48100 5 10 0 1 0 0 1
device=none
T 48600 47500 5 10 1 1 0 1 1
value=b
}
N 47700 47500 47500 47500 4
C 50400 46000 1 270 0 capacitor-2.sym
{
T 51100 45800 5 10 0 0 270 0 1
device=POLARIZED_CAPACITOR
T 50900 45800 5 10 1 1 270 0 1
refdes=C3
T 51300 45800 5 10 0 0 270 0 1
symversion=0.1
T 50400 46000 5 10 1 1 270 0 1
value=1u
}
N 49300 46400 49600 46400 4
C 50500 44600 1 0 0 gnd-1.sym
N 50600 44900 50600 45100 4
N 50600 46000 50600 46400 4
N 50600 46400 49600 46400 4
