v 20130925 2
C 40000 40000 0 0 0 title-B.sym
C 44900 49700 1 0 0 capacitor-1.sym
{
T 45100 50400 5 10 0 0 0 0 1
device=CAPACITOR
T 45100 50200 5 10 1 1 0 0 1
refdes=C1
T 45100 50600 5 10 0 0 0 0 1
symversion=0.1
T 44900 49700 5 10 1 1 0 0 1
value=22p
}
C 46300 47500 1 270 0 diode-1.sym
{
T 46900 47100 5 10 0 0 270 0 1
device=DIODE
T 46800 47200 5 10 1 1 270 0 1
refdes=D1
T 45500 46700 5 10 1 1 0 0 1
model-name=D1N4728
}
C 48000 47200 1 90 0 resistor-1.sym
{
T 47600 47500 5 10 0 0 90 0 1
device=RESISTOR
T 47700 47400 5 10 1 1 90 0 1
refdes=R1
T 48000 47200 5 10 1 1 0 0 1
value=10k
}
C 48000 45900 1 90 0 resistor-1.sym
{
T 47600 46200 5 10 0 0 90 0 1
device=RESISTOR
T 47700 46100 5 10 1 1 90 0 1
refdes=R2
T 48000 45900 5 10 1 1 0 0 1
value=4.7k
}
C 49200 45900 1 90 0 capacitor-1.sym
{
T 48500 46100 5 10 0 0 90 0 1
device=CAPACITOR
T 48700 46100 5 10 1 1 90 0 1
refdes=C3
T 48300 46100 5 10 0 0 90 0 1
symversion=0.1
T 49200 45900 5 10 1 1 0 0 1
value=4700p
}
N 45800 49000 47900 49000 4
N 47900 49000 47900 48100 4
N 46500 47500 46500 49000 4
N 47900 46800 47900 47200 4
N 49000 46800 49000 47000 4
N 47900 47000 49400 47000 4
C 47100 45200 1 0 0 gnd-1.sym
N 49000 45900 49000 45500 4
N 46500 45500 49000 45500 4
N 47900 45900 47900 45500 4
N 46500 46600 46500 45500 4
N 45800 49900 46500 49900 4
N 46500 49900 46500 49000 4
C 44900 48800 1 0 0 capacitor-1.sym
{
T 45100 49500 5 10 0 0 0 0 1
device=CAPACITOR
T 45100 49300 5 10 1 1 0 0 1
refdes=C2
T 45100 49700 5 10 0 0 0 0 1
symversion=0.1
T 44900 48800 5 10 1 1 0 0 1
value=22p
}
C 49400 46900 1 0 0 output-2.sym
{
T 50300 47100 5 10 1 0 0 0 1
net=OUT:1
T 49600 47600 5 10 0 0 0 0 1
device=none
T 50300 47000 5 10 1 1 0 1 1
value=OUT
}
C 43200 49800 1 0 0 input-2.sym
{
T 43200 50000 5 10 1 0 0 0 1
net=IN1:1
T 43800 50500 5 10 0 0 0 0 1
device=none
T 43700 49900 5 10 1 1 0 7 1
value=IN1
}
N 44600 49900 44900 49900 4
C 43200 48900 1 0 0 input-2.sym
{
T 43200 49100 5 10 1 0 0 0 1
net=IN2:1
T 43800 49600 5 10 0 0 0 0 1
device=none
T 43700 49000 5 10 1 1 0 7 1
value=IN2
}
N 44900 49000 44600 49000 4
C 43400 45100 1 0 1 vsin-1.sym
{
T 42550 45700 5 10 1 1 270 6 1
refdes=Vsin1
T 42700 45950 5 10 0 0 180 2 1
device=vsin
T 42700 46150 5 10 0 0 180 2 1
footprint=none
T 42350 45100 5 10 1 1 270 6 1
value=dc 0 sin(0 8 260k 0 0)
}
C 44800 45000 1 0 1 vsin-1.sym
{
T 43950 45600 5 10 1 1 270 6 1
refdes=Vsin2
T 44100 45850 5 10 0 0 180 2 1
device=vsin
T 44100 46050 5 10 0 0 180 2 1
footprint=none
T 43750 45000 5 10 1 1 270 6 1
value=dc 0 sin(0 8 270k 0 0)
}
C 44400 48100 1 270 0 input-2.sym
{
T 44600 48100 5 10 1 0 270 0 1
net=IN2:1
T 45100 47500 5 10 0 0 270 0 1
device=none
T 44500 47600 5 10 1 1 270 7 1
value=IN2
}
C 44400 44700 1 0 0 gnd-1.sym
C 43000 44800 1 0 0 gnd-1.sym
C 43000 48100 1 270 0 input-2.sym
{
T 43200 48100 5 10 1 0 270 0 1
net=IN1:1
T 43700 47500 5 10 0 0 270 0 1
device=none
T 43100 47600 5 10 1 1 270 7 1
value=IN1
}
N 43100 46700 43100 46300 4
N 44500 46700 44500 46200 4
C 40500 49200 1 0 0 spice-model-1.sym
{
T 40600 49900 5 10 0 1 0 0 1
device=model
T 40600 49800 5 10 1 1 0 0 1
refdes=A1
T 41800 49500 5 10 1 1 0 0 1
model-name=D1N4728
T 41000 49300 5 10 1 1 0 0 1
file=1N4728.LIB
}
C 47900 48900 1 0 0 output-2.sym
{
T 48800 49100 5 10 1 0 0 0 1
net=outa:1
T 48100 49600 5 10 0 0 0 0 1
device=none
T 48800 49000 5 10 1 1 0 1 1
value=outa
}
