%!PS-Adobe-3.0 EPSF-3.0
%%Creator: nutmeg
%%BoundingBox: 54 54 612 612
1 1 scale
1.000 1.000 1.000 setrgbcolor
newpath
54 54 moveto 612 54 lineto
612 612 lineto 54 612 lineto
closepath fill
/Helvetica findfont 10 scalefont setfont

0.000 0.000 0.000 setrgbcolor
0.502 0.502 0.502 setrgbcolor
0.000 0.000 0.000 setrgbcolor
0.000 0.000 0.000 setrgbcolor
243 66 moveto
(time) show
0.000 0.000 0.000 setrgbcolor
0.502 0.502 0.502 setrgbcolor
newpath
84 104 moveto
84 545 lineto
stroke
0.000 0.000 0.000 setrgbcolor
0.000 0.000 0.000 setrgbcolor
72 87 moveto
(50.0) show
0.000 0.000 0.000 setrgbcolor
0.502 0.502 0.502 setrgbcolor
newpath
165 104 moveto
165 545 lineto
stroke
0.000 0.000 0.000 setrgbcolor
0.000 0.000 0.000 setrgbcolor
150 87 moveto
(100.0) show
0.000 0.000 0.000 setrgbcolor
0.502 0.502 0.502 setrgbcolor
newpath
246 104 moveto
246 545 lineto
stroke
0.000 0.000 0.000 setrgbcolor
0.000 0.000 0.000 setrgbcolor
231 87 moveto
(150.0) show
0.000 0.000 0.000 setrgbcolor
0.502 0.502 0.502 setrgbcolor
newpath
327 104 moveto
327 545 lineto
stroke
0.000 0.000 0.000 setrgbcolor
0.000 0.000 0.000 setrgbcolor
312 87 moveto
(200.0) show
0.000 0.000 0.000 setrgbcolor
0.502 0.502 0.502 setrgbcolor
newpath
408 104 moveto
408 545 lineto
stroke
0.000 0.000 0.000 setrgbcolor
0.000 0.000 0.000 setrgbcolor
393 87 moveto
(250.0) show
0.000 0.000 0.000 setrgbcolor
0.502 0.502 0.502 setrgbcolor
newpath
489 104 moveto
489 545 lineto
stroke
0.000 0.000 0.000 setrgbcolor
0.000 0.000 0.000 setrgbcolor
474 87 moveto
(300.0) show
0.000 0.000 0.000 setrgbcolor
0.502 0.502 0.502 setrgbcolor
newpath
570 104 moveto
570 545 lineto
stroke
0.000 0.000 0.000 setrgbcolor
0.000 0.000 0.000 setrgbcolor
555 87 moveto
(350.0) show
0.000 0.000 0.000 setrgbcolor
0.502 0.502 0.502 setrgbcolor
0.000 0.000 0.000 setrgbcolor
0.000 0.000 0.000 setrgbcolor
382 66 moveto
(us) show
0.000 0.000 0.000 setrgbcolor
0.502 0.502 0.502 setrgbcolor
newpath
84 104 moveto
570 104 lineto
stroke
0.000 0.000 0.000 setrgbcolor
0.000 0.000 0.000 setrgbcolor
54 101 moveto
(-80.0) show
0.000 0.000 0.000 setrgbcolor
0.502 0.502 0.502 setrgbcolor
newpath
84 153 moveto
570 153 lineto
stroke
0.000 0.000 0.000 setrgbcolor
0.000 0.000 0.000 setrgbcolor
54 150 moveto
(-70.0) show
0.000 0.000 0.000 setrgbcolor
0.502 0.502 0.502 setrgbcolor
newpath
84 202 moveto
570 202 lineto
stroke
0.000 0.000 0.000 setrgbcolor
0.000 0.000 0.000 setrgbcolor
54 199 moveto
(-60.0) show
0.000 0.000 0.000 setrgbcolor
0.502 0.502 0.502 setrgbcolor
newpath
84 251 moveto
570 251 lineto
stroke
0.000 0.000 0.000 setrgbcolor
0.000 0.000 0.000 setrgbcolor
54 248 moveto
(-50.0) show
0.000 0.000 0.000 setrgbcolor
0.502 0.502 0.502 setrgbcolor
newpath
84 300 moveto
570 300 lineto
stroke
0.000 0.000 0.000 setrgbcolor
0.000 0.000 0.000 setrgbcolor
54 297 moveto
(-40.0) show
0.000 0.000 0.000 setrgbcolor
0.502 0.502 0.502 setrgbcolor
newpath
84 349 moveto
570 349 lineto
stroke
0.000 0.000 0.000 setrgbcolor
0.000 0.000 0.000 setrgbcolor
54 346 moveto
(-30.0) show
0.000 0.000 0.000 setrgbcolor
0.502 0.502 0.502 setrgbcolor
newpath
84 398 moveto
570 398 lineto
stroke
0.000 0.000 0.000 setrgbcolor
0.000 0.000 0.000 setrgbcolor
54 395 moveto
(-20.0) show
0.000 0.000 0.000 setrgbcolor
0.502 0.502 0.502 setrgbcolor
newpath
84 447 moveto
570 447 lineto
stroke
0.000 0.000 0.000 setrgbcolor
0.000 0.000 0.000 setrgbcolor
54 444 moveto
(-10.0) show
0.000 0.000 0.000 setrgbcolor
0.502 0.502 0.502 setrgbcolor
0.000 0.000 0.000 setrgbcolor
newpath
84 496 moveto
570 496 lineto
stroke
0.502 0.502 0.502 setrgbcolor
0.000 0.000 0.000 setrgbcolor
0.000 0.000 0.000 setrgbcolor
66 493 moveto
(0.0) show
0.000 0.000 0.000 setrgbcolor
0.502 0.502 0.502 setrgbcolor
newpath
84 545 moveto
570 545 lineto
stroke
0.000 0.000 0.000 setrgbcolor
0.000 0.000 0.000 setrgbcolor
60 542 moveto
(10.0) show
0.000 0.000 0.000 setrgbcolor
0.502 0.502 0.502 setrgbcolor
0.000 0.000 0.000 setrgbcolor
0.000 0.000 0.000 setrgbcolor
54 582 moveto
(mV) show
0.000 0.000 0.000 setrgbcolor
0.502 0.502 0.502 setrgbcolor
1.000 0.000 0.000 setrgbcolor
newpath
291 586 moveto
315 586 lineto
stroke
0.000 0.000 0.000 setrgbcolor
0.000 0.000 0.000 setrgbcolor
321 582 moveto
(v(out)) show
0.000 0.000 0.000 setrgbcolor
1.000 0.000 0.000 setrgbcolor
newpath
84 433 moveto
84 434 lineto
85 435 lineto
86 436 lineto
86 437 lineto
86 438 lineto
87 439 lineto
87 441 lineto
87 442 lineto
88 444 lineto
88 445 lineto
88 446 lineto
89 447 lineto
89 446 lineto
90 445 lineto
90 443 lineto
90 441 lineto
90 439 lineto
91 438 lineto
91 437 lineto
92 438 lineto
92 440 lineto
92 443 lineto
93 446 lineto
93 450 lineto
93 454 lineto
94 457 lineto
94 459 lineto
94 461 lineto
95 461 lineto
95 460 lineto
95 458 lineto
96 454 lineto
96 450 lineto
96 446 lineto
97 442 lineto
97 439 lineto
97 437 lineto
98 437 lineto
98 439 lineto
98 442 lineto
99 447 lineto
99 452 lineto
99 458 lineto
100 463 lineto
100 468 lineto
100 472 lineto
101 474 lineto
101 472 lineto
101 468 lineto
102 462 lineto
102 455 lineto
102 449 lineto
103 443 lineto
103 438 lineto
103 436 lineto
104 436 lineto
104 438 lineto
104 443 lineto
105 449 lineto
105 457 lineto
105 464 lineto
106 472 lineto
106 478 lineto
106 482 lineto
107 485 lineto
107 484 lineto
107 481 lineto
108 475 lineto
108 467 lineto
108 458 lineto
109 449 lineto
109 441 lineto
109 436 lineto
110 433 lineto
110 434 lineto
110 437 lineto
111 443 lineto
111 451 lineto
111 460 lineto
112 470 lineto
112 478 lineto
112 486 lineto
113 491 lineto
113 494 lineto
113 493 lineto
113 488 lineto
114 480 lineto
114 470 lineto
114 459 lineto
115 448 lineto
115 438 lineto
115 432 lineto
116 429 lineto
116 431 lineto
116 435 lineto
117 443 lineto
117 452 lineto
117 463 lineto
118 474 lineto
118 484 lineto
118 492 lineto
119 498 lineto
119 500 lineto
119 499 lineto
120 493 lineto
120 483 lineto
120 471 lineto
121 457 lineto
121 444 lineto
121 434 lineto
122 427 lineto
122 425 lineto
122 427 lineto
123 432 lineto
123 441 lineto
123 452 lineto
124 464 lineto
124 476 lineto
124 487 lineto
125 496 lineto
125 502 lineto
125 503 lineto
125 501 lineto
126 493 lineto
126 481 lineto
126 466 lineto
127 451 lineto
127 436 lineto
127 424 lineto
128 417 lineto
128 415 lineto
128 417 lineto
129 424 lineto
129 435 lineto
129 447 lineto
130 459 lineto
130 472 lineto
130 483 lineto
131 491 lineto
131 496 lineto
131 497 lineto
132 492 lineto
132 482 lineto
132 467 lineto
133 450 lineto
133 431 lineto
133 415 lineto
134 402 lineto
134 394 lineto
134 392 lineto
135 395 lineto
135 403 lineto
135 414 lineto
136 427 lineto
136 441 lineto
136 453 lineto
136 464 lineto
137 472 lineto
137 477 lineto
137 476 lineto
138 469 lineto
138 456 lineto
138 439 lineto
139 419 lineto
139 398 lineto
139 380 lineto
140 366 lineto
140 358 lineto
140 356 lineto
141 361 lineto
141 370 lineto
141 382 lineto
142 396 lineto
142 409 lineto
142 422 lineto
143 433 lineto
143 441 lineto
143 445 lineto
144 442 lineto
144 434 lineto
144 419 lineto
145 399 lineto
145 377 lineto
145 355 lineto
146 336 lineto
146 322 lineto
146 314 lineto
147 313 lineto
147 318 lineto
147 328 lineto
148 342 lineto
148 356 lineto
148 370 lineto
148 383 lineto
149 394 lineto
149 402 lineto
149 405 lineto
150 402 lineto
150 391 lineto
150 375 lineto
151 353 lineto
151 330 lineto
151 307 lineto
152 287 lineto
152 273 lineto
152 266 lineto
153 266 lineto
153 273 lineto
153 284 lineto
154 298 lineto
154 313 lineto
154 328 lineto
155 342 lineto
155 353 lineto
155 360 lineto
156 363 lineto
156 358 lineto
156 347 lineto
157 329 lineto
157 306 lineto
157 282 lineto
158 258 lineto
158 239 lineto
158 226 lineto
159 220 lineto
159 221 lineto
159 229 lineto
159 241 lineto
160 256 lineto
160 272 lineto
160 287 lineto
161 301 lineto
161 312 lineto
161 319 lineto
162 321 lineto
162 316 lineto
162 303 lineto
163 285 lineto
163 262 lineto
163 237 lineto
164 214 lineto
164 195 lineto
164 183 lineto
165 178 lineto
165 181 lineto
165 190 lineto
166 203 lineto
166 219 lineto
166 235 lineto
167 250 lineto
167 264 lineto
167 276 lineto
168 283 lineto
168 284 lineto
168 278 lineto
169 265 lineto
169 246 lineto
169 223 lineto
170 199 lineto
170 177 lineto
170 159 lineto
171 148 lineto
171 145 lineto
171 149 lineto
171 158 lineto
172 172 lineto
172 189 lineto
172 205 lineto
173 221 lineto
173 235 lineto
173 247 lineto
174 253 lineto
174 254 lineto
174 248 lineto
175 235 lineto
175 216 lineto
175 194 lineto
176 170 lineto
176 149 lineto
176 134 lineto
177 124 lineto
177 122 lineto
177 127 lineto
178 138 lineto
178 152 lineto
178 169 lineto
179 185 lineto
179 201 lineto
179 215 lineto
180 227 lineto
180 233 lineto
180 234 lineto
181 228 lineto
181 215 lineto
181 196 lineto
182 175 lineto
182 153 lineto
182 134 lineto
182 120 lineto
183 112 lineto
183 118 lineto
184 129 lineto
184 144 lineto
184 160 lineto
185 177 lineto
185 193 lineto
185 207 lineto
186 218 lineto
186 224 lineto
187 218 lineto
187 206 lineto
187 189 lineto
188 169 lineto
188 149 lineto
188 132 lineto
189 120 lineto
189 114 lineto
189 115 lineto
190 121 lineto
190 133 lineto
190 147 lineto
191 164 lineto
191 180 lineto
191 196 lineto
192 210 lineto
192 220 lineto
192 226 lineto
193 227 lineto
193 221 lineto
193 210 lineto
194 194 lineto
194 176 lineto
194 159 lineto
194 144 lineto
195 134 lineto
195 129 lineto
195 131 lineto
196 138 lineto
196 150 lineto
196 164 lineto
197 180 lineto
197 196 lineto
197 211 lineto
198 224 lineto
198 234 lineto
198 240 lineto
199 241 lineto
199 235 lineto
199 225 lineto
200 211 lineto
200 196 lineto
200 181 lineto
201 168 lineto
201 161 lineto
201 158 lineto
202 160 lineto
202 168 lineto
202 179 lineto
203 193 lineto
203 208 lineto
203 223 lineto
204 237 lineto
204 249 lineto
204 259 lineto
205 264 lineto
205 260 lineto
206 251 lineto
206 239 lineto
206 226 lineto
206 213 lineto
207 203 lineto
207 197 lineto
207 196 lineto
208 199 lineto
208 207 lineto
208 217 lineto
209 230 lineto
209 244 lineto
209 257 lineto
210 270 lineto
210 281 lineto
210 290 lineto
211 294 lineto
211 290 lineto
212 282 lineto
212 272 lineto
212 261 lineto
213 251 lineto
213 243 lineto
213 238 lineto
214 238 lineto
214 241 lineto
214 248 lineto
215 258 lineto
215 269 lineto
215 281 lineto
216 294 lineto
216 305 lineto
216 314 lineto
217 321 lineto
217 324 lineto
217 320 lineto
218 314 lineto
218 305 lineto
218 296 lineto
219 288 lineto
219 282 lineto
219 279 lineto
220 279 lineto
220 282 lineto
220 288 lineto
221 297 lineto
221 306 lineto
221 317 lineto
222 327 lineto
222 336 lineto
222 344 lineto
223 349 lineto
223 351 lineto
224 347 lineto
224 342 lineto
224 335 lineto
225 328 lineto
225 322 lineto
225 318 lineto
226 316 lineto
226 319 lineto
227 324 lineto
227 331 lineto
227 339 lineto
228 347 lineto
228 355 lineto
228 362 lineto
229 368 lineto
229 372 lineto
229 373 lineto
230 370 lineto
230 366 lineto
230 362 lineto
231 357 lineto
231 353 lineto
231 350 lineto
232 349 lineto
232 350 lineto
232 352 lineto
233 356 lineto
233 361 lineto
233 367 lineto
234 373 lineto
234 379 lineto
234 384 lineto
235 387 lineto
235 390 lineto
235 391 lineto
236 391 lineto
236 389 lineto
236 387 lineto
237 384 lineto
237 382 lineto
237 380 lineto
238 379 lineto
238 378 lineto
238 379 lineto
239 381 lineto
239 384 lineto
239 387 lineto
240 390 lineto
240 394 lineto
240 397 lineto
240 400 lineto
241 402 lineto
241 403 lineto
241 404 lineto
242 404 lineto
243 403 lineto
244 403 lineto
244 404 lineto
245 405 lineto
245 406 lineto
245 407 lineto
246 408 lineto
246 409 lineto
246 410 lineto
247 411 lineto
247 412 lineto
248 413 lineto
248 414 lineto
248 415 lineto
249 417 lineto
249 418 lineto
249 420 lineto
250 422 lineto
250 423 lineto
250 425 lineto
251 425 lineto
252 424 lineto
252 422 lineto
252 421 lineto
252 419 lineto
253 418 lineto
253 417 lineto
254 419 lineto
254 421 lineto
254 424 lineto
255 427 lineto
255 431 lineto
255 435 lineto
256 438 lineto
256 441 lineto
256 443 lineto
257 443 lineto
257 442 lineto
257 440 lineto
258 437 lineto
258 433 lineto
258 428 lineto
259 425 lineto
259 422 lineto
259 420 lineto
260 420 lineto
260 422 lineto
260 425 lineto
261 430 lineto
261 435 lineto
261 441 lineto
262 447 lineto
262 452 lineto
262 456 lineto
263 458 lineto
263 456 lineto
263 452 lineto
264 447 lineto
264 440 lineto
264 434 lineto
265 428 lineto
265 423 lineto
265 421 lineto
266 421 lineto
266 424 lineto
266 429 lineto
267 435 lineto
267 443 lineto
267 450 lineto
268 458 lineto
268 464 lineto
268 469 lineto
269 471 lineto
269 468 lineto
270 462 lineto
270 454 lineto
270 445 lineto
271 436 lineto
271 429 lineto
271 423 lineto
272 421 lineto
272 425 lineto
273 431 lineto
273 439 lineto
273 448 lineto
274 458 lineto
274 467 lineto
274 474 lineto
275 480 lineto
275 482 lineto
275 481 lineto
275 477 lineto
276 469 lineto
276 459 lineto
276 448 lineto
277 437 lineto
277 428 lineto
277 421 lineto
278 419 lineto
278 420 lineto
278 425 lineto
279 432 lineto
279 442 lineto
279 453 lineto
280 464 lineto
280 474 lineto
280 482 lineto
281 488 lineto
281 491 lineto
281 489 lineto
282 483 lineto
282 474 lineto
282 461 lineto
283 448 lineto
283 435 lineto
283 425 lineto
284 418 lineto
284 416 lineto
284 418 lineto
285 424 lineto
285 433 lineto
285 444 lineto
286 456 lineto
286 468 lineto
286 479 lineto
287 488 lineto
287 494 lineto
287 495 lineto
287 493 lineto
288 485 lineto
288 473 lineto
288 459 lineto
289 443 lineto
289 428 lineto
289 417 lineto
290 410 lineto
290 407 lineto
290 410 lineto
291 417 lineto
291 427 lineto
291 440 lineto
292 452 lineto
292 465 lineto
292 476 lineto
293 485 lineto
293 490 lineto
294 486 lineto
294 475 lineto
294 461 lineto
295 443 lineto
295 425 lineto
295 409 lineto
296 396 lineto
296 388 lineto
296 386 lineto
297 389 lineto
297 397 lineto
297 409 lineto
298 422 lineto
298 435 lineto
298 448 lineto
298 459 lineto
299 467 lineto
299 471 lineto
299 470 lineto
300 464 lineto
300 451 lineto
300 434 lineto
301 414 lineto
301 393 lineto
301 375 lineto
302 361 lineto
302 353 lineto
302 352 lineto
303 356 lineto
303 365 lineto
303 377 lineto
304 391 lineto
304 405 lineto
304 418 lineto
305 429 lineto
305 437 lineto
305 440 lineto
306 438 lineto
306 429 lineto
306 415 lineto
307 395 lineto
307 373 lineto
307 351 lineto
308 332 lineto
308 318 lineto
308 310 lineto
309 309 lineto
309 314 lineto
309 325 lineto
310 338 lineto
310 352 lineto
310 367 lineto
310 380 lineto
311 391 lineto
311 399 lineto
311 402 lineto
312 398 lineto
312 388 lineto
312 371 lineto
313 350 lineto
313 327 lineto
313 304 lineto
314 284 lineto
314 270 lineto
314 263 lineto
315 263 lineto
315 270 lineto
315 281 lineto
316 295 lineto
316 311 lineto
316 325 lineto
317 339 lineto
317 350 lineto
317 358 lineto
318 360 lineto
318 355 lineto
318 344 lineto
319 326 lineto
319 304 lineto
319 279 lineto
320 256 lineto
320 237 lineto
320 223 lineto
321 217 lineto
321 219 lineto
321 226 lineto
321 239 lineto
322 254 lineto
322 270 lineto
322 285 lineto
323 299 lineto
323 310 lineto
323 317 lineto
324 319 lineto
324 314 lineto
324 301 lineto
325 283 lineto
325 260 lineto
325 235 lineto
326 212 lineto
326 193 lineto
326 181 lineto
327 176 lineto
327 179 lineto
327 188 lineto
328 201 lineto
328 217 lineto
328 233 lineto
329 249 lineto
329 263 lineto
329 274 lineto
330 281 lineto
330 282 lineto
330 277 lineto
331 264 lineto
331 245 lineto
331 222 lineto
332 197 lineto
332 175 lineto
332 158 lineto
333 147 lineto
333 143 lineto
333 147 lineto
333 157 lineto
334 171 lineto
334 187 lineto
334 204 lineto
335 220 lineto
335 234 lineto
335 245 lineto
336 252 lineto
336 253 lineto
336 247 lineto
337 234 lineto
337 215 lineto
337 192 lineto
338 169 lineto
338 148 lineto
338 132 lineto
339 123 lineto
339 121 lineto
339 126 lineto
340 136 lineto
340 151 lineto
340 167 lineto
341 184 lineto
341 200 lineto
341 214 lineto
342 226 lineto
342 232 lineto
342 233 lineto
343 226 lineto
343 214 lineto
343 195 lineto
344 174 lineto
344 152 lineto
344 133 lineto
344 119 lineto
345 111 lineto
345 117 lineto
346 128 lineto
346 143 lineto
346 159 lineto
347 176 lineto
347 192 lineto
347 206 lineto
348 217 lineto
348 223 lineto
348 224 lineto
349 217 lineto
349 205 lineto
349 188 lineto
350 168 lineto
350 148 lineto
350 131 lineto
351 119 lineto
351 113 lineto
351 114 lineto
352 121 lineto
352 132 lineto
352 147 lineto
353 163 lineto
353 180 lineto
353 195 lineto
354 209 lineto
354 219 lineto
354 226 lineto
355 226 lineto
355 220 lineto
355 209 lineto
356 193 lineto
356 175 lineto
356 158 lineto
356 143 lineto
357 133 lineto
357 129 lineto
357 131 lineto
358 138 lineto
358 149 lineto
358 164 lineto
359 179 lineto
359 195 lineto
359 211 lineto
360 224 lineto
360 234 lineto
360 239 lineto
361 240 lineto
361 235 lineto
361 225 lineto
362 211 lineto
362 195 lineto
362 180 lineto
363 168 lineto
363 160 lineto
363 157 lineto
364 160 lineto
364 167 lineto
364 179 lineto
365 192 lineto
365 207 lineto
365 222 lineto
366 237 lineto
366 249 lineto
366 258 lineto
367 264 lineto
367 260 lineto
368 251 lineto
368 239 lineto
368 225 lineto
368 213 lineto
369 203 lineto
369 197 lineto
369 196 lineto
370 199 lineto
370 206 lineto
370 217 lineto
371 229 lineto
371 243 lineto
371 257 lineto
372 270 lineto
372 281 lineto
372 289 lineto
373 294 lineto
373 290 lineto
374 282 lineto
374 272 lineto
374 261 lineto
375 250 lineto
375 243 lineto
375 238 lineto
376 238 lineto
376 241 lineto
376 248 lineto
377 258 lineto
377 269 lineto
377 281 lineto
378 293 lineto
378 304 lineto
378 314 lineto
379 321 lineto
379 324 lineto
379 320 lineto
380 313 lineto
380 305 lineto
380 296 lineto
381 288 lineto
381 282 lineto
381 278 lineto
382 279 lineto
382 282 lineto
382 288 lineto
383 296 lineto
383 306 lineto
383 316 lineto
384 327 lineto
384 336 lineto
384 343 lineto
385 348 lineto
385 351 lineto
385 350 lineto
386 347 lineto
386 342 lineto
386 335 lineto
387 328 lineto
387 322 lineto
387 318 lineto
388 316 lineto
388 319 lineto
389 324 lineto
389 331 lineto
389 339 lineto
390 347 lineto
390 355 lineto
390 362 lineto
391 368 lineto
391 372 lineto
391 373 lineto
392 370 lineto
392 366 lineto
392 361 lineto
393 357 lineto
393 353 lineto
393 350 lineto
394 349 lineto
394 350 lineto
394 352 lineto
395 356 lineto
395 361 lineto
395 367 lineto
396 373 lineto
396 378 lineto
396 383 lineto
397 387 lineto
397 390 lineto
397 391 lineto
398 391 lineto
398 389 lineto
398 387 lineto
399 384 lineto
399 382 lineto
399 380 lineto
400 378 lineto
400 379 lineto
401 381 lineto
401 383 lineto
401 387 lineto
402 390 lineto
402 394 lineto
402 397 lineto
402 400 lineto
403 402 lineto
403 403 lineto
403 404 lineto
404 404 lineto
404 403 lineto
405 403 lineto
405 402 lineto
406 403 lineto
406 404 lineto
407 405 lineto
407 406 lineto
407 407 lineto
408 408 lineto
408 409 lineto
408 410 lineto
409 411 lineto
409 412 lineto
410 413 lineto
410 414 lineto
410 415 lineto
411 417 lineto
411 418 lineto
411 420 lineto
412 422 lineto
412 423 lineto
412 424 lineto
413 425 lineto
414 424 lineto
414 422 lineto
414 421 lineto
414 419 lineto
415 418 lineto
415 417 lineto
416 418 lineto
416 421 lineto
416 423 lineto
417 427 lineto
417 431 lineto
417 435 lineto
418 438 lineto
418 441 lineto
418 442 lineto
419 443 lineto
419 442 lineto
419 440 lineto
420 436 lineto
420 432 lineto
420 428 lineto
421 425 lineto
421 422 lineto
stroke
newpath
421 422 moveto
421 420 lineto
422 420 lineto
422 422 lineto
422 425 lineto
423 430 lineto
423 435 lineto
423 441 lineto
424 447 lineto
424 452 lineto
424 456 lineto
425 458 lineto
425 456 lineto
425 452 lineto
426 446 lineto
426 440 lineto
426 433 lineto
427 428 lineto
427 423 lineto
427 421 lineto
428 421 lineto
428 424 lineto
428 429 lineto
429 435 lineto
429 442 lineto
429 450 lineto
430 458 lineto
430 464 lineto
430 469 lineto
431 471 lineto
431 468 lineto
432 462 lineto
432 454 lineto
432 445 lineto
433 436 lineto
433 429 lineto
433 423 lineto
434 421 lineto
434 425 lineto
435 431 lineto
435 439 lineto
435 448 lineto
436 458 lineto
436 467 lineto
436 474 lineto
437 480 lineto
437 482 lineto
437 481 lineto
437 477 lineto
438 469 lineto
438 459 lineto
438 448 lineto
439 437 lineto
439 428 lineto
439 421 lineto
440 419 lineto
440 420 lineto
440 425 lineto
441 432 lineto
441 442 lineto
441 453 lineto
442 464 lineto
442 474 lineto
442 482 lineto
443 488 lineto
443 491 lineto
443 489 lineto
444 483 lineto
444 474 lineto
444 461 lineto
445 448 lineto
445 435 lineto
445 425 lineto
446 418 lineto
446 416 lineto
446 418 lineto
447 424 lineto
447 433 lineto
447 444 lineto
448 456 lineto
448 468 lineto
448 479 lineto
449 488 lineto
449 494 lineto
449 495 lineto
449 493 lineto
450 485 lineto
450 473 lineto
450 458 lineto
451 443 lineto
451 428 lineto
451 417 lineto
452 410 lineto
452 407 lineto
452 410 lineto
453 417 lineto
453 427 lineto
453 440 lineto
454 452 lineto
454 465 lineto
454 476 lineto
455 484 lineto
455 490 lineto
456 486 lineto
456 475 lineto
456 461 lineto
457 443 lineto
457 425 lineto
457 409 lineto
458 396 lineto
458 388 lineto
458 386 lineto
459 389 lineto
459 397 lineto
459 409 lineto
460 422 lineto
460 435 lineto
460 448 lineto
460 459 lineto
461 467 lineto
461 471 lineto
461 470 lineto
462 464 lineto
462 451 lineto
462 434 lineto
463 413 lineto
463 393 lineto
463 375 lineto
464 361 lineto
464 353 lineto
464 352 lineto
465 356 lineto
465 365 lineto
465 377 lineto
466 391 lineto
466 405 lineto
466 418 lineto
467 429 lineto
467 437 lineto
467 440 lineto
468 438 lineto
468 429 lineto
468 415 lineto
469 395 lineto
469 373 lineto
469 351 lineto
470 332 lineto
470 318 lineto
470 310 lineto
471 309 lineto
471 314 lineto
471 325 lineto
472 338 lineto
472 352 lineto
472 367 lineto
472 380 lineto
473 391 lineto
473 399 lineto
473 402 lineto
474 398 lineto
474 388 lineto
474 371 lineto
475 350 lineto
475 327 lineto
475 304 lineto
476 284 lineto
476 270 lineto
476 263 lineto
477 263 lineto
477 270 lineto
477 281 lineto
478 295 lineto
478 311 lineto
478 325 lineto
479 339 lineto
479 350 lineto
479 358 lineto
480 360 lineto
480 355 lineto
480 344 lineto
481 326 lineto
481 304 lineto
481 279 lineto
482 256 lineto
482 237 lineto
482 223 lineto
483 217 lineto
483 219 lineto
483 226 lineto
483 239 lineto
484 254 lineto
484 270 lineto
484 285 lineto
485 299 lineto
485 310 lineto
485 317 lineto
486 319 lineto
486 314 lineto
486 301 lineto
487 283 lineto
487 260 lineto
487 235 lineto
488 212 lineto
488 193 lineto
488 181 lineto
489 176 lineto
489 179 lineto
489 188 lineto
490 201 lineto
490 217 lineto
490 233 lineto
491 249 lineto
491 263 lineto
491 274 lineto
492 281 lineto
492 282 lineto
492 277 lineto
493 264 lineto
493 245 lineto
493 222 lineto
494 197 lineto
494 175 lineto
494 158 lineto
495 147 lineto
495 143 lineto
495 147 lineto
495 157 lineto
496 171 lineto
496 187 lineto
496 204 lineto
497 220 lineto
497 234 lineto
497 245 lineto
498 252 lineto
498 253 lineto
498 247 lineto
499 234 lineto
499 215 lineto
499 192 lineto
500 169 lineto
500 148 lineto
500 132 lineto
501 123 lineto
501 121 lineto
501 126 lineto
502 136 lineto
502 151 lineto
502 167 lineto
503 184 lineto
503 200 lineto
503 214 lineto
504 226 lineto
504 232 lineto
504 233 lineto
505 226 lineto
505 214 lineto
505 195 lineto
506 174 lineto
506 152 lineto
506 133 lineto
506 119 lineto
507 111 lineto
507 117 lineto
508 128 lineto
508 143 lineto
508 159 lineto
509 176 lineto
509 192 lineto
509 206 lineto
510 217 lineto
510 223 lineto
511 217 lineto
511 205 lineto
511 188 lineto
512 168 lineto
512 148 lineto
512 131 lineto
513 119 lineto
513 113 lineto
513 114 lineto
514 121 lineto
514 132 lineto
514 147 lineto
515 163 lineto
515 180 lineto
515 195 lineto
516 209 lineto
516 219 lineto
516 226 lineto
517 226 lineto
517 220 lineto
517 209 lineto
518 193 lineto
518 175 lineto
518 158 lineto
518 143 lineto
519 133 lineto
519 129 lineto
519 131 lineto
520 138 lineto
520 149 lineto
520 164 lineto
521 179 lineto
521 195 lineto
521 211 lineto
522 224 lineto
522 234 lineto
522 239 lineto
523 240 lineto
523 235 lineto
523 225 lineto
524 211 lineto
524 195 lineto
524 180 lineto
525 168 lineto
525 160 lineto
525 157 lineto
526 160 lineto
526 167 lineto
526 179 lineto
527 192 lineto
527 207 lineto
527 222 lineto
528 237 lineto
528 249 lineto
528 258 lineto
529 264 lineto
529 260 lineto
530 251 lineto
530 239 lineto
530 225 lineto
530 213 lineto
531 203 lineto
531 197 lineto
531 195 lineto
532 199 lineto
532 206 lineto
532 217 lineto
533 229 lineto
533 243 lineto
533 257 lineto
534 270 lineto
534 281 lineto
534 289 lineto
535 294 lineto
535 290 lineto
536 282 lineto
536 272 lineto
536 261 lineto
537 250 lineto
537 243 lineto
537 238 lineto
538 238 lineto
538 241 lineto
538 248 lineto
539 258 lineto
539 269 lineto
539 281 lineto
540 293 lineto
540 304 lineto
540 314 lineto
541 321 lineto
541 324 lineto
541 320 lineto
542 313 lineto
542 305 lineto
542 296 lineto
543 288 lineto
543 282 lineto
543 278 lineto
544 279 lineto
544 282 lineto
544 288 lineto
545 296 lineto
545 306 lineto
545 316 lineto
546 327 lineto
546 336 lineto
546 343 lineto
547 348 lineto
547 351 lineto
547 350 lineto
548 347 lineto
548 342 lineto
548 335 lineto
549 328 lineto
549 322 lineto
549 318 lineto
550 316 lineto
550 319 lineto
551 324 lineto
551 331 lineto
551 339 lineto
552 347 lineto
552 355 lineto
552 362 lineto
553 368 lineto
553 372 lineto
553 373 lineto
554 370 lineto
554 366 lineto
554 361 lineto
555 357 lineto
555 353 lineto
555 350 lineto
556 349 lineto
556 350 lineto
556 352 lineto
557 356 lineto
557 361 lineto
557 367 lineto
558 373 lineto
558 378 lineto
558 383 lineto
559 387 lineto
559 390 lineto
559 391 lineto
560 391 lineto
560 389 lineto
560 387 lineto
561 384 lineto
561 382 lineto
561 380 lineto
562 378 lineto
562 379 lineto
563 381 lineto
563 383 lineto
563 387 lineto
564 390 lineto
564 394 lineto
564 397 lineto
564 400 lineto
565 402 lineto
565 403 lineto
565 404 lineto
566 404 lineto
566 403 lineto
567 403 lineto
567 402 lineto
568 403 lineto
568 404 lineto
569 405 lineto
569 406 lineto
569 407 lineto
570 408 lineto
570 409 lineto
stroke
showpage
%%EOF
