%!PS-Adobe-3.0 EPSF-3.0
%%Creator: nutmeg
%%BoundingBox: 54 54 612 612
1 1 scale
1.000 1.000 1.000 setrgbcolor
newpath
54 54 moveto 612 54 lineto
612 612 lineto 54 612 lineto
closepath fill
/Helvetica findfont 10 scalefont setfont

0.000 0.000 0.000 setrgbcolor
0.502 0.502 0.502 setrgbcolor
0.000 0.000 0.000 setrgbcolor
0.000 0.000 0.000 setrgbcolor
243 66 moveto
(time) show
0.000 0.000 0.000 setrgbcolor
0.502 0.502 0.502 setrgbcolor
newpath
78 104 moveto
78 549 lineto
stroke
0.000 0.000 0.000 setrgbcolor
0.000 0.000 0.000 setrgbcolor
69 87 moveto
(4.0) show
0.000 0.000 0.000 setrgbcolor
0.502 0.502 0.502 setrgbcolor
newpath
161 104 moveto
161 549 lineto
stroke
0.000 0.000 0.000 setrgbcolor
0.000 0.000 0.000 setrgbcolor
152 87 moveto
(6.0) show
0.000 0.000 0.000 setrgbcolor
0.502 0.502 0.502 setrgbcolor
newpath
244 104 moveto
244 549 lineto
stroke
0.000 0.000 0.000 setrgbcolor
0.000 0.000 0.000 setrgbcolor
235 87 moveto
(8.0) show
0.000 0.000 0.000 setrgbcolor
0.502 0.502 0.502 setrgbcolor
newpath
327 104 moveto
327 549 lineto
stroke
0.000 0.000 0.000 setrgbcolor
0.000 0.000 0.000 setrgbcolor
315 87 moveto
(10.0) show
0.000 0.000 0.000 setrgbcolor
0.502 0.502 0.502 setrgbcolor
newpath
410 104 moveto
410 549 lineto
stroke
0.000 0.000 0.000 setrgbcolor
0.000 0.000 0.000 setrgbcolor
398 87 moveto
(12.0) show
0.000 0.000 0.000 setrgbcolor
0.502 0.502 0.502 setrgbcolor
newpath
493 104 moveto
493 549 lineto
stroke
0.000 0.000 0.000 setrgbcolor
0.000 0.000 0.000 setrgbcolor
481 87 moveto
(14.0) show
0.000 0.000 0.000 setrgbcolor
0.502 0.502 0.502 setrgbcolor
newpath
576 104 moveto
576 549 lineto
stroke
0.000 0.000 0.000 setrgbcolor
0.000 0.000 0.000 setrgbcolor
564 87 moveto
(16.0) show
0.000 0.000 0.000 setrgbcolor
0.502 0.502 0.502 setrgbcolor
0.000 0.000 0.000 setrgbcolor
0.000 0.000 0.000 setrgbcolor
382 66 moveto
(us) show
0.000 0.000 0.000 setrgbcolor
0.502 0.502 0.502 setrgbcolor
newpath
78 104 moveto
576 104 lineto
stroke
0.000 0.000 0.000 setrgbcolor
0.000 0.000 0.000 setrgbcolor
54 101 moveto
(-1.5) show
0.000 0.000 0.000 setrgbcolor
0.502 0.502 0.502 setrgbcolor
newpath
78 193 moveto
576 193 lineto
stroke
0.000 0.000 0.000 setrgbcolor
0.000 0.000 0.000 setrgbcolor
54 190 moveto
(-1.0) show
0.000 0.000 0.000 setrgbcolor
0.502 0.502 0.502 setrgbcolor
newpath
78 282 moveto
576 282 lineto
stroke
0.000 0.000 0.000 setrgbcolor
0.000 0.000 0.000 setrgbcolor
54 279 moveto
(-0.5) show
0.000 0.000 0.000 setrgbcolor
0.502 0.502 0.502 setrgbcolor
0.000 0.000 0.000 setrgbcolor
newpath
78 371 moveto
576 371 lineto
stroke
0.502 0.502 0.502 setrgbcolor
0.000 0.000 0.000 setrgbcolor
0.000 0.000 0.000 setrgbcolor
60 368 moveto
(0.0) show
0.000 0.000 0.000 setrgbcolor
0.502 0.502 0.502 setrgbcolor
newpath
78 460 moveto
576 460 lineto
stroke
0.000 0.000 0.000 setrgbcolor
0.000 0.000 0.000 setrgbcolor
60 457 moveto
(0.5) show
0.000 0.000 0.000 setrgbcolor
0.502 0.502 0.502 setrgbcolor
newpath
78 549 moveto
576 549 lineto
stroke
0.000 0.000 0.000 setrgbcolor
0.000 0.000 0.000 setrgbcolor
60 546 moveto
(1.0) show
0.000 0.000 0.000 setrgbcolor
0.502 0.502 0.502 setrgbcolor
0.000 0.000 0.000 setrgbcolor
0.000 0.000 0.000 setrgbcolor
54 582 moveto
(V) show
0.000 0.000 0.000 setrgbcolor
0.502 0.502 0.502 setrgbcolor
1.000 0.000 0.000 setrgbcolor
newpath
297 586 moveto
321 586 lineto
stroke
0.000 0.000 0.000 setrgbcolor
0.000 0.000 0.000 setrgbcolor
327 582 moveto
(v(out)) show
0.000 0.000 0.000 setrgbcolor
1.000 0.000 0.000 setrgbcolor
newpath
80 368 moveto
84 368 lineto
88 368 lineto
92 368 lineto
97 369 lineto
101 369 lineto
105 369 lineto
109 369 lineto
113 370 lineto
117 370 lineto
122 370 lineto
126 370 lineto
130 370 lineto
134 370 lineto
138 370 lineto
142 370 lineto
146 370 lineto
151 370 lineto
155 370 lineto
159 370 lineto
163 369 lineto
167 369 lineto
171 368 lineto
175 368 lineto
180 368 lineto
184 367 lineto
188 367 lineto
192 366 lineto
196 366 lineto
200 365 lineto
205 365 lineto
209 365 lineto
213 365 lineto
217 365 lineto
221 365 lineto
225 365 lineto
229 365 lineto
234 365 lineto
238 365 lineto
242 365 lineto
246 366 lineto
250 366 lineto
254 366 lineto
258 367 lineto
263 367 lineto
267 367 lineto
271 367 lineto
275 367 lineto
279 368 lineto
283 368 lineto
288 368 lineto
292 368 lineto
296 368 lineto
300 368 lineto
304 368 lineto
308 368 lineto
312 368 lineto
317 367 lineto
321 367 lineto
325 367 lineto
329 366 lineto
333 366 lineto
337 365 lineto
341 365 lineto
346 365 lineto
350 364 lineto
354 364 lineto
358 364 lineto
362 363 lineto
366 363 lineto
371 363 lineto
375 363 lineto
379 363 lineto
383 363 lineto
387 363 lineto
391 363 lineto
395 364 lineto
400 364 lineto
404 364 lineto
408 364 lineto
412 365 lineto
416 365 lineto
420 365 lineto
424 365 lineto
429 366 lineto
433 366 lineto
437 366 lineto
441 366 lineto
445 366 lineto
449 366 lineto
454 366 lineto
458 366 lineto
462 366 lineto
466 366 lineto
470 366 lineto
474 366 lineto
478 365 lineto
483 365 lineto
487 365 lineto
491 364 lineto
495 364 lineto
499 364 lineto
503 363 lineto
507 363 lineto
512 363 lineto
516 362 lineto
520 362 lineto
524 362 lineto
528 362 lineto
532 362 lineto
537 362 lineto
541 362 lineto
545 362 lineto
549 362 lineto
553 363 lineto
557 363 lineto
561 363 lineto
566 363 lineto
570 364 lineto
574 364 lineto
576 364 lineto
stroke
0.000 0.000 1.000 setrgbcolor
newpath
78 586 moveto
102 586 lineto
stroke
0.000 0.000 0.000 setrgbcolor
0.000 0.000 0.000 setrgbcolor
108 582 moveto
(v(outa)) show
0.000 0.000 0.000 setrgbcolor
0.000 0.000 1.000 setrgbcolor
newpath
80 450 moveto
84 465 lineto
88 476 lineto
92 481 lineto
97 481 lineto
101 479 lineto
105 476 lineto
109 473 lineto
113 467 lineto
117 459 lineto
122 449 lineto
126 434 lineto
130 416 lineto
134 395 lineto
138 369 lineto
142 341 lineto
146 311 lineto
151 279 lineto
155 248 lineto
159 219 lineto
163 193 lineto
167 171 lineto
171 154 lineto
175 143 lineto
180 139 lineto
184 141 lineto
188 150 lineto
192 165 lineto
196 185 lineto
200 210 lineto
205 238 lineto
209 269 lineto
213 300 lineto
217 331 lineto
221 361 lineto
225 389 lineto
229 413 lineto
234 434 lineto
238 452 lineto
242 466 lineto
246 476 lineto
250 480 lineto
254 480 lineto
258 478 lineto
263 475 lineto
267 471 lineto
271 465 lineto
275 457 lineto
279 445 lineto
283 430 lineto
288 412 lineto
292 389 lineto
296 364 lineto
300 336 lineto
304 306 lineto
308 276 lineto
312 246 lineto
317 219 lineto
321 194 lineto
325 174 lineto
329 159 lineto
333 151 lineto
337 148 lineto
341 152 lineto
346 162 lineto
350 178 lineto
354 198 lineto
358 223 lineto
362 251 lineto
366 280 lineto
371 311 lineto
375 340 lineto
379 368 lineto
383 394 lineto
387 417 lineto
391 437 lineto
395 453 lineto
400 466 lineto
404 475 lineto
408 479 lineto
412 479 lineto
416 477 lineto
420 474 lineto
424 470 lineto
429 463 lineto
433 454 lineto
437 442 lineto
441 427 lineto
445 408 lineto
449 386 lineto
454 361 lineto
458 334 lineto
462 305 lineto
466 276 lineto
470 249 lineto
474 223 lineto
478 201 lineto
483 183 lineto
487 171 lineto
491 164 lineto
495 163 lineto
499 168 lineto
503 178 lineto
507 194 lineto
512 215 lineto
516 239 lineto
520 266 lineto
524 294 lineto
528 322 lineto
532 350 lineto
537 376 lineto
541 400 lineto
545 421 lineto
549 439 lineto
553 453 lineto
557 465 lineto
561 473 lineto
566 477 lineto
570 477 lineto
574 476 lineto
576 474 lineto
stroke
showpage
%%EOF
