EESchema Schematic File Version 2
LIBS:theremind-rescue
LIBS:power
LIBS:device
LIBS:transistors
LIBS:conn
LIBS:linear
LIBS:regul
LIBS:74xx
LIBS:cmos4000
LIBS:adc-dac
LIBS:memory
LIBS:xilinx
LIBS:microcontrollers
LIBS:dsp
LIBS:microchip
LIBS:analog_switches
LIBS:motorola
LIBS:texas
LIBS:intel
LIBS:audio
LIBS:interface
LIBS:digital-audio
LIBS:philips
LIBS:display
LIBS:cypress
LIBS:siliconi
LIBS:opto
LIBS:atmel
LIBS:contrib
LIBS:valves
LIBS:switches
LIBS:myTransistors
LIBS:theremind-cache
EELAYER 25 0
EELAYER END
$Descr A4 11693 8268
encoding utf-8
Sheet 12 13
Title "Theremind"
Date ""
Rev "0.1"
Comp "Hijos de Pachamama"
Comment1 "jgcubidesc@unal.edu.co"
Comment2 "Johnny Cubides"
Comment3 "crpulidog@unal.edu.co"
Comment4 "Carolina Pulido "
$EndDescr
$Comp
L R Rj3
U 1 1 5923AC74
P 3300 3800
F 0 "Rj3" V 3380 3800 50  0000 C CNN
F 1 "330k" V 3300 3800 50  0000 C CNN
F 2 "Resistors_THT:R_Axial_DIN0204_L3.6mm_D1.6mm_P2.54mm_Vertical" V 3230 3800 50  0001 C CNN
F 3 "" H 3300 3800 50  0000 C CNN
	1    3300 3800
	-1   0    0    1   
$EndComp
$Comp
L R Rj2
U 1 1 5923ACE1
P 3300 3300
F 0 "Rj2" V 3380 3300 50  0000 C CNN
F 1 "150k" V 3300 3300 50  0000 C CNN
F 2 "Resistors_THT:R_Axial_DIN0204_L3.6mm_D1.6mm_P2.54mm_Vertical" V 3230 3300 50  0001 C CNN
F 3 "" H 3300 3300 50  0000 C CNN
	1    3300 3300
	1    0    0    -1  
$EndComp
$Comp
L R Rj1
U 1 1 5923AD08
P 2900 3550
F 0 "Rj1" V 2980 3550 50  0000 C CNN
F 1 "4.7k" V 2900 3550 50  0000 C CNN
F 2 "Resistors_THT:R_Axial_DIN0204_L3.6mm_D1.6mm_P2.54mm_Vertical" V 2830 3550 50  0001 C CNN
F 3 "" H 2900 3550 50  0000 C CNN
	1    2900 3550
	0    1    1    0   
$EndComp
$Comp
L GND #PWR055
U 1 1 5923AD2B
P 2600 3550
F 0 "#PWR055" H 2600 3300 50  0001 C CNN
F 1 "GND" H 2600 3400 50  0000 C CNN
F 2 "" H 2600 3550 50  0000 C CNN
F 3 "" H 2600 3550 50  0000 C CNN
	1    2600 3550
	0    1    1    0   
$EndComp
Wire Wire Line
	2600 3550 2750 3550
Wire Wire Line
	3050 3550 4400 3550
Wire Wire Line
	3300 3450 3300 3650
Connection ~ 3300 3550
$Comp
L VEE #PWR056
U 1 1 5923AD72
P 3300 4050
F 0 "#PWR056" H 3300 3900 50  0001 C CNN
F 1 "VEE" H 3300 4200 50  0000 C CNN
F 2 "" H 3300 4050 50  0000 C CNN
F 3 "" H 3300 4050 50  0000 C CNN
	1    3300 4050
	-1   0    0    1   
$EndComp
Wire Wire Line
	3300 3950 3300 4050
Text HLabel 3300 3000 1    60   Input ~ 0
ondaForm
Wire Wire Line
	3300 3000 3300 3150
$Comp
L R Rj4
U 1 1 5923B151
P 4150 3650
F 0 "Rj4" V 4230 3650 50  0000 C CNN
F 1 "100k" V 4150 3650 50  0000 C CNN
F 2 "Resistors_THT:R_Axial_DIN0204_L3.6mm_D1.6mm_P2.54mm_Vertical" V 4080 3650 50  0001 C CNN
F 3 "" H 4150 3650 50  0000 C CNN
	1    4150 3650
	0    1    1    0   
$EndComp
Wire Wire Line
	4400 3650 4300 3650
Text HLabel 3900 3650 0    60   Input ~ 0
inBrillo
Wire Wire Line
	4000 3650 3900 3650
Text HLabel 4200 3900 0    60   Input ~ 0
inOnda
Wire Wire Line
	4400 3750 4300 3750
Wire Wire Line
	4300 3750 4300 3900
Wire Wire Line
	4300 3900 4200 3900
$Comp
L R Rj5
U 1 1 5923B91C
P 5950 4050
F 0 "Rj5" V 6030 4050 50  0000 C CNN
F 1 "100k" V 5950 4050 50  0000 C CNN
F 2 "Resistors_THT:R_Axial_DIN0204_L3.6mm_D1.6mm_P2.54mm_Vertical" V 5880 4050 50  0001 C CNN
F 3 "" H 5950 4050 50  0000 C CNN
	1    5950 4050
	1    0    0    -1  
$EndComp
$Comp
L R Rj6
U 1 1 5923B97C
P 6200 4050
F 0 "Rj6" V 6280 4050 50  0000 C CNN
F 1 "47k" V 6200 4050 50  0000 C CNN
F 2 "Resistors_THT:R_Axial_DIN0204_L3.6mm_D1.6mm_P2.54mm_Vertical" V 6130 4050 50  0001 C CNN
F 3 "" H 6200 4050 50  0000 C CNN
	1    6200 4050
	1    0    0    -1  
$EndComp
$Comp
L VEE #PWR057
U 1 1 5923BB8F
P 5950 4300
F 0 "#PWR057" H 5950 4150 50  0001 C CNN
F 1 "VEE" H 5950 4450 50  0000 C CNN
F 2 "" H 5950 4300 50  0000 C CNN
F 3 "" H 5950 4300 50  0000 C CNN
	1    5950 4300
	-1   0    0    1   
$EndComp
Wire Wire Line
	5950 4200 5950 4300
Wire Wire Line
	5950 3900 5950 3750
Wire Wire Line
	6200 3750 6200 3900
Text HLabel 6200 4300 3    60   Input ~ 0
inVolAmp
Wire Wire Line
	6200 4200 6200 4300
$Comp
L R Rj8
U 1 1 5923C7C9
P 8400 4000
F 0 "Rj8" V 8480 4000 50  0000 C CNN
F 1 "4.7k" V 8400 4000 50  0000 C CNN
F 2 "Resistors_THT:R_Axial_DIN0204_L3.6mm_D1.6mm_P2.54mm_Vertical" V 8330 4000 50  0001 C CNN
F 3 "" H 8400 4000 50  0000 C CNN
	1    8400 4000
	1    0    0    -1  
$EndComp
$Comp
L VEE #PWR058
U 1 1 5923C82E
P 8400 4250
F 0 "#PWR058" H 8400 4100 50  0001 C CNN
F 1 "VEE" H 8400 4400 50  0000 C CNN
F 2 "" H 8400 4250 50  0000 C CNN
F 3 "" H 8400 4250 50  0000 C CNN
	1    8400 4250
	-1   0    0    1   
$EndComp
Wire Wire Line
	8400 4150 8400 4250
$Comp
L CP Cj2
U 1 1 5923CB4D
P 8700 3700
F 0 "Cj2" H 8725 3800 50  0000 L CNN
F 1 "1uF" H 8725 3600 50  0000 L CNN
F 2 "Capacitors_THT:C_Rect_L4.6mm_W2.0mm_P2.50mm_MKS02_FKP02" H 8738 3550 50  0001 C CNN
F 3 "" H 8700 3700 50  0000 C CNN
	1    8700 3700
	0    1    1    0   
$EndComp
Wire Wire Line
	8000 3700 8550 3700
Wire Wire Line
	8400 3850 8400 3700
Connection ~ 8400 3700
$Comp
L R Rj9
U 1 1 5923CD3C
P 9100 3700
F 0 "Rj9" V 9180 3700 50  0000 C CNN
F 1 "4.7k" V 9100 3700 50  0000 C CNN
F 2 "Resistors_THT:R_Axial_DIN0204_L3.6mm_D1.6mm_P2.54mm_Vertical" V 9030 3700 50  0001 C CNN
F 3 "" H 9100 3700 50  0000 C CNN
	1    9100 3700
	0    1    1    0   
$EndComp
$Comp
L C Cj3
U 1 1 5923CD88
P 9350 4000
F 0 "Cj3" H 9375 4100 50  0000 L CNN
F 1 "0.01u" H 9375 3900 50  0000 L CNN
F 2 "Capacitors_THT:C_Rect_L7.0mm_W2.5mm_P5.00mm" H 9388 3850 50  0001 C CNN
F 3 "" H 9350 4000 50  0000 C CNN
	1    9350 4000
	1    0    0    -1  
$EndComp
$Comp
L R Rj10
U 1 1 5923CDF3
P 9700 3950
F 0 "Rj10" V 9780 3950 50  0000 C CNN
F 1 "4.7k" V 9700 3950 50  0000 C CNN
F 2 "Resistors_THT:R_Axial_DIN0204_L3.6mm_D1.6mm_P2.54mm_Vertical" V 9630 3950 50  0001 C CNN
F 3 "" H 9700 3950 50  0000 C CNN
	1    9700 3950
	-1   0    0    1   
$EndComp
Wire Wire Line
	9700 3800 9700 3700
Wire Wire Line
	9250 3700 9950 3700
Wire Wire Line
	9350 3850 9350 3700
Connection ~ 9350 3700
$Comp
L GND #PWR059
U 1 1 5923CE9C
P 9350 4250
F 0 "#PWR059" H 9350 4000 50  0001 C CNN
F 1 "GND" H 9350 4100 50  0000 C CNN
F 2 "" H 9350 4250 50  0000 C CNN
F 3 "" H 9350 4250 50  0000 C CNN
	1    9350 4250
	1    0    0    -1  
$EndComp
$Comp
L GND #PWR060
U 1 1 5923CED5
P 9700 4250
F 0 "#PWR060" H 9700 4000 50  0001 C CNN
F 1 "GND" H 9700 4100 50  0000 C CNN
F 2 "" H 9700 4250 50  0000 C CNN
F 3 "" H 9700 4250 50  0000 C CNN
	1    9700 4250
	1    0    0    -1  
$EndComp
Wire Wire Line
	9700 4100 9700 4250
Wire Wire Line
	9350 4150 9350 4250
Wire Wire Line
	8850 3700 8950 3700
$Comp
L R Rj7
U 1 1 5923D41B
P 6500 4000
F 0 "Rj7" V 6580 4000 50  0000 C CNN
F 1 "4.7k" V 6500 4000 50  0000 C CNN
F 2 "Resistors_THT:R_Axial_DIN0204_L3.6mm_D1.6mm_P2.54mm_Vertical" V 6430 4000 50  0001 C CNN
F 3 "" H 6500 4000 50  0000 C CNN
	1    6500 4000
	1    0    0    -1  
$EndComp
$Comp
L C Cj1
U 1 1 5923D4D5
P 6800 4000
F 0 "Cj1" H 6825 4100 50  0000 L CNN
F 1 "0.01u" H 6825 3900 50  0000 L CNN
F 2 "Capacitors_THT:C_Rect_L7.0mm_W2.5mm_P5.00mm" H 6838 3850 50  0001 C CNN
F 3 "" H 6800 4000 50  0000 C CNN
	1    6800 4000
	1    0    0    -1  
$EndComp
$Comp
L GND #PWR061
U 1 1 5923D608
P 6650 4300
F 0 "#PWR061" H 6650 4050 50  0001 C CNN
F 1 "GND" H 6650 4150 50  0000 C CNN
F 2 "" H 6650 4300 50  0000 C CNN
F 3 "" H 6650 4300 50  0000 C CNN
	1    6650 4300
	1    0    0    -1  
$EndComp
Wire Wire Line
	6500 4150 6800 4150
Wire Wire Line
	6650 4150 6650 4300
Connection ~ 6650 4150
Wire Wire Line
	5850 3650 6950 3650
Wire Wire Line
	6800 3850 6800 3650
Connection ~ 6800 3650
Wire Wire Line
	6500 3850 6500 3650
Connection ~ 6500 3650
Text HLabel 9950 3700 2    60   Output ~ 0
outAudio
Connection ~ 9700 3700
$Sheet
S 4400 3300 1450 700 
U 593199F2
F0 "vca2" 60
F1 "vca2.sch" 60
F2 "outputvca1" O R 5850 3650 60 
F3 "diodeBIAS1" I L 4400 3650 60 
F4 "in_A_Vca1" I L 4400 3550 60 
F5 "in_B_Vca1" I L 4400 3750 60 
F6 "in_amp_BIAS_vca1" I R 5850 3750 60 
F7 "Iref" O R 5850 3400 60 
$EndSheet
Connection ~ 5950 3750
Wire Wire Line
	5850 3750 6200 3750
$Comp
L Q_NPN_EBC Q1
U 1 1 59317FF4
P 7350 3000
F 0 "Q1" H 7550 3050 50  0000 L CNN
F 1 "Q_NPN_EBC" H 7550 2950 50  0000 L CNN
F 2 "TO_SOT_Packages_THT:TO-92_Inline_Wide" H 7550 3100 50  0001 C CNN
F 3 "" H 7350 3000 50  0000 C CNN
	1    7350 3000
	1    0    0    -1  
$EndComp
$Comp
L Q_NPN_EBC Q2
U 1 1 593180A4
P 7900 3400
F 0 "Q2" H 8100 3450 50  0000 L CNN
F 1 "Q_NPN_EBC" H 8100 3350 50  0000 L CNN
F 2 "TO_SOT_Packages_THT:TO-92_Inline_Wide" H 8100 3500 50  0001 C CNN
F 3 "" H 7900 3400 50  0000 C CNN
	1    7900 3400
	1    0    0    -1  
$EndComp
$Comp
L VCC #PWR062
U 1 1 5931878E
P 8000 2600
F 0 "#PWR062" H 8000 2450 50  0001 C CNN
F 1 "VCC" H 8000 2750 50  0000 C CNN
F 2 "" H 8000 2600 50  0000 C CNN
F 3 "" H 8000 2600 50  0000 C CNN
	1    8000 2600
	1    0    0    -1  
$EndComp
Wire Wire Line
	8000 2600 8000 3200
Wire Wire Line
	7450 2800 7450 2700
Wire Wire Line
	7450 2700 8000 2700
Connection ~ 8000 2700
Wire Wire Line
	5850 3400 7700 3400
Wire Wire Line
	7450 3400 7450 3200
Connection ~ 7450 3400
Wire Wire Line
	7150 3000 6950 3000
Wire Wire Line
	6950 3000 6950 3650
Wire Wire Line
	8000 3600 8000 3700
$EndSCHEMATC
