Info: Reading netlist file "/home/johnny/proyectos/theremin/pcb/theremind_discrete/theremind.net".

Info: Using references to match components and footprints.

Info: Checking netlist component footprint "AE1:/59165711:Connectors:1pin".

Adding new component "AE1:/59165711" footprint "Connectors:1pin".

Changing component "AE1:/59165711" pin "1" net name from "" to "/circuito antena de tono/AntennaTono".

Info: Checking netlist component footprint "AE2:/592397BF:Connectors:1pin".

Adding new component "AE2:/592397BF" footprint "Connectors:1pin".

Changing component "AE2:/592397BF" pin "1" net name from "" to "/circuito antena volumen/inAnt".

Info: Checking netlist component footprint "Cb1:/59165535/59165E0D:Capacitors_THT:C_Rect_L4.6mm_W2.0mm_P2.50mm_MKS02_FKP02".

Adding new component "Cb1:/59165535/59165E0D" footprint "Capacitors_THT:C_Rect_L4.6mm_W2.0mm_P2.50mm_MKS02_FKP02".

Changing component "Cb1:/59165535/59165E0D" pin "1" net name from "" to "VCC".

Changing component "Cb1:/59165535/59165E0D" pin "2" net name from "" to "/OsciladordeTonoVariable/Antenna".

Info: Checking netlist component footprint "Cb2:/59165535/591685FB:Capacitors_THT:C_Rect_L7.0mm_W2.5mm_P5.00mm".

Adding new component "Cb2:/59165535/591685FB" footprint "Capacitors_THT:C_Rect_L7.0mm_W2.5mm_P5.00mm".

Changing component "Cb2:/59165535/591685FB" pin "1" net name from "" to "Net-(Cb2-Pad1)".

Changing component "Cb2:/59165535/591685FB" pin "2" net name from "" to "/OsciladordeTonoVariable/Antenna".

Info: Checking netlist component footprint "Cb3:/59165535/59168215:Capacitors_THT:C_Rect_L4.6mm_W2.0mm_P2.50mm_MKS02_FKP02".

Adding new component "Cb3:/59165535/59168215" footprint "Capacitors_THT:C_Rect_L4.6mm_W2.0mm_P2.50mm_MKS02_FKP02".

Changing component "Cb3:/59165535/59168215" pin "1" net name from "" to "VCC".

Changing component "Cb3:/59165535/59168215" pin "2" net name from "" to "GND".

Info: Checking netlist component footprint "Cc1:/591A0EBA/5922B960:Capacitors_THT:C_Rect_L4.6mm_W2.0mm_P2.50mm_MKS02_FKP02".

Adding new component "Cc1:/591A0EBA/5922B960" footprint "Capacitors_THT:C_Rect_L4.6mm_W2.0mm_P2.50mm_MKS02_FKP02".

Changing component "Cc1:/591A0EBA/5922B960" pin "1" net name from "" to "VCC".

Changing component "Cc1:/591A0EBA/5922B960" pin "2" net name from "" to "otf1".

Info: Checking netlist component footprint "Cc2:/591A0EBA/5922B966:Capacitors_THT:C_Rect_L7.0mm_W2.5mm_P5.00mm".

Adding new component "Cc2:/591A0EBA/5922B966" footprint "Capacitors_THT:C_Rect_L7.0mm_W2.5mm_P5.00mm".

Changing component "Cc2:/591A0EBA/5922B966" pin "1" net name from "" to "Net-(Cc2-Pad1)".

Changing component "Cc2:/591A0EBA/5922B966" pin "2" net name from "" to "otf1".

Info: Checking netlist component footprint "Cc3:/591A0EBA/59231869:Capacitors_THT:C_Rect_L4.6mm_W2.0mm_P2.50mm_MKS02_FKP02".

Adding new component "Cc3:/591A0EBA/59231869" footprint "Capacitors_THT:C_Rect_L4.6mm_W2.0mm_P2.50mm_MKS02_FKP02".

Changing component "Cc3:/591A0EBA/59231869" pin "1" net name from "" to "VCC".

Changing component "Cc3:/591A0EBA/59231869" pin "2" net name from "" to "GND".

Info: Checking netlist component footprint "Cc4:/591A0EBA/59231EE9:Capacitors_THT:C_Rect_L4.6mm_W2.0mm_P2.50mm_MKS02_FKP02".

Adding new component "Cc4:/591A0EBA/59231EE9" footprint "Capacitors_THT:C_Rect_L4.6mm_W2.0mm_P2.50mm_MKS02_FKP02".

Changing component "Cc4:/591A0EBA/59231EE9" pin "1" net name from "" to "GND".

Changing component "Cc4:/591A0EBA/59231EE9" pin "2" net name from "" to "Net-(Cc4-Pad2)".

Info: Checking netlist component footprint "Cc5:/591A0EBA/5923245D:Capacitors_THT:C_Rect_L4.6mm_W2.0mm_P2.50mm_MKS02_FKP02".

Adding new component "Cc5:/591A0EBA/5923245D" footprint "Capacitors_THT:C_Rect_L4.6mm_W2.0mm_P2.50mm_MKS02_FKP02".

Changing component "Cc5:/591A0EBA/5923245D" pin "1" net name from "" to "Net-(Cc5-Pad1)".

Changing component "Cc5:/591A0EBA/5923245D" pin "2" net name from "" to "Net-(Cc4-Pad2)".

Info: Checking netlist component footprint "Cc6:/591A0EBA/5922B970:Capacitors_THT:C_Rect_L4.6mm_W2.0mm_P2.50mm_MKS02_FKP02".

Adding new component "Cc6:/591A0EBA/5922B970" footprint "Capacitors_THT:C_Rect_L4.6mm_W2.0mm_P2.50mm_MKS02_FKP02".

Changing component "Cc6:/591A0EBA/5922B970" pin "1" net name from "" to "otf1".

Changing component "Cc6:/591A0EBA/5922B970" pin "2" net name from "" to "Net-(Cc6-Pad2)".

Info: Checking netlist component footprint "Cd1:/592382A2/592384E6:Capacitors_THT:C_Rect_L4.6mm_W2.0mm_P2.50mm_MKS02_FKP02".

Adding new component "Cd1:/592382A2/592384E6" footprint "Capacitors_THT:C_Rect_L4.6mm_W2.0mm_P2.50mm_MKS02_FKP02".

Changing component "Cd1:/592382A2/592384E6" pin "1" net name from "" to "Net-(Cd1-Pad1)".

Changing component "Cd1:/592382A2/592384E6" pin "2" net name from "" to "/circuito antena volumen/inOV".

Info: Checking netlist component footprint "Ce1:/591A8A76/591A0F28:Capacitors_THT:C_Rect_L4.6mm_W2.0mm_P2.50mm_MKS02_FKP02".

Adding new component "Ce1:/591A8A76/591A0F28" footprint "Capacitors_THT:C_Rect_L4.6mm_W2.0mm_P2.50mm_MKS02_FKP02".

Changing component "Ce1:/591A8A76/591A0F28" pin "1" net name from "" to "VCC".

Changing component "Ce1:/591A8A76/591A0F28" pin "2" net name from "" to "GND".

Info: Checking netlist component footprint "Ce2:/591A8A76/591A1CAA:Capacitors_THT:C_Rect_L4.6mm_W2.0mm_P2.50mm_MKS02_FKP02".

Adding new component "Ce2:/591A8A76/591A1CAA" footprint "Capacitors_THT:C_Rect_L4.6mm_W2.0mm_P2.50mm_MKS02_FKP02".

Changing component "Ce2:/591A8A76/591A1CAA" pin "1" net name from "" to "/circuito antena volumen/inOV".

Changing component "Ce2:/591A8A76/591A1CAA" pin "2" net name from "" to "ov1".

Info: Checking netlist component footprint "Ce3:/591A8A76/591A9773:Capacitors_THT:C_Rect_L4.6mm_W2.0mm_P2.50mm_MKS02_FKP02".

Adding new component "Ce3:/591A8A76/591A9773" footprint "Capacitors_THT:C_Rect_L4.6mm_W2.0mm_P2.50mm_MKS02_FKP02".

Changing component "Ce3:/591A8A76/591A9773" pin "1" net name from "" to "/circuito antena volumen/inOV".

Changing component "Ce3:/591A8A76/591A9773" pin "2" net name from "" to "GND".

Info: Checking netlist component footprint "Ce4:/591A8A76/59237946:Capacitors_THT:C_Rect_L4.6mm_W2.0mm_P2.50mm_MKS02_FKP02".

Adding new component "Ce4:/591A8A76/59237946" footprint "Capacitors_THT:C_Rect_L4.6mm_W2.0mm_P2.50mm_MKS02_FKP02".

Changing component "Ce4:/591A8A76/59237946" pin "1" net name from "" to "GND".

Changing component "Ce4:/591A8A76/59237946" pin "2" net name from "" to "Net-(Ce4-Pad2)".

Info: Checking netlist component footprint "Ce5:/591A8A76/592372C6:Capacitors_THT:C_Rect_L4.6mm_W2.0mm_P2.50mm_MKS02_FKP02".

Adding new component "Ce5:/591A8A76/592372C6" footprint "Capacitors_THT:C_Rect_L4.6mm_W2.0mm_P2.50mm_MKS02_FKP02".

Changing component "Ce5:/591A8A76/592372C6" pin "1" net name from "" to "Net-(Ce5-Pad1)".

Changing component "Ce5:/591A8A76/592372C6" pin "2" net name from "" to "Net-(Ce4-Pad2)".

Info: Checking netlist component footprint "Ce6:/591A8A76/591A45AC:Capacitors_THT:C_Rect_L4.6mm_W2.0mm_P2.50mm_MKS02_FKP02".

Adding new component "Ce6:/591A8A76/591A45AC" footprint "Capacitors_THT:C_Rect_L4.6mm_W2.0mm_P2.50mm_MKS02_FKP02".

Changing component "Ce6:/591A8A76/591A45AC" pin "1" net name from "" to "ov1".

Changing component "Ce6:/591A8A76/591A45AC" pin "2" net name from "" to "Net-(Ce6-Pad2)".

Info: Checking netlist component footprint "Cf1:/59236253/592409F3:Capacitors_THT:C_Rect_L4.6mm_W2.0mm_P2.50mm_MKS02_FKP02".

Adding new component "Cf1:/59236253/592409F3" footprint "Capacitors_THT:C_Rect_L4.6mm_W2.0mm_P2.50mm_MKS02_FKP02".

Changing component "Cf1:/59236253/592409F3" pin "1" net name from "" to "GND".

Changing component "Cf1:/59236253/592409F3" pin "2" net name from "" to "/volumenVCA/inVolAnt".

Info: Checking netlist component footprint "Cg1:/59239C32/59239D21:Capacitors_THT:CP_Radial_D12.5mm_P5.00mm".

Adding new component "Cg1:/59239C32/59239D21" footprint "Capacitors_THT:CP_Radial_D12.5mm_P5.00mm".

Changing component "Cg1:/59239C32/59239D21" pin "1" net name from "" to "Net-(Cg1-Pad1)".

Changing component "Cg1:/59239C32/59239D21" pin "2" net name from "" to "GND".

Info: Checking netlist component footprint "Cg2:/59239C32/59239D51:Capacitors_THT:CP_Radial_D12.5mm_P5.00mm".

Adding new component "Cg2:/59239C32/59239D51" footprint "Capacitors_THT:CP_Radial_D12.5mm_P5.00mm".

Changing component "Cg2:/59239C32/59239D51" pin "1" net name from "" to "GND".

Changing component "Cg2:/59239C32/59239D51" pin "2" net name from "" to "Net-(Cg2-Pad2)".

Info: Checking netlist component footprint "Cg3:/59239C32/59239ED9:Capacitors_THT:C_Rect_L4.6mm_W2.0mm_P2.50mm_MKS02_FKP02".

Adding new component "Cg3:/59239C32/59239ED9" footprint "Capacitors_THT:C_Rect_L4.6mm_W2.0mm_P2.50mm_MKS02_FKP02".

Changing component "Cg3:/59239C32/59239ED9" pin "1" net name from "" to "VCC".

Changing component "Cg3:/59239C32/59239ED9" pin "2" net name from "" to "GND".

Info: Checking netlist component footprint "Cg4:/59239C32/59239F0D:Capacitors_THT:C_Rect_L4.6mm_W2.0mm_P2.50mm_MKS02_FKP02".

Adding new component "Cg4:/59239C32/59239F0D" footprint "Capacitors_THT:C_Rect_L4.6mm_W2.0mm_P2.50mm_MKS02_FKP02".

Changing component "Cg4:/59239C32/59239F0D" pin "1" net name from "" to "GND".

Changing component "Cg4:/59239C32/59239F0D" pin "2" net name from "" to "VEE".

Info: Checking netlist component footprint "Ch1:/591A0DBD/59233B7F:Capacitors_THT:C_Rect_L4.6mm_W2.0mm_P2.50mm_MKS02_FKP02".

Adding new component "Ch1:/591A0DBD/59233B7F" footprint "Capacitors_THT:C_Rect_L4.6mm_W2.0mm_P2.50mm_MKS02_FKP02".

Changing component "Ch1:/591A0DBD/59233B7F" pin "1" net name from "" to "Net-(Ch1-Pad1)".

Changing component "Ch1:/591A0DBD/59233B7F" pin "2" net name from "" to "otf1".

Info: Checking netlist component footprint "Ch2:/591A0DBD/59233B24:Capacitors_THT:C_Rect_L4.6mm_W2.0mm_P2.50mm_MKS02_FKP02".

Adding new component "Ch2:/591A0DBD/59233B24" footprint "Capacitors_THT:C_Rect_L4.6mm_W2.0mm_P2.50mm_MKS02_FKP02".

Changing component "Ch2:/591A0DBD/59233B24" pin "1" net name from "" to "Net-(Ch1-Pad1)".

Changing component "Ch2:/591A0DBD/59233B24" pin "2" net name from "" to "/OsciladordeTonoVariable/Antenna".

Info: Checking netlist component footprint "Ch3:/591A0DBD/59233944:Capacitors_THT:C_Rect_L4.6mm_W2.0mm_P2.50mm_MKS02_FKP02".

Adding new component "Ch3:/591A0DBD/59233944" footprint "Capacitors_THT:C_Rect_L4.6mm_W2.0mm_P2.50mm_MKS02_FKP02".

Changing component "Ch3:/591A0DBD/59233944" pin "1" net name from "" to "onda".

Changing component "Ch3:/591A0DBD/59233944" pin "2" net name from "" to "GND".

Info: Checking netlist component footprint "Cj1:/5923A982/5923D4D5:Capacitors_THT:C_Rect_L7.0mm_W2.5mm_P5.00mm".

Adding new component "Cj1:/5923A982/5923D4D5" footprint "Capacitors_THT:C_Rect_L7.0mm_W2.5mm_P5.00mm".

Changing component "Cj1:/5923A982/5923D4D5" pin "1" net name from "" to "/amplificador controlado por voltaje/vca2/outputvca1".

Changing component "Cj1:/5923A982/5923D4D5" pin "2" net name from "" to "GND".

Info: Checking netlist component footprint "Cj2:/5923A982/5923CB4D:Capacitors_THT:C_Rect_L4.6mm_W2.0mm_P2.50mm_MKS02_FKP02".

Adding new component "Cj2:/5923A982/5923CB4D" footprint "Capacitors_THT:C_Rect_L4.6mm_W2.0mm_P2.50mm_MKS02_FKP02".

Changing component "Cj2:/5923A982/5923CB4D" pin "1" net name from "" to "Net-(Cj2-Pad1)".

Changing component "Cj2:/5923A982/5923CB4D" pin "2" net name from "" to "Net-(Cj2-Pad2)".

Info: Checking netlist component footprint "Cj3:/5923A982/5923CD88:Capacitors_THT:C_Rect_L7.0mm_W2.5mm_P5.00mm".

Adding new component "Cj3:/5923A982/5923CD88" footprint "Capacitors_THT:C_Rect_L7.0mm_W2.5mm_P5.00mm".

Changing component "Cj3:/5923A982/5923CD88" pin "1" net name from "" to "/control Fontral/InAudio".

Changing component "Cj3:/5923A982/5923CD88" pin "2" net name from "" to "GND".

Info: Checking netlist component footprint "Dd1:/592382A2/5923848C:Diodes_THT:D_A-405_P2.54mm_Vertical_KathodeUp".

Adding new component "Dd1:/592382A2/5923848C" footprint "Diodes_THT:D_A-405_P2.54mm_Vertical_KathodeUp".

Changing component "Dd1:/592382A2/5923848C" pin "1" net name from "" to "Net-(Dd1-Pad1)".

Changing component "Dd1:/592382A2/5923848C" pin "2" net name from "" to "Net-(Cd1-Pad1)".

Info: Checking netlist component footprint "Df1:/59236253/5923D781:Diodes_THT:D_A-405_P2.54mm_Vertical_KathodeUp".

Adding new component "Df1:/59236253/5923D781" footprint "Diodes_THT:D_A-405_P2.54mm_Vertical_KathodeUp".

Changing component "Df1:/59236253/5923D781" pin "1" net name from "" to "volAmp".

Changing component "Df1:/59236253/5923D781" pin "2" net name from "" to "Net-(Df1-Pad2)".

Info: Checking netlist component footprint "Dg1:/59239C32/59239DA8:Diodes_THT:D_A-405_P2.54mm_Vertical_KathodeUp".

Adding new component "Dg1:/59239C32/59239DA8" footprint "Diodes_THT:D_A-405_P2.54mm_Vertical_KathodeUp".

Changing component "Dg1:/59239C32/59239DA8" pin "1" net name from "" to "Net-(Cg1-Pad1)".

Changing component "Dg1:/59239C32/59239DA8" pin "2" net name from "" to "Net-(Dg1-Pad2)".

Info: Checking netlist component footprint "Dg2:/59239C32/59239DD6:Diodes_THT:D_A-405_P2.54mm_Vertical_KathodeUp".

Adding new component "Dg2:/59239C32/59239DD6" footprint "Diodes_THT:D_A-405_P2.54mm_Vertical_KathodeUp".

Changing component "Dg2:/59239C32/59239DD6" pin "1" net name from "" to "Net-(Dg1-Pad2)".

Changing component "Dg2:/59239C32/59239DD6" pin "2" net name from "" to "Net-(Cg2-Pad2)".

Info: Checking netlist component footprint "Dg3:/59239C32/59317B8A:LEDs:LED-5MM".

Adding new component "Dg3:/59239C32/59317B8A" footprint "LEDs:LED-5MM".

Changing component "Dg3:/59239C32/59317B8A" pin "1" net name from "" to "GND".

Changing component "Dg3:/59239C32/59317B8A" pin "2" net name from "" to "Net-(Dg3-Pad2)".

Info: Checking netlist component footprint "Dh1:/591A0DBD/592338B3:Diodes_THT:D_A-405_P2.54mm_Vertical_KathodeUp".

Adding new component "Dh1:/591A0DBD/592338B3" footprint "Diodes_THT:D_A-405_P2.54mm_Vertical_KathodeUp".

Changing component "Dh1:/591A0DBD/592338B3" pin "1" net name from "" to "GND".

Changing component "Dh1:/591A0DBD/592338B3" pin "2" net name from "" to "Net-(Ch1-Pad1)".

Info: Checking netlist component footprint "Fg1:/59239C32/5922D6FC:Fuse_Holders_and_Fuses:Fuseholder5x20_horiz_open_inline_Type-I".

Adding new component "Fg1:/59239C32/5922D6FC" footprint "Fuse_Holders_and_Fuses:Fuseholder5x20_horiz_open_inline_Type-I".

Changing component "Fg1:/59239C32/5922D6FC" pin "2" net name from "" to "Net-(Fg1-Pad2)".

Changing component "Fg1:/59239C32/5922D6FC" pin "2" net name from "" to "Net-(Fg1-Pad2)".

Changing component "Fg1:/59239C32/5922D6FC" pin "1" net name from "" to "Net-(Fg1-Pad1)".

Changing component "Fg1:/59239C32/5922D6FC" pin "1" net name from "" to "Net-(Fg1-Pad1)".

Info: Checking netlist component footprint "Ji1:/5922E11D/5922FFF9:Pin_Headers:Pin_Header_Straight_1x03".

Adding new component "Ji1:/5922E11D/5922FFF9" footprint "Pin_Headers:Pin_Header_Straight_1x03".

Changing component "Ji1:/5922E11D/5922FFF9" pin "1" net name from "" to "GND".

Changing component "Ji1:/5922E11D/5922FFF9" pin "2" net name from "" to "Net-(Ji1-Pad2)".

Changing component "Ji1:/5922E11D/5922FFF9" pin "3" net name from "" to "/control Fontral/InAudio".

Info: Checking netlist component footprint "L3:/591A0EBA/591A0F01:Inductors:INDUCTOR_V".

Adding new component "L3:/591A0EBA/591A0F01" footprint "Inductors:INDUCTOR_V".

Changing component "L3:/591A0EBA/591A0F01" pin "1" net name from "" to "VCC".

Changing component "L3:/591A0EBA/591A0F01" pin "2" net name from "" to "otf1".

Info: Checking netlist component footprint "La1:/59164CE8/59164F72:Inductors:INDUCTOR_V".

Adding new component "La1:/59164CE8/59164F72" footprint "Inductors:INDUCTOR_V".

Changing component "La1:/59164CE8/59164F72" pin "1" net name from "" to "Net-(La1-Pad1)".

Changing component "La1:/59164CE8/59164F72" pin "2" net name from "" to "/circuito antena de tono/AntennaTono".

Info: Checking netlist component footprint "La2:/59164CE8/59243474:Inductors:INDUCTOR_V".

Adding new component "La2:/59164CE8/59243474" footprint "Inductors:INDUCTOR_V".

Changing component "La2:/59164CE8/59243474" pin "1" net name from "" to "Net-(La2-Pad1)".

Changing component "La2:/59164CE8/59243474" pin "2" net name from "" to "Net-(La1-Pad1)".

Info: Checking netlist component footprint "La3:/59164CE8/592434A6:Inductors:INDUCTOR_V".

Adding new component "La3:/59164CE8/592434A6" footprint "Inductors:INDUCTOR_V".

Changing component "La3:/59164CE8/592434A6" pin "1" net name from "" to "Net-(La3-Pad1)".

Changing component "La3:/59164CE8/592434A6" pin "2" net name from "" to "Net-(La2-Pad1)".

Info: Checking netlist component footprint "La4:/59164CE8/592434DC:Inductors:INDUCTOR_V".

Adding new component "La4:/59164CE8/592434DC" footprint "Inductors:INDUCTOR_V".

Changing component "La4:/59164CE8/592434DC" pin "1" net name from "" to "/OsciladordeTonoVariable/Antenna".

Changing component "La4:/59164CE8/592434DC" pin "2" net name from "" to "Net-(La3-Pad1)".

Info: Checking netlist component footprint "Lb1:/59165535/59165EA4:Inductors:INDUCTOR_V".

Adding new component "Lb1:/59165535/59165EA4" footprint "Inductors:INDUCTOR_V".

Changing component "Lb1:/59165535/59165EA4" pin "1" net name from "" to "VCC".

Changing component "Lb1:/59165535/59165EA4" pin "2" net name from "" to "/OsciladordeTonoVariable/Antenna".

Info: Checking netlist component footprint "Ld1:/592382A2/592383BF:Inductors:INDUCTOR_V".

Adding new component "Ld1:/592382A2/592383BF" footprint "Inductors:INDUCTOR_V".

Changing component "Ld1:/592382A2/592383BF" pin "1" net name from "" to "Net-(Dd1-Pad1)".

Changing component "Ld1:/592382A2/592383BF" pin "2" net name from "" to "/circuito antena volumen/inOV".

Info: Checking netlist component footprint "Ld2:/592382A2/592383FB:Inductors:INDUCTOR_V".

Adding new component "Ld2:/592382A2/592383FB" footprint "Inductors:INDUCTOR_V".

Changing component "Ld2:/592382A2/592383FB" pin "1" net name from "" to "Net-(Ld2-Pad1)".

Changing component "Ld2:/592382A2/592383FB" pin "2" net name from "" to "Net-(Dd1-Pad1)".

Info: Checking netlist component footprint "Ld3:/592382A2/59238418:Inductors:INDUCTOR_V".

Adding new component "Ld3:/592382A2/59238418" footprint "Inductors:INDUCTOR_V".

Changing component "Ld3:/592382A2/59238418" pin "1" net name from "" to "Net-(Ld3-Pad1)".

Changing component "Ld3:/592382A2/59238418" pin "2" net name from "" to "Net-(Ld2-Pad1)".

Info: Checking netlist component footprint "Ld4:/592382A2/5923843A:Inductors:INDUCTOR_V".

Adding new component "Ld4:/592382A2/5923843A" footprint "Inductors:INDUCTOR_V".

Changing component "Ld4:/592382A2/5923843A" pin "1" net name from "" to "/circuito antena volumen/inAnt".

Changing component "Ld4:/592382A2/5923843A" pin "2" net name from "" to "Net-(Ld3-Pad1)".

Info: Checking netlist component footprint "Le1:/591A8A76/5922B95F:Inductors:INDUCTOR_V".

Adding new component "Le1:/591A8A76/5922B95F" footprint "Inductors:INDUCTOR_V".

Changing component "Le1:/591A8A76/5922B95F" pin "1" net name from "" to "VCC".

Changing component "Le1:/591A8A76/5922B95F" pin "2" net name from "" to "ov1".

Info: Checking netlist component footprint "P1:/59239C32/59320149:Pin_Headers:Pin_Header_Straight_1x03".

Adding new component "P1:/59239C32/59320149" footprint "Pin_Headers:Pin_Header_Straight_1x03".

Changing component "P1:/59239C32/59320149" pin "1" net name from "" to "VEE".

Changing component "P1:/59239C32/59320149" pin "2" net name from "" to "GND".

Changing component "P1:/59239C32/59320149" pin "3" net name from "" to "VCC".

Info: Checking netlist component footprint "Pg1:/59239C32/5922DAB3:Connectors:bornier2".

Adding new component "Pg1:/59239C32/5922DAB3" footprint "Connectors:bornier2".

Changing component "Pg1:/59239C32/5922DAB3" pin "1" net name from "" to "GND".

Changing component "Pg1:/59239C32/5922DAB3" pin "2" net name from "" to "Net-(Fg1-Pad2)".

Info: Checking netlist component footprint "Pi1:/5922E11D/5924D04B:Pin_Headers:Pin_Header_Straight_1x02".

Adding new component "Pi1:/5922E11D/5924D04B" footprint "Pin_Headers:Pin_Header_Straight_1x02".

Changing component "Pi1:/5922E11D/5924D04B" pin "1" net name from "" to "/control Fontral/InAudio".

Changing component "Pi1:/5922E11D/5924D04B" pin "2" net name from "" to "Net-(Ji1-Pad2)".

Info: Checking netlist component footprint "Q1:/5923A982/59317FF4:TO_SOT_Packages_THT:TO-92_Inline_Wide".

Adding new component "Q1:/5923A982/59317FF4" footprint "TO_SOT_Packages_THT:TO-92_Inline_Wide".

Changing component "Q1:/5923A982/59317FF4" pin "2" net name from "" to "/amplificador controlado por voltaje/vca2/outputvca1".

Changing component "Q1:/5923A982/59317FF4" pin "3" net name from "" to "VCC".

Changing component "Q1:/5923A982/59317FF4" pin "1" net name from "" to "/amplificador controlado por voltaje/vca2/Iref".

Info: Checking netlist component footprint "Q2:/5923A982/593180A4:TO_SOT_Packages_THT:TO-92_Inline_Wide".

Adding new component "Q2:/5923A982/593180A4" footprint "TO_SOT_Packages_THT:TO-92_Inline_Wide".

Changing component "Q2:/5923A982/593180A4" pin "2" net name from "" to "/amplificador controlado por voltaje/vca2/Iref".

Changing component "Q2:/5923A982/593180A4" pin "3" net name from "" to "VCC".

Changing component "Q2:/5923A982/593180A4" pin "1" net name from "" to "Net-(Cj2-Pad2)".

Info: Checking netlist component footprint "Q3:/5923A982/593199F2/5931685A:TO_SOT_Packages_THT:TO-92_Inline_Wide".

Adding new component "Q3:/5923A982/593199F2/5931685A" footprint "TO_SOT_Packages_THT:TO-92_Inline_Wide".

Changing component "Q3:/5923A982/593199F2/5931685A" pin "2" net name from "" to "Net-(Q3-Pad2)".

Changing component "Q3:/5923A982/593199F2/5931685A" pin "3" net name from "" to "Net-(Q3-Pad3)".

Changing component "Q3:/5923A982/593199F2/5931685A" pin "1" net name from "" to "VCC".

Info: Checking netlist component footprint "Q4:/5923A982/593199F2/593178F8:TO_SOT_Packages_THT:TO-92_Inline_Wide".

Adding new component "Q4:/5923A982/593199F2/593178F8" footprint "TO_SOT_Packages_THT:TO-92_Inline_Wide".

Changing component "Q4:/5923A982/593199F2/593178F8" pin "2" net name from "" to "Net-(Q3-Pad2)".

Changing component "Q4:/5923A982/593199F2/593178F8" pin "3" net name from "" to "Net-(Q3-Pad2)".

Changing component "Q4:/5923A982/593199F2/593178F8" pin "1" net name from "" to "VCC".

Info: Checking netlist component footprint "Q5:/5923A982/593199F2/5931A0C5:TO_SOT_Packages_THT:TO-92_Inline_Wide".

Adding new component "Q5:/5923A982/593199F2/5931A0C5" footprint "TO_SOT_Packages_THT:TO-92_Inline_Wide".

Changing component "Q5:/5923A982/593199F2/5931A0C5" pin "2" net name from "" to "Net-(Q5-Pad2)".

Changing component "Q5:/5923A982/593199F2/5931A0C5" pin "3" net name from "" to "Net-(Q5-Pad3)".

Changing component "Q5:/5923A982/593199F2/5931A0C5" pin "1" net name from "" to "VCC".

Info: Checking netlist component footprint "Q6:/5923A982/593199F2/59319FBC:TO_SOT_Packages_THT:TO-92_Inline_Wide".

Adding new component "Q6:/5923A982/593199F2/59319FBC" footprint "TO_SOT_Packages_THT:TO-92_Inline_Wide".

Changing component "Q6:/5923A982/593199F2/59319FBC" pin "2" net name from "" to "Net-(Q5-Pad2)".

Changing component "Q6:/5923A982/593199F2/59319FBC" pin "3" net name from "" to "Net-(Q5-Pad2)".

Changing component "Q6:/5923A982/593199F2/59319FBC" pin "1" net name from "" to "VCC".

Info: Checking netlist component footprint "Q7:/5923A982/593199F2/5931A248:TO_SOT_Packages_THT:TO-92_Inline_Wide".

Adding new component "Q7:/5923A982/593199F2/5931A248" footprint "TO_SOT_Packages_THT:TO-92_Inline_Wide".

Changing component "Q7:/5923A982/593199F2/5931A248" pin "2" net name from "" to "Net-(Q5-Pad3)".

Changing component "Q7:/5923A982/593199F2/5931A248" pin "3" net name from "" to "Net-(Q7-Pad3)".

Changing component "Q7:/5923A982/593199F2/5931A248" pin "1" net name from "" to "Net-(Q5-Pad2)".

Info: Checking netlist component footprint "Q8:/5923A982/593199F2/5931A345:TO_SOT_Packages_THT:TO-92_Inline_Wide".

Adding new component "Q8:/5923A982/593199F2/5931A345" footprint "TO_SOT_Packages_THT:TO-92_Inline_Wide".

Changing component "Q8:/5923A982/593199F2/5931A345" pin "2" net name from "" to "Net-(Q3-Pad3)".

Changing component "Q8:/5923A982/593199F2/5931A345" pin "3" net name from "" to "/amplificador controlado por voltaje/vca2/outputvca1".

Changing component "Q8:/5923A982/593199F2/5931A345" pin "1" net name from "" to "Net-(Q3-Pad2)".

Info: Checking netlist component footprint "Q9:/59236253/59232A08/5931D127:TO_SOT_Packages_THT:TO-92_Inline_Wide".

Adding new component "Q9:/59236253/59232A08/5931D127" footprint "TO_SOT_Packages_THT:TO-92_Inline_Wide".

Changing component "Q9:/59236253/59232A08/5931D127" pin "2" net name from "" to "Net-(Q10-Pad2)".

Changing component "Q9:/59236253/59232A08/5931D127" pin "3" net name from "" to "Net-(Q11-Pad2)".

Changing component "Q9:/59236253/59232A08/5931D127" pin "1" net name from "" to "VCC".

Info: Checking netlist component footprint "Q10:/59236253/59232A08/5931D233:TO_SOT_Packages_THT:TO-92_Inline_Wide".

Adding new component "Q10:/59236253/59232A08/5931D233" footprint "TO_SOT_Packages_THT:TO-92_Inline_Wide".

Changing component "Q10:/59236253/59232A08/5931D233" pin "2" net name from "" to "Net-(Q10-Pad2)".

Changing component "Q10:/59236253/59232A08/5931D233" pin "3" net name from "" to "Net-(Q10-Pad2)".

Changing component "Q10:/59236253/59232A08/5931D233" pin "1" net name from "" to "VCC".

Info: Checking netlist component footprint "Q11:/59236253/59232A08/5931D086:TO_SOT_Packages_THT:TO-92_Inline_Wide".

Adding new component "Q11:/59236253/59232A08/5931D086" footprint "TO_SOT_Packages_THT:TO-92_Inline_Wide".

Changing component "Q11:/59236253/59232A08/5931D086" pin "2" net name from "" to "Net-(Q11-Pad2)".

Changing component "Q11:/59236253/59232A08/5931D086" pin "3" net name from "" to "Net-(Q11-Pad3)".

Changing component "Q11:/59236253/59232A08/5931D086" pin "1" net name from "" to "Net-(Q10-Pad2)".

Info: Checking netlist component footprint "Q12:/59236253/59232A08/5931D88C:TO_SOT_Packages_THT:TO-92_Inline_Wide".

Adding new component "Q12:/59236253/59232A08/5931D88C" footprint "TO_SOT_Packages_THT:TO-92_Inline_Wide".

Changing component "Q12:/59236253/59232A08/5931D88C" pin "2" net name from "" to "Net-(Q12-Pad2)".

Changing component "Q12:/59236253/59232A08/5931D88C" pin "3" net name from "" to "volAmp".

Changing component "Q12:/59236253/59232A08/5931D88C" pin "1" net name from "" to "Net-(Q12-Pad1)".

Info: Checking netlist component footprint "Q13:/59236253/59232A08/5931DC30:TO_SOT_Packages_THT:TO-92_Inline_Wide".

Adding new component "Q13:/59236253/59232A08/5931DC30" footprint "TO_SOT_Packages_THT:TO-92_Inline_Wide".

Changing component "Q13:/59236253/59232A08/5931DC30" pin "2" net name from "" to "Net-(Q12-Pad1)".

Changing component "Q13:/59236253/59232A08/5931DC30" pin "3" net name from "" to "Net-(Q12-Pad2)".

Changing component "Q13:/59236253/59232A08/5931DC30" pin "1" net name from "" to "VCC".

Info: Checking netlist component footprint "Q14:/59236253/59232A08/5931DB3A:TO_SOT_Packages_THT:TO-92_Inline_Wide".

Adding new component "Q14:/59236253/59232A08/5931DB3A" footprint "TO_SOT_Packages_THT:TO-92_Inline_Wide".

Changing component "Q14:/59236253/59232A08/5931DB3A" pin "2" net name from "" to "Net-(Q12-Pad1)".

Changing component "Q14:/59236253/59232A08/5931DB3A" pin "3" net name from "" to "Net-(Q12-Pad1)".

Changing component "Q14:/59236253/59232A08/5931DB3A" pin "1" net name from "" to "VCC".

Info: Checking netlist component footprint "Rb1:/59165535/59167E59:Resistors_THT:R_Axial_DIN0204_L3.6mm_D1.6mm_P2.54mm_Vertical".

Adding new component "Rb1:/59165535/59167E59" footprint "Resistors_THT:R_Axial_DIN0204_L3.6mm_D1.6mm_P2.54mm_Vertical".

Changing component "Rb1:/59165535/59167E59" pin "1" net name from "" to "Net-(Rb1-Pad1)".

Changing component "Rb1:/59165535/59167E59" pin "2" net name from "" to "GND".

Info: Checking netlist component footprint "Rb2:/59165535/5916786D:Resistors_THT:R_Axial_DIN0204_L3.6mm_D1.6mm_P2.54mm_Vertical".

Adding new component "Rb2:/59165535/5916786D" footprint "Resistors_THT:R_Axial_DIN0204_L3.6mm_D1.6mm_P2.54mm_Vertical".

Changing component "Rb2:/59165535/5916786D" pin "1" net name from "" to "Net-(Rb2-Pad1)".

Changing component "Rb2:/59165535/5916786D" pin "2" net name from "" to "VEE".

Info: Checking netlist component footprint "Rb3:/59165535/59167F86:Resistors_THT:R_Axial_DIN0204_L3.6mm_D1.6mm_P2.54mm_Vertical".

Adding new component "Rb3:/59165535/59167F86" footprint "Resistors_THT:R_Axial_DIN0204_L3.6mm_D1.6mm_P2.54mm_Vertical".

Changing component "Rb3:/59165535/59167F86" pin "1" net name from "" to "Net-(Rb3-Pad1)".

Changing component "Rb3:/59165535/59167F86" pin "2" net name from "" to "GND".

Info: Checking netlist component footprint "Rb4:/59165535/59167FFC:Resistors_THT:R_Axial_DIN0204_L3.6mm_D1.6mm_P2.54mm_Vertical".

Adding new component "Rb4:/59165535/59167FFC" footprint "Resistors_THT:R_Axial_DIN0204_L3.6mm_D1.6mm_P2.54mm_Vertical".

Changing component "Rb4:/59165535/59167FFC" pin "1" net name from "" to "Net-(Cb2-Pad1)".

Changing component "Rb4:/59165535/59167FFC" pin "2" net name from "" to "Net-(Rb3-Pad1)".

Info: Checking netlist component footprint "Rc1:/591A0EBA/591A1AF0:Resistors_THT:R_Axial_DIN0204_L3.6mm_D1.6mm_P2.54mm_Vertical".

Adding new component "Rc1:/591A0EBA/591A1AF0" footprint "Resistors_THT:R_Axial_DIN0204_L3.6mm_D1.6mm_P2.54mm_Vertical".

Changing component "Rc1:/591A0EBA/591A1AF0" pin "1" net name from "" to "Net-(Rc1-Pad1)".

Changing component "Rc1:/591A0EBA/591A1AF0" pin "2" net name from "" to "GND".

Info: Checking netlist component footprint "Rc2:/591A0EBA/5922B961:Resistors_THT:R_Axial_DIN0204_L3.6mm_D1.6mm_P2.54mm_Vertical".

Adding new component "Rc2:/591A0EBA/5922B961" footprint "Resistors_THT:R_Axial_DIN0204_L3.6mm_D1.6mm_P2.54mm_Vertical".

Changing component "Rc2:/591A0EBA/5922B961" pin "1" net name from "" to "Net-(Rc2-Pad1)".

Changing component "Rc2:/591A0EBA/5922B961" pin "2" net name from "" to "VEE".

Info: Checking netlist component footprint "Rc3:/591A0EBA/591A2130:Resistors_THT:R_Axial_DIN0204_L3.6mm_D1.6mm_P2.54mm_Vertical".

Adding new component "Rc3:/591A0EBA/591A2130" footprint "Resistors_THT:R_Axial_DIN0204_L3.6mm_D1.6mm_P2.54mm_Vertical".

Changing component "Rc3:/591A0EBA/591A2130" pin "1" net name from "" to "Net-(Cc2-Pad1)".

Changing component "Rc3:/591A0EBA/591A2130" pin "2" net name from "" to "Net-(Rc3-Pad2)".

Info: Checking netlist component footprint "Rc4:/591A0EBA/5922B967:Resistors_THT:R_Axial_DIN0204_L3.6mm_D1.6mm_P2.54mm_Vertical".

Adding new component "Rc4:/591A0EBA/5922B967" footprint "Resistors_THT:R_Axial_DIN0204_L3.6mm_D1.6mm_P2.54mm_Vertical".

Changing component "Rc4:/591A0EBA/5922B967" pin "1" net name from "" to "Net-(Rc3-Pad2)".

Changing component "Rc4:/591A0EBA/5922B967" pin "2" net name from "" to "GND".

Info: Checking netlist component footprint "Rc5:/591A0EBA/591A39A1:Resistors_THT:R_Axial_DIN0204_L3.6mm_D1.6mm_P2.54mm_Vertical".

Adding new component "Rc5:/591A0EBA/591A39A1" footprint "Resistors_THT:R_Axial_DIN0204_L3.6mm_D1.6mm_P2.54mm_Vertical".

Changing component "Rc5:/591A0EBA/591A39A1" pin "1" net name from "" to "Net-(Cc4-Pad2)".

Changing component "Rc5:/591A0EBA/591A39A1" pin "2" net name from "" to "VEE".

Info: Checking netlist component footprint "Rc6:/591A0EBA/591A39DE:Resistors_THT:R_Axial_DIN0204_L3.6mm_D1.6mm_P2.54mm_Vertical".

Adding new component "Rc6:/591A0EBA/591A39DE" footprint "Resistors_THT:R_Axial_DIN0204_L3.6mm_D1.6mm_P2.54mm_Vertical".

Changing component "Rc6:/591A0EBA/591A39DE" pin "1" net name from "" to "Net-(Cc4-Pad2)".

Changing component "Rc6:/591A0EBA/591A39DE" pin "2" net name from "" to "tono".

Info: Checking netlist component footprint "Rc7:/591A0EBA/5922B96F:Resistors_THT:R_Axial_DIN0204_L3.6mm_D1.6mm_P2.54mm_Vertical".

Adding new component "Rc7:/591A0EBA/5922B96F" footprint "Resistors_THT:R_Axial_DIN0204_L3.6mm_D1.6mm_P2.54mm_Vertical".

Changing component "Rc7:/591A0EBA/5922B96F" pin "1" net name from "" to "Net-(Cc6-Pad2)".

Changing component "Rc7:/591A0EBA/5922B96F" pin "2" net name from "" to "Net-(Rc7-Pad2)".

Info: Checking netlist component footprint "Rc8:/591A0EBA/5922B972:Resistors_THT:R_Axial_DIN0204_L3.6mm_D1.6mm_P2.54mm_Vertical".

Adding new component "Rc8:/591A0EBA/5922B972" footprint "Resistors_THT:R_Axial_DIN0204_L3.6mm_D1.6mm_P2.54mm_Vertical".

Changing component "Rc8:/591A0EBA/5922B972" pin "1" net name from "" to "Net-(Cc6-Pad2)".

Changing component "Rc8:/591A0EBA/5922B972" pin "2" net name from "" to "Net-(Cc5-Pad1)".

Info: Checking netlist component footprint "Rc9:/591A0EBA/591A4A8A:Resistors_THT:R_Axial_DIN0204_L3.6mm_D1.6mm_P2.54mm_Vertical".

Adding new component "Rc9:/591A0EBA/591A4A8A" footprint "Resistors_THT:R_Axial_DIN0204_L3.6mm_D1.6mm_P2.54mm_Vertical".

Changing component "Rc9:/591A0EBA/591A4A8A" pin "1" net name from "" to "Net-(Cc5-Pad1)".

Changing component "Rc9:/591A0EBA/591A4A8A" pin "2" net name from "" to "VEE".

Info: Checking netlist component footprint "Rc10:/591A0EBA/591A4AD5:Resistors_THT:R_Axial_DIN0204_L3.6mm_D1.6mm_P2.54mm_Vertical".

Adding new component "Rc10:/591A0EBA/591A4AD5" footprint "Resistors_THT:R_Axial_DIN0204_L3.6mm_D1.6mm_P2.54mm_Vertical".

Changing component "Rc10:/591A0EBA/591A4AD5" pin "1" net name from "" to "Net-(Cc5-Pad1)".

Changing component "Rc10:/591A0EBA/591A4AD5" pin "2" net name from "" to "GND".

Info: Checking netlist component footprint "Rd1:/592382A2/59238621:Resistors_THT:R_Axial_DIN0204_L3.6mm_D1.6mm_P2.54mm_Vertical".

Adding new component "Rd1:/592382A2/59238621" footprint "Resistors_THT:R_Axial_DIN0204_L3.6mm_D1.6mm_P2.54mm_Vertical".

Changing component "Rd1:/592382A2/59238621" pin "1" net name from "" to "Net-(Cd1-Pad1)".

Changing component "Rd1:/592382A2/59238621" pin "2" net name from "" to "/volumenVCA/inVolAnt".

Info: Checking netlist component footprint "Re1:/591A8A76/5922B964:Resistors_THT:R_Axial_DIN0204_L3.6mm_D1.6mm_P2.54mm_Vertical".

Adding new component "Re1:/591A8A76/5922B964" footprint "Resistors_THT:R_Axial_DIN0204_L3.6mm_D1.6mm_P2.54mm_Vertical".

Changing component "Re1:/591A8A76/5922B964" pin "1" net name from "" to "Net-(Re1-Pad1)".

Changing component "Re1:/591A8A76/5922B964" pin "2" net name from "" to "GND".

Info: Checking netlist component footprint "Re2:/591A8A76/591A1396:Resistors_THT:R_Axial_DIN0204_L3.6mm_D1.6mm_P2.54mm_Vertical".

Adding new component "Re2:/591A8A76/591A1396" footprint "Resistors_THT:R_Axial_DIN0204_L3.6mm_D1.6mm_P2.54mm_Vertical".

Changing component "Re2:/591A8A76/591A1396" pin "1" net name from "" to "Net-(Re2-Pad1)".

Changing component "Re2:/591A8A76/591A1396" pin "2" net name from "" to "VEE".

Info: Checking netlist component footprint "Re3:/591A8A76/591A21F1:Resistors_THT:R_Axial_DIN0204_L3.6mm_D1.6mm_P2.54mm_Vertical".

Adding new component "Re3:/591A8A76/591A21F1" footprint "Resistors_THT:R_Axial_DIN0204_L3.6mm_D1.6mm_P2.54mm_Vertical".

Changing component "Re3:/591A8A76/591A21F1" pin "1" net name from "" to "/circuito antena volumen/inOV".

Changing component "Re3:/591A8A76/591A21F1" pin "2" net name from "" to "GND".

Info: Checking netlist component footprint "Re4:/591A8A76/5922B96B:Resistors_THT:R_Axial_DIN0204_L3.6mm_D1.6mm_P2.54mm_Vertical".

Adding new component "Re4:/591A8A76/5922B96B" footprint "Resistors_THT:R_Axial_DIN0204_L3.6mm_D1.6mm_P2.54mm_Vertical".

Changing component "Re4:/591A8A76/5922B96B" pin "1" net name from "" to "Net-(Ce4-Pad2)".

Changing component "Re4:/591A8A76/5922B96B" pin "2" net name from "" to "VEE".

Info: Checking netlist component footprint "Re5:/591A8A76/5922B96C:Resistors_THT:R_Axial_DIN0204_L3.6mm_D1.6mm_P2.54mm_Vertical".

Adding new component "Re5:/591A8A76/5922B96C" footprint "Resistors_THT:R_Axial_DIN0204_L3.6mm_D1.6mm_P2.54mm_Vertical".

Changing component "Re5:/591A8A76/5922B96C" pin "1" net name from "" to "Net-(Ce4-Pad2)".

Changing component "Re5:/591A8A76/5922B96C" pin "2" net name from "" to "volumen".

Info: Checking netlist component footprint "Re6:/591A8A76/591A456D:Resistors_THT:R_Axial_DIN0204_L3.6mm_D1.6mm_P2.54mm_Vertical".

Adding new component "Re6:/591A8A76/591A456D" footprint "Resistors_THT:R_Axial_DIN0204_L3.6mm_D1.6mm_P2.54mm_Vertical".

Changing component "Re6:/591A8A76/591A456D" pin "1" net name from "" to "Net-(Ce6-Pad2)".

Changing component "Re6:/591A8A76/591A456D" pin "2" net name from "" to "Net-(Re6-Pad2)".

Info: Checking netlist component footprint "Re7:/591A8A76/591A48B3:Resistors_THT:R_Axial_DIN0204_L3.6mm_D1.6mm_P2.54mm_Vertical".

Adding new component "Re7:/591A8A76/591A48B3" footprint "Resistors_THT:R_Axial_DIN0204_L3.6mm_D1.6mm_P2.54mm_Vertical".

Changing component "Re7:/591A8A76/591A48B3" pin "1" net name from "" to "Net-(Ce6-Pad2)".

Changing component "Re7:/591A8A76/591A48B3" pin "2" net name from "" to "Net-(Ce5-Pad1)".

Info: Checking netlist component footprint "Re8:/591A8A76/5922B973:Resistors_THT:R_Axial_DIN0204_L3.6mm_D1.6mm_P2.54mm_Vertical".

Adding new component "Re8:/591A8A76/5922B973" footprint "Resistors_THT:R_Axial_DIN0204_L3.6mm_D1.6mm_P2.54mm_Vertical".

Changing component "Re8:/591A8A76/5922B973" pin "1" net name from "" to "Net-(Ce5-Pad1)".

Changing component "Re8:/591A8A76/5922B973" pin "2" net name from "" to "VEE".

Info: Checking netlist component footprint "Re9:/591A8A76/5922B974:Resistors_THT:R_Axial_DIN0204_L3.6mm_D1.6mm_P2.54mm_Vertical".

Adding new component "Re9:/591A8A76/5922B974" footprint "Resistors_THT:R_Axial_DIN0204_L3.6mm_D1.6mm_P2.54mm_Vertical".

Changing component "Re9:/591A8A76/5922B974" pin "1" net name from "" to "Net-(Ce5-Pad1)".

Changing component "Re9:/591A8A76/5922B974" pin "2" net name from "" to "GND".

Info: Checking netlist component footprint "Rf1:/59236253/5923F581:Resistors_THT:R_Axial_DIN0204_L3.6mm_D1.6mm_P2.54mm_Vertical".

Adding new component "Rf1:/59236253/5923F581" footprint "Resistors_THT:R_Axial_DIN0204_L3.6mm_D1.6mm_P2.54mm_Vertical".

Changing component "Rf1:/59236253/5923F581" pin "1" net name from "" to "/volumenVCA/inVolAnt".

Changing component "Rf1:/59236253/5923F581" pin "2" net name from "" to "VCC".

Info: Checking netlist component footprint "Rf2:/59236253/5923F634:Resistors_THT:R_Axial_DIN0204_L3.6mm_D1.6mm_P2.54mm_Vertical".

Adding new component "Rf2:/59236253/5923F634" footprint "Resistors_THT:R_Axial_DIN0204_L3.6mm_D1.6mm_P2.54mm_Vertical".

Changing component "Rf2:/59236253/5923F634" pin "1" net name from "" to "/volumenVCA/inVolAnt".

Changing component "Rf2:/59236253/5923F634" pin "2" net name from "" to "Net-(Df1-Pad2)".

Info: Checking netlist component footprint "Rf3:/59236253/5923E9B1:Resistors_THT:R_Axial_DIN0204_L3.6mm_D1.6mm_P2.54mm_Vertical".

Adding new component "Rf3:/59236253/5923E9B1" footprint "Resistors_THT:R_Axial_DIN0204_L3.6mm_D1.6mm_P2.54mm_Vertical".

Changing component "Rf3:/59236253/5923E9B1" pin "1" net name from "" to "/volumenVCA/vca1/diodeBIAS1".

Changing component "Rf3:/59236253/5923E9B1" pin "2" net name from "" to "VCC".

Info: Checking netlist component footprint "Rf4:/59236253/59236964:Resistors_THT:R_Axial_DIN0204_L3.6mm_D1.6mm_P2.54mm_Vertical".

Adding new component "Rf4:/59236253/59236964" footprint "Resistors_THT:R_Axial_DIN0204_L3.6mm_D1.6mm_P2.54mm_Vertical".

Changing component "Rf4:/59236253/59236964" pin "1" net name from "" to "/volumenVCA/vca1/in_amp_BIAS_vca1".

Changing component "Rf4:/59236253/59236964" pin "2" net name from "" to "VCC".

Info: Checking netlist component footprint "Rg1:/59239C32/59317C80:Resistors_THT:R_Axial_DIN0204_L3.6mm_D1.6mm_P2.54mm_Vertical".

Adding new component "Rg1:/59239C32/59317C80" footprint "Resistors_THT:R_Axial_DIN0204_L3.6mm_D1.6mm_P2.54mm_Vertical".

Changing component "Rg1:/59239C32/59317C80" pin "1" net name from "" to "VCC".

Changing component "Rg1:/59239C32/59317C80" pin "2" net name from "" to "Net-(Dg3-Pad2)".

Info: Checking netlist component footprint "Rh1:/591A0DBD/592338F8:Resistors_THT:R_Axial_DIN0204_L3.6mm_D1.6mm_P2.54mm_Vertical".

Adding new component "Rh1:/591A0DBD/592338F8" footprint "Resistors_THT:R_Axial_DIN0204_L3.6mm_D1.6mm_P2.54mm_Vertical".

Changing component "Rh1:/591A0DBD/592338F8" pin "1" net name from "" to "Net-(Ch1-Pad1)".

Changing component "Rh1:/591A0DBD/592338F8" pin "2" net name from "" to "onda".

Info: Checking netlist component footprint "Rh2:/591A0DBD/5923391F:Resistors_THT:R_Axial_DIN0204_L3.6mm_D1.6mm_P2.54mm_Vertical".

Adding new component "Rh2:/591A0DBD/5923391F" footprint "Resistors_THT:R_Axial_DIN0204_L3.6mm_D1.6mm_P2.54mm_Vertical".

Changing component "Rh2:/591A0DBD/5923391F" pin "1" net name from "" to "onda".

Changing component "Rh2:/591A0DBD/5923391F" pin "2" net name from "" to "GND".

Info: Checking netlist component footprint "Rj1:/5923A982/5923AD08:Resistors_THT:R_Axial_DIN0204_L3.6mm_D1.6mm_P2.54mm_Vertical".

Adding new component "Rj1:/5923A982/5923AD08" footprint "Resistors_THT:R_Axial_DIN0204_L3.6mm_D1.6mm_P2.54mm_Vertical".

Changing component "Rj1:/5923A982/5923AD08" pin "1" net name from "" to "/amplificador controlado por voltaje/vca2/in_A_Vca1".

Changing component "Rj1:/5923A982/5923AD08" pin "2" net name from "" to "GND".

Info: Checking netlist component footprint "Rj2:/5923A982/5923ACE1:Resistors_THT:R_Axial_DIN0204_L3.6mm_D1.6mm_P2.54mm_Vertical".

Adding new component "Rj2:/5923A982/5923ACE1" footprint "Resistors_THT:R_Axial_DIN0204_L3.6mm_D1.6mm_P2.54mm_Vertical".

Changing component "Rj2:/5923A982/5923ACE1" pin "1" net name from "" to "forma".

Changing component "Rj2:/5923A982/5923ACE1" pin "2" net name from "" to "/amplificador controlado por voltaje/vca2/in_A_Vca1".

Info: Checking netlist component footprint "Rj3:/5923A982/5923AC74:Resistors_THT:R_Axial_DIN0204_L3.6mm_D1.6mm_P2.54mm_Vertical".

Adding new component "Rj3:/5923A982/5923AC74" footprint "Resistors_THT:R_Axial_DIN0204_L3.6mm_D1.6mm_P2.54mm_Vertical".

Changing component "Rj3:/5923A982/5923AC74" pin "1" net name from "" to "VEE".

Changing component "Rj3:/5923A982/5923AC74" pin "2" net name from "" to "/amplificador controlado por voltaje/vca2/in_A_Vca1".

Info: Checking netlist component footprint "Rj4:/5923A982/5923B151:Resistors_THT:R_Axial_DIN0204_L3.6mm_D1.6mm_P2.54mm_Vertical".

Adding new component "Rj4:/5923A982/5923B151" footprint "Resistors_THT:R_Axial_DIN0204_L3.6mm_D1.6mm_P2.54mm_Vertical".

Changing component "Rj4:/5923A982/5923B151" pin "1" net name from "" to "/amplificador controlado por voltaje/vca2/diodeBIAS1".

Changing component "Rj4:/5923A982/5923B151" pin "2" net name from "" to "brillo".

Info: Checking netlist component footprint "Rj5:/5923A982/5923B91C:Resistors_THT:R_Axial_DIN0204_L3.6mm_D1.6mm_P2.54mm_Vertical".

Adding new component "Rj5:/5923A982/5923B91C" footprint "Resistors_THT:R_Axial_DIN0204_L3.6mm_D1.6mm_P2.54mm_Vertical".

Changing component "Rj5:/5923A982/5923B91C" pin "1" net name from "" to "/amplificador controlado por voltaje/vca2/in_amp_BIAS_vca1".

Changing component "Rj5:/5923A982/5923B91C" pin "2" net name from "" to "VEE".

Info: Checking netlist component footprint "Rj6:/5923A982/5923B97C:Resistors_THT:R_Axial_DIN0204_L3.6mm_D1.6mm_P2.54mm_Vertical".

Adding new component "Rj6:/5923A982/5923B97C" footprint "Resistors_THT:R_Axial_DIN0204_L3.6mm_D1.6mm_P2.54mm_Vertical".

Changing component "Rj6:/5923A982/5923B97C" pin "1" net name from "" to "/amplificador controlado por voltaje/vca2/in_amp_BIAS_vca1".

Changing component "Rj6:/5923A982/5923B97C" pin "2" net name from "" to "volAmp".

Info: Checking netlist component footprint "Rj7:/5923A982/5923D41B:Resistors_THT:R_Axial_DIN0204_L3.6mm_D1.6mm_P2.54mm_Vertical".

Adding new component "Rj7:/5923A982/5923D41B" footprint "Resistors_THT:R_Axial_DIN0204_L3.6mm_D1.6mm_P2.54mm_Vertical".

Changing component "Rj7:/5923A982/5923D41B" pin "1" net name from "" to "/amplificador controlado por voltaje/vca2/outputvca1".

Changing component "Rj7:/5923A982/5923D41B" pin "2" net name from "" to "GND".

Info: Checking netlist component footprint "Rj8:/5923A982/5923C7C9:Resistors_THT:R_Axial_DIN0204_L3.6mm_D1.6mm_P2.54mm_Vertical".

Adding new component "Rj8:/5923A982/5923C7C9" footprint "Resistors_THT:R_Axial_DIN0204_L3.6mm_D1.6mm_P2.54mm_Vertical".

Changing component "Rj8:/5923A982/5923C7C9" pin "1" net name from "" to "Net-(Cj2-Pad2)".

Changing component "Rj8:/5923A982/5923C7C9" pin "2" net name from "" to "VEE".

Info: Checking netlist component footprint "Rj9:/5923A982/5923CD3C:Resistors_THT:R_Axial_DIN0204_L3.6mm_D1.6mm_P2.54mm_Vertical".

Adding new component "Rj9:/5923A982/5923CD3C" footprint "Resistors_THT:R_Axial_DIN0204_L3.6mm_D1.6mm_P2.54mm_Vertical".

Changing component "Rj9:/5923A982/5923CD3C" pin "1" net name from "" to "/control Fontral/InAudio".

Changing component "Rj9:/5923A982/5923CD3C" pin "2" net name from "" to "Net-(Cj2-Pad1)".

Info: Checking netlist component footprint "Rj10:/5923A982/5923CDF3:Resistors_THT:R_Axial_DIN0204_L3.6mm_D1.6mm_P2.54mm_Vertical".

Adding new component "Rj10:/5923A982/5923CDF3" footprint "Resistors_THT:R_Axial_DIN0204_L3.6mm_D1.6mm_P2.54mm_Vertical".

Changing component "Rj10:/5923A982/5923CDF3" pin "1" net name from "" to "GND".

Changing component "Rj10:/5923A982/5923CDF3" pin "2" net name from "" to "/control Fontral/InAudio".

Info: Checking netlist component footprint "RVi1:/5922E11D/5922E296:Potentiometers:Potentiometer_Alps-RK163-single_15mm".

Adding new component "RVi1:/5922E11D/5922E296" footprint "Potentiometers:Potentiometer_Alps-RK163-single_15mm".

Changing component "RVi1:/5922E11D/5922E296" pin "2" net name from "" to "forma".

Changing component "RVi1:/5922E11D/5922E296" pin "3" net name from "" to "GND".

Changing component "RVi1:/5922E11D/5922E296" pin "1" net name from "" to "VEE".

Info: Checking netlist component footprint "RVi2:/5922E11D/5922E702:Potentiometers:Potentiometer_Alps-RK163-single_15mm".

Adding new component "RVi2:/5922E11D/5922E702" footprint "Potentiometers:Potentiometer_Alps-RK163-single_15mm".

Changing component "RVi2:/5922E11D/5922E702" pin "2" net name from "" to "brillo".

Changing component "RVi2:/5922E11D/5922E702" pin "3" net name from "" to "GND".

Changing component "RVi2:/5922E11D/5922E702" pin "1" net name from "" to "VCC".

Info: Checking netlist component footprint "RVi3:/5922E11D/5922E60A:Potentiometers:Potentiometer_Alps-RK163-single_15mm".

Adding new component "RVi3:/5922E11D/5922E60A" footprint "Potentiometers:Potentiometer_Alps-RK163-single_15mm".

Changing component "RVi3:/5922E11D/5922E60A" pin "2" net name from "" to "tono".

Changing component "RVi3:/5922E11D/5922E60A" pin "3" net name from "" to "GND".

Changing component "RVi3:/5922E11D/5922E60A" pin "1" net name from "" to "VEE".

Info: Checking netlist component footprint "RVi4:/5922E11D/5922E67A:Potentiometers:Potentiometer_Alps-RK163-single_15mm".

Adding new component "RVi4:/5922E11D/5922E67A" footprint "Potentiometers:Potentiometer_Alps-RK163-single_15mm".

Changing component "RVi4:/5922E11D/5922E67A" pin "2" net name from "" to "volumen".

Changing component "RVi4:/5922E11D/5922E67A" pin "3" net name from "" to "GND".

Changing component "RVi4:/5922E11D/5922E67A" pin "1" net name from "" to "VEE".

Info: Checking netlist component footprint "SWg1:/59239C32/5922D6A4:Pin_Headers:Pin_Header_Straight_1x02".

Adding new component "SWg1:/59239C32/5922D6A4" footprint "Pin_Headers:Pin_Header_Straight_1x02".

Changing component "SWg1:/59239C32/5922D6A4" pin "1" net name from "" to "Net-(Fg1-Pad1)".

Changing component "SWg1:/59239C32/5922D6A4" pin "2" net name from "" to "Net-(Dg1-Pad2)".

Info: Checking netlist component footprint "U1:/59165535/591677D3:Housings_DIP:DIP-14_W7.62mm_Socket_LongPads".

Adding new component "U1:/59165535/591677D3" footprint "Housings_DIP:DIP-14_W7.62mm_Socket_LongPads".

Changing component "U1:/59165535/591677D3" pin "1" net name from "" to "/OsciladordeTonoVariable/Antenna".

Changing component "U1:/59165535/591677D3" pin "8" net name from "" to "otf1".

Changing component "U1:/59165535/591677D3" pin "2" net name from "" to "Net-(Rb1-Pad1)".

Changing component "U1:/59165535/591677D3" pin "9" net name from "" to "Net-(Rc3-Pad2)".

Changing component "U1:/59165535/591677D3" pin "3" net name from "" to "Net-(Rb2-Pad1)".

Changing component "U1:/59165535/591677D3" pin "10" net name from "" to "Net-(Rc2-Pad1)".

Changing component "U1:/59165535/591677D3" pin "4" net name from "" to "Net-(Rb3-Pad1)".

Changing component "U1:/59165535/591677D3" pin "11" net name from "" to "VCC".

Changing component "U1:/59165535/591677D3" pin "5" net name from "" to "VCC".

Changing component "U1:/59165535/591677D3" pin "12" net name from "" to "Net-(Rc7-Pad2)".

Changing component "U1:/59165535/591677D3" pin "6" net name from "" to "Net-(Rc1-Pad1)".

Changing component "U1:/59165535/591677D3" pin "13" net name from "" to "Net-(Cc4-Pad2)".

Changing component "U1:/59165535/591677D3" pin "7" net name from "" to "Net-(Rc2-Pad1)".

Changing component "U1:/59165535/591677D3" pin "14" net name from "" to "otf1".

Info: Checking netlist component footprint "U2:/591A8A76/591AA976:Housings_DIP:DIP-14_W7.62mm_Socket_LongPads".

Adding new component "U2:/591A8A76/591AA976" footprint "Housings_DIP:DIP-14_W7.62mm_Socket_LongPads".

Changing component "U2:/591A8A76/591AA976" pin "1" net name from "" to "ov1".

Changing component "U2:/591A8A76/591AA976" pin "8" net name from "" to "ov1".

Changing component "U2:/591A8A76/591AA976" pin "2" net name from "" to "Net-(Re1-Pad1)".

Changing component "U2:/591A8A76/591AA976" pin "3" net name from "" to "Net-(Re2-Pad1)".

Changing component "U2:/591A8A76/591AA976" pin "4" net name from "" to "/circuito antena volumen/inOV".

Changing component "U2:/591A8A76/591AA976" pin "5" net name from "" to "VCC".

Changing component "U2:/591A8A76/591AA976" pin "6" net name from "" to "Net-(Re6-Pad2)".

Changing component "U2:/591A8A76/591AA976" pin "7" net name from "" to "Net-(Ce4-Pad2)".

Info: Checking netlist component footprint "U4:/59239C32/59239C93:Power_Integrations:TO-220".

Adding new component "U4:/59239C32/59239C93" footprint "Power_Integrations:TO-220".

Changing component "U4:/59239C32/59239C93" pin "2" net name from "" to "GND".

Changing component "U4:/59239C32/59239C93" pin "3" net name from "" to "VCC".

Changing component "U4:/59239C32/59239C93" pin "1" net name from "" to "Net-(Cg1-Pad1)".

Info: Checking netlist component footprint "U5:/59239C32/59239CF4:Power_Integrations:TO-220".

Adding new component "U5:/59239C32/59239CF4" footprint "Power_Integrations:TO-220".

Changing component "U5:/59239C32/59239CF4" pin "2" net name from "" to "Net-(Cg2-Pad2)".

Changing component "U5:/59239C32/59239CF4" pin "3" net name from "" to "VEE".

Changing component "U5:/59239C32/59239CF4" pin "1" net name from "" to "GND".

Info: Checking netlist component footprint "U7:/59236253/59232A08/59232F64:Housings_DIP:DIP-14_W7.62mm_Socket_LongPads".

Adding new component "U7:/59236253/59232A08/59232F64" footprint "Housings_DIP:DIP-14_W7.62mm_Socket_LongPads".

Changing component "U7:/59236253/59232A08/59232F64" pin "1" net name from "" to "Net-(Q11-Pad2)".

Changing component "U7:/59236253/59232A08/59232F64" pin "8" net name from "" to "/volumenVCA/vca1/diodeBIAS1".

Changing component "U7:/59236253/59232A08/59232F64" pin "2" net name from "" to "/volumenVCA/inVolAnt".

Changing component "U7:/59236253/59232A08/59232F64" pin "9" net name from "" to "/volumenVCA/vca1/diodeBIAS1".

Changing component "U7:/59236253/59232A08/59232F64" pin "3" net name from "" to "Net-(U7-Pad14)".

Changing component "U7:/59236253/59232A08/59232F64" pin "10" net name from "" to "GND".

Changing component "U7:/59236253/59232A08/59232F64" pin "4" net name from "" to "GND".

Changing component "U7:/59236253/59232A08/59232F64" pin "11" net name from "" to "/volumenVCA/vca1/diodeBIAS1".

Changing component "U7:/59236253/59232A08/59232F64" pin "5" net name from "" to "Net-(Q12-Pad2)".

Changing component "U7:/59236253/59232A08/59232F64" pin "12" net name from "" to "/volumenVCA/vca1/in_amp_BIAS_vca1".

Changing component "U7:/59236253/59232A08/59232F64" pin "6" net name from "" to "/volumenVCA/vca1/diodeBIAS1".

Changing component "U7:/59236253/59232A08/59232F64" pin "13" net name from "" to "Net-(U7-Pad13)".

Changing component "U7:/59236253/59232A08/59232F64" pin "7" net name from "" to "/volumenVCA/inVolAnt".

Changing component "U7:/59236253/59232A08/59232F64" pin "14" net name from "" to "Net-(U7-Pad14)".

Info: Checking netlist component footprint "U8:/59236253/59232A08/59234AAC:Housings_DIP:DIP-14_W7.62mm_Socket_LongPads".

Adding new component "U8:/59236253/59232A08/59234AAC" footprint "Housings_DIP:DIP-14_W7.62mm_Socket_LongPads".

Changing component "U8:/59236253/59232A08/59234AAC" pin "1" net name from "" to "Net-(U7-Pad13)".

Changing component "U8:/59236253/59232A08/59234AAC" pin "8" net name from "" to "Net-(Q11-Pad3)".

Changing component "U8:/59236253/59232A08/59234AAC" pin "2" net name from "" to "Net-(U7-Pad13)".

Changing component "U8:/59236253/59232A08/59234AAC" pin "9" net name from "" to "Net-(Q11-Pad3)".

Changing component "U8:/59236253/59232A08/59234AAC" pin "3" net name from "" to "VEE".

Changing component "U8:/59236253/59232A08/59234AAC" pin "10" net name from "" to "Net-(U8-Pad10)".

Changing component "U8:/59236253/59232A08/59234AAC" pin "4" net name from "" to "Net-(U7-Pad13)".

Changing component "U8:/59236253/59232A08/59234AAC" pin "11" net name from "" to "volAmp".

Changing component "U8:/59236253/59232A08/59234AAC" pin "5" net name from "" to "/volumenVCA/vca1/in_amp_BIAS_vca1".

Changing component "U8:/59236253/59232A08/59234AAC" pin "12" net name from "" to "Net-(U8-Pad10)".

Changing component "U8:/59236253/59232A08/59234AAC" pin "6" net name from "" to "Net-(U8-Pad10)".

Changing component "U8:/59236253/59232A08/59234AAC" pin "13" net name from "" to "VEE".

Changing component "U8:/59236253/59232A08/59234AAC" pin "7" net name from "" to "VEE".

Changing component "U8:/59236253/59232A08/59234AAC" pin "14" net name from "" to "Net-(U8-Pad10)".

Info: Checking netlist component footprint "U11:/5923A982/593199F2/59232F64:Housings_DIP:DIP-14_W7.62mm_Socket_LongPads".

Adding new component "U11:/5923A982/593199F2/59232F64" footprint "Housings_DIP:DIP-14_W7.62mm_Socket_LongPads".

Changing component "U11:/5923A982/593199F2/59232F64" pin "1" net name from "" to "Net-(Q5-Pad3)".

Changing component "U11:/5923A982/593199F2/59232F64" pin "8" net name from "" to "/amplificador controlado por voltaje/vca2/diodeBIAS1".

Changing component "U11:/5923A982/593199F2/59232F64" pin "2" net name from "" to "/amplificador controlado por voltaje/vca2/in_A_Vca1".

Changing component "U11:/5923A982/593199F2/59232F64" pin "9" net name from "" to "/amplificador controlado por voltaje/vca2/diodeBIAS1".

Changing component "U11:/5923A982/593199F2/59232F64" pin "3" net name from "" to "Net-(U11-Pad14)".

Changing component "U11:/5923A982/593199F2/59232F64" pin "10" net name from "" to "onda".

Changing component "U11:/5923A982/593199F2/59232F64" pin "4" net name from "" to "onda".

Changing component "U11:/5923A982/593199F2/59232F64" pin "11" net name from "" to "/amplificador controlado por voltaje/vca2/diodeBIAS1".

Changing component "U11:/5923A982/593199F2/59232F64" pin "5" net name from "" to "Net-(Q3-Pad3)".

Changing component "U11:/5923A982/593199F2/59232F64" pin "12" net name from "" to "/amplificador controlado por voltaje/vca2/in_amp_BIAS_vca1".

Changing component "U11:/5923A982/593199F2/59232F64" pin "6" net name from "" to "/amplificador controlado por voltaje/vca2/diodeBIAS1".

Changing component "U11:/5923A982/593199F2/59232F64" pin "13" net name from "" to "/amplificador controlado por voltaje/vca2/Iref".

Changing component "U11:/5923A982/593199F2/59232F64" pin "7" net name from "" to "/amplificador controlado por voltaje/vca2/in_A_Vca1".

Changing component "U11:/5923A982/593199F2/59232F64" pin "14" net name from "" to "Net-(U11-Pad14)".

Info: Checking netlist component footprint "U12:/5923A982/593199F2/59234AAC:Housings_DIP:DIP-14_W7.62mm_Socket_LongPads".

Adding new component "U12:/5923A982/593199F2/59234AAC" footprint "Housings_DIP:DIP-14_W7.62mm_Socket_LongPads".

Changing component "U12:/5923A982/593199F2/59234AAC" pin "1" net name from "" to "/amplificador controlado por voltaje/vca2/Iref".

Changing component "U12:/5923A982/593199F2/59234AAC" pin "8" net name from "" to "Net-(Q7-Pad3)".

Changing component "U12:/5923A982/593199F2/59234AAC" pin "2" net name from "" to "/amplificador controlado por voltaje/vca2/Iref".

Changing component "U12:/5923A982/593199F2/59234AAC" pin "9" net name from "" to "Net-(Q7-Pad3)".

Changing component "U12:/5923A982/593199F2/59234AAC" pin "3" net name from "" to "VEE".

Changing component "U12:/5923A982/593199F2/59234AAC" pin "10" net name from "" to "Net-(U12-Pad10)".

Changing component "U12:/5923A982/593199F2/59234AAC" pin "4" net name from "" to "/amplificador controlado por voltaje/vca2/Iref".

Changing component "U12:/5923A982/593199F2/59234AAC" pin "11" net name from "" to "/amplificador controlado por voltaje/vca2/outputvca1".

Changing component "U12:/5923A982/593199F2/59234AAC" pin "5" net name from "" to "/amplificador controlado por voltaje/vca2/in_amp_BIAS_vca1".

Changing component "U12:/5923A982/593199F2/59234AAC" pin "12" net name from "" to "Net-(U12-Pad10)".

Changing component "U12:/5923A982/593199F2/59234AAC" pin "6" net name from "" to "Net-(U12-Pad10)".

Changing component "U12:/5923A982/593199F2/59234AAC" pin "13" net name from "" to "VEE".

Changing component "U12:/5923A982/593199F2/59234AAC" pin "7" net name from "" to "VEE".

Changing component "U12:/5923A982/593199F2/59234AAC" pin "14" net name from "" to "Net-(U12-Pad10)".

