EESchema Schematic File Version 2
LIBS:theremind-rescue
LIBS:power
LIBS:device
LIBS:transistors
LIBS:conn
LIBS:linear
LIBS:regul
LIBS:74xx
LIBS:cmos4000
LIBS:adc-dac
LIBS:memory
LIBS:xilinx
LIBS:microcontrollers
LIBS:dsp
LIBS:microchip
LIBS:analog_switches
LIBS:motorola
LIBS:texas
LIBS:intel
LIBS:audio
LIBS:interface
LIBS:digital-audio
LIBS:philips
LIBS:display
LIBS:cypress
LIBS:siliconi
LIBS:opto
LIBS:atmel
LIBS:contrib
LIBS:valves
LIBS:switches
LIBS:myTransistors
LIBS:theremind-cache
EELAYER 25 0
EELAYER END
$Descr A4 11693 8268
encoding utf-8
Sheet 1 13
Title "Theremind"
Date ""
Rev "0.1"
Comp "Hijos de Pachamama"
Comment1 "jgcubidesc@unal.edu.co"
Comment2 "Johnny Cubides"
Comment3 "crpulidog@unal.edu.co"
Comment4 "Carolina Pulido "
$EndDescr
$Sheet
S 1050 2400 900  400 
U 59164CE8
F0 "circuito antena de tono" 60
F1 "cirAntenaTono.sch" 60
F2 "AntennaToneOut" O R 1950 2650 60 
F3 "AntennaTono" I L 1050 2500 60 
$EndSheet
$Sheet
S 2550 2500 700  450 
U 59165535
F0 "OsciladordeTonoVariable" 60
F1 "oscTonoVar.sch" 60
F2 "oscVarPitch" O L 2550 2800 60 
F3 "Antenna" I L 2550 2650 60 
$EndSheet
$Comp
L Antenna AE1
U 1 1 59165711
P 950 2150
F 0 "AE1" H 875 2225 50  0000 R CNN
F 1 "Antenna" H 875 2150 50  0000 R CNN
F 2 "Connectors:1pin" H 950 2150 50  0001 C CNN
F 3 "" H 950 2150 50  0001 C CNN
	1    950  2150
	1    0    0    -1  
$EndComp
Wire Wire Line
	950  2350 950  2500
Wire Wire Line
	950  2500 1050 2500
Wire Wire Line
	2550 2650 1950 2650
$Sheet
S 3100 3500 750  400 
U 591A0DBD
F0 "detDifFrec" 60
F1 "DectectorDifdeFrecuencia.sch" 60
F2 "inA" I L 3100 3600 60 
F3 "inB" I L 3100 3800 60 
F4 "out" O R 3850 3700 60 
$EndSheet
$Sheet
S 3550 2800 700  400 
U 591A0EBA
F0 "oscTonoFijo" 60
F1 "oscTonoFijo.sch" 60
F2 "otfControl" I R 4250 2900 60 
F3 "otfOut" O L 3550 3100 60 
$EndSheet
$Sheet
S 4950 2650 750  400 
U 591A8A76
F0 "oscVol" 60
F1 "oscVol.sch" 60
F2 "ovControl" I R 5700 2950 60 
F3 "ovOut" O L 4950 2800 60 
$EndSheet
Wire Wire Line
	3550 3100 2900 3100
Wire Wire Line
	2900 3100 2900 3600
Wire Wire Line
	2900 3600 3100 3600
Wire Wire Line
	2550 2800 2400 2800
Wire Wire Line
	2400 2800 2400 3800
Wire Wire Line
	2400 3800 3100 3800
$Sheet
S 4950 1900 700  350 
U 592382A2
F0 "circuito antena volumen" 60
F1 "cirAntenaVol.sch" 60
F2 "inOV" I L 4950 2000 60 
F3 "outVolAnt" O R 5650 2150 60 
F4 "inAnt" I R 5650 2000 60 
$EndSheet
$Comp
L Antenna AE2
U 1 1 592397BF
P 6600 1700
F 0 "AE2" H 6525 1775 50  0000 R CNN
F 1 "Antenna" H 6525 1700 50  0000 R CNN
F 2 "Connectors:1pin" H 6600 1700 50  0001 C CNN
F 3 "" H 6600 1700 50  0001 C CNN
	1    6600 1700
	1    0    0    -1  
$EndComp
Wire Wire Line
	5650 2000 6600 2000
Wire Wire Line
	6600 2000 6600 1900
Wire Wire Line
	4950 2800 4800 2800
Wire Wire Line
	4800 2800 4800 2000
Wire Wire Line
	4800 2000 4950 2000
$Sheet
S 1050 3350 700  400 
U 59239C32
F0 "power 12 V dual" 60
F1 "power12vDual.sch" 60
$EndSheet
$Sheet
S 5100 4100 1050 800 
U 5922E11D
F0 "control Fontral" 60
F1 "controlFontral.sch" 60
F2 "BrilloCtrl" O L 5100 4250 60 
F3 "FormOndaCtrl" O L 5100 4400 60 
F4 "TonoCtrl" O L 5100 4550 60 
F5 "VolumenCtr" O L 5100 4700 60 
F6 "InAudio" I R 6150 4550 60 
$EndSheet
Text GLabel 4400 2900 2    60   Input ~ 0
tono
Text GLabel 4950 4550 0    60   Output ~ 0
tono
Wire Wire Line
	4400 2900 4250 2900
Wire Wire Line
	4950 4550 5100 4550
Text GLabel 5850 2950 2    60   Input ~ 0
volumen
Wire Wire Line
	5850 2950 5700 2950
Text GLabel 4950 4700 0    60   Output ~ 0
volumen
Wire Wire Line
	4950 4700 5100 4700
$Sheet
S 6700 2600 800  400 
U 59236253
F0 "volumenVCA" 60
F1 "volumenVCA.sch" 60
F2 "inVolAnt" I L 6700 2750 60 
F3 "VolAmpAnt" O R 7500 2900 60 
$EndSheet
Wire Wire Line
	5650 2150 6400 2150
Wire Wire Line
	6400 2150 6400 2750
Wire Wire Line
	6400 2750 6700 2750
$Sheet
S 6800 3500 900  650 
U 5923A982
F0 "amplificador controlado por voltaje" 60
F1 "ampControlVoltsch.sch" 60
F2 "ondaForm" I L 6800 3600 60 
F3 "inBrillo" I L 6800 3750 60 
F4 "inOnda" I L 6800 3900 60 
F5 "inVolAmp" I L 6800 4050 60 
F6 "outAudio" O R 7700 3850 60 
$EndSheet
Text GLabel 4950 4250 0    60   Output ~ 0
brillo
Wire Wire Line
	5100 4250 4950 4250
Text GLabel 6650 3750 0    60   Input ~ 0
brillo
Wire Wire Line
	6650 3750 6800 3750
Text GLabel 6650 4050 0    60   Input ~ 0
volAmp
Text GLabel 7700 2900 2    60   Output ~ 0
volAmp
Wire Wire Line
	7500 2900 7700 2900
Wire Wire Line
	6650 4050 6800 4050
Text GLabel 4950 4400 0    60   Output ~ 0
forma
Wire Wire Line
	4950 4400 5100 4400
Text GLabel 6650 3600 0    60   Input ~ 0
forma
Wire Wire Line
	6800 3600 6650 3600
Text GLabel 6650 3900 0    60   Input ~ 0
onda
Wire Wire Line
	6650 3900 6800 3900
Text GLabel 4100 3700 2    60   Output ~ 0
onda
Wire Wire Line
	3850 3700 4100 3700
Wire Wire Line
	7700 3850 8300 3850
Wire Wire Line
	8300 3850 8300 4550
Wire Wire Line
	8300 4550 6150 4550
Text Notes 2800 2250 0    118  ~ 24
B
Text Notes 1450 2250 0    118  ~ 24
A
Text Notes 4050 2600 0    118  ~ 24
C
Text Notes 5350 1650 0    118  ~ 24
D
Text Notes 5250 3350 0    118  ~ 24
E
Text Notes 7050 2450 0    118  ~ 24
F
Text Notes 1400 3200 0    118  ~ 24
G
Text Notes 3400 4200 0    118  ~ 24
H
Text Notes 5550 3950 0    118  ~ 24
I
Text Notes 7150 3400 0    118  ~ 24
J
Text Notes 9100 4400 0    60   ~ 0
Análoga II montaje\n\n3086 a,b,c,d,e\n\nU1 3086\na,b en osc tono var\nc,d,e osc tono fijo\n\nU2 3086\na,b,c oscilador volumen\n\nU3 LM13600\n\nU4 7812\n\nU5 7912
$EndSCHEMATC
