EESchema Schematic File Version 2
LIBS:theremind-rescue
LIBS:power
LIBS:device
LIBS:transistors
LIBS:conn
LIBS:linear
LIBS:regul
LIBS:74xx
LIBS:cmos4000
LIBS:adc-dac
LIBS:memory
LIBS:xilinx
LIBS:microcontrollers
LIBS:dsp
LIBS:microchip
LIBS:analog_switches
LIBS:motorola
LIBS:texas
LIBS:intel
LIBS:audio
LIBS:interface
LIBS:digital-audio
LIBS:philips
LIBS:display
LIBS:cypress
LIBS:siliconi
LIBS:opto
LIBS:atmel
LIBS:contrib
LIBS:valves
LIBS:switches
LIBS:myTransistors
LIBS:theremind-cache
EELAYER 25 0
EELAYER END
$Descr A4 11693 8268
encoding utf-8
Sheet 9 13
Title "Theremind"
Date ""
Rev "0.1"
Comp "Hijos de Pachamama"
Comment1 "jgcubidesc@unal.edu.co"
Comment2 "Johnny Cubides"
Comment3 "crpulidog@unal.edu.co"
Comment4 "Carolina Pulido "
$EndDescr
$Comp
L POT RVi1
U 1 1 5922E296
P 2400 3600
F 0 "RVi1" V 2225 3600 50  0000 C CNN
F 1 "50k" V 2300 3600 50  0000 C CNN
F 2 "" H 2400 3600 50  0001 C CNN
F 3 "" H 2400 3600 50  0000 C CNN
	1    2400 3600
	1    0    0    -1  
$EndComp
$Comp
L GND #PWR037
U 1 1 5922E41C
P 2400 3850
F 0 "#PWR037" H 2400 3600 50  0001 C CNN
F 1 "GND" H 2400 3700 50  0000 C CNN
F 2 "" H 2400 3850 50  0000 C CNN
F 3 "" H 2400 3850 50  0000 C CNN
	1    2400 3850
	1    0    0    -1  
$EndComp
$Comp
L POT RVi3
U 1 1 5922E60A
P 3900 3600
F 0 "RVi3" V 3725 3600 50  0000 C CNN
F 1 "5k" V 3800 3600 50  0000 C CNN
F 2 "" H 3900 3600 50  0001 C CNN
F 3 "" H 3900 3600 50  0000 C CNN
	1    3900 3600
	1    0    0    -1  
$EndComp
$Comp
L GND #PWR038
U 1 1 5922E610
P 3900 3850
F 0 "#PWR038" H 3900 3600 50  0001 C CNN
F 1 "GND" H 3900 3700 50  0000 C CNN
F 2 "" H 3900 3850 50  0000 C CNN
F 3 "" H 3900 3850 50  0000 C CNN
	1    3900 3850
	1    0    0    -1  
$EndComp
$Comp
L POT RVi4
U 1 1 5922E67A
P 5100 3600
F 0 "RVi4" V 4925 3600 50  0000 C CNN
F 1 "5k" V 5000 3600 50  0000 C CNN
F 2 "" H 5100 3600 50  0001 C CNN
F 3 "" H 5100 3600 50  0000 C CNN
	1    5100 3600
	1    0    0    -1  
$EndComp
$Comp
L GND #PWR039
U 1 1 5922E680
P 5100 3850
F 0 "#PWR039" H 5100 3600 50  0001 C CNN
F 1 "GND" H 5100 3700 50  0000 C CNN
F 2 "" H 5100 3850 50  0000 C CNN
F 3 "" H 5100 3850 50  0000 C CNN
	1    5100 3850
	1    0    0    -1  
$EndComp
$Comp
L POT RVi2
U 1 1 5922E702
P 3900 2450
F 0 "RVi2" V 3725 2450 50  0000 C CNN
F 1 "50K" V 3800 2450 50  0000 C CNN
F 2 "" H 3900 2450 50  0001 C CNN
F 3 "" H 3900 2450 50  0000 C CNN
	1    3900 2450
	1    0    0    -1  
$EndComp
$Comp
L GND #PWR040
U 1 1 5922E708
P 3900 2700
F 0 "#PWR040" H 3900 2450 50  0001 C CNN
F 1 "GND" H 3900 2550 50  0000 C CNN
F 2 "" H 3900 2700 50  0000 C CNN
F 3 "" H 3900 2700 50  0000 C CNN
	1    3900 2700
	1    0    0    -1  
$EndComp
$Comp
L VEE #PWR041
U 1 1 5922E81D
P 2400 3300
F 0 "#PWR041" H 2400 3150 50  0001 C CNN
F 1 "VEE" H 2400 3450 50  0000 C CNN
F 2 "" H 2400 3300 50  0000 C CNN
F 3 "" H 2400 3300 50  0000 C CNN
	1    2400 3300
	1    0    0    -1  
$EndComp
$Comp
L VEE #PWR042
U 1 1 5922E83B
P 3900 3300
F 0 "#PWR042" H 3900 3150 50  0001 C CNN
F 1 "VEE" H 3900 3450 50  0000 C CNN
F 2 "" H 3900 3300 50  0000 C CNN
F 3 "" H 3900 3300 50  0000 C CNN
	1    3900 3300
	1    0    0    -1  
$EndComp
$Comp
L VEE #PWR043
U 1 1 5922E852
P 5100 3300
F 0 "#PWR043" H 5100 3150 50  0001 C CNN
F 1 "VEE" H 5100 3450 50  0000 C CNN
F 2 "" H 5100 3300 50  0000 C CNN
F 3 "" H 5100 3300 50  0000 C CNN
	1    5100 3300
	1    0    0    -1  
$EndComp
Text HLabel 4350 2450 2    60   Output ~ 0
BrilloCtrl
Text HLabel 2850 3600 2    60   Output ~ 0
FormOndaCtrl
Text HLabel 4350 3600 2    60   Output ~ 0
TonoCtrl
Text HLabel 5550 3600 2    60   Output ~ 0
VolumenCtr
$Comp
L VCC #PWR044
U 1 1 5922F3D7
P 3900 2150
F 0 "#PWR044" H 3900 2000 50  0001 C CNN
F 1 "VCC" H 3900 2300 50  0000 C CNN
F 2 "" H 3900 2150 50  0000 C CNN
F 3 "" H 3900 2150 50  0000 C CNN
	1    3900 2150
	1    0    0    -1  
$EndComp
$Comp
L JACK_2P Ji1
U 1 1 5922FFF9
P 6500 2350
F 0 "Ji1" H 6150 2150 50  0000 C CNN
F 1 "JACK_2P" H 6350 2600 50  0000 C CNN
F 2 "" H 6500 2350 50  0001 C CNN
F 3 "" H 6500 2350 50  0000 C CNN
	1    6500 2350
	-1   0    0    1   
$EndComp
$Comp
L GND #PWR045
U 1 1 59230362
P 5750 2250
F 0 "#PWR045" H 5750 2000 50  0001 C CNN
F 1 "GND" H 5750 2100 50  0000 C CNN
F 2 "" H 5750 2250 50  0000 C CNN
F 3 "" H 5750 2250 50  0000 C CNN
	1    5750 2250
	0    1    1    0   
$EndComp
Text HLabel 5650 2500 0    60   Input ~ 0
InAudio
$Comp
L CONN_01X02-RESCUE-theremind Pi1
U 1 1 5924D04B
P 6300 2850
AR Path="/5924D04B" Ref="Pi1"  Part="1" 
AR Path="/5922E11D/5924D04B" Ref="Pi1"  Part="1" 
F 0 "Pi1" H 6300 3000 50  0000 C CNN
F 1 "CONN_01X02" V 6400 2850 50  0000 C CNN
F 2 "" H 6300 2850 50  0001 C CNN
F 3 "" H 6300 2850 50  0000 C CNN
	1    6300 2850
	1    0    0    -1  
$EndComp
Wire Wire Line
	2400 3450 2400 3300
Wire Wire Line
	2400 3750 2400 3850
Wire Wire Line
	2550 3600 2850 3600
Wire Wire Line
	3900 3450 3900 3300
Wire Wire Line
	3900 3750 3900 3850
Wire Wire Line
	4050 3600 4350 3600
Wire Wire Line
	5100 3450 5100 3300
Wire Wire Line
	5100 3750 5100 3850
Wire Wire Line
	5250 3600 5550 3600
Wire Wire Line
	3900 2300 3900 2150
Wire Wire Line
	3900 2600 3900 2700
Wire Wire Line
	4050 2450 4350 2450
Wire Wire Line
	5750 2250 6050 2250
Wire Wire Line
	5900 2350 6050 2350
Wire Wire Line
	5650 2500 6050 2500
Wire Wire Line
	6100 2800 6000 2800
Wire Wire Line
	6000 2800 6000 2500
Connection ~ 6000 2500
Wire Wire Line
	6100 2900 5900 2900
Wire Wire Line
	5900 2900 5900 2350
$EndSCHEMATC
