EESchema Schematic File Version 2
LIBS:theremind-rescue
LIBS:power
LIBS:device
LIBS:transistors
LIBS:conn
LIBS:linear
LIBS:regul
LIBS:74xx
LIBS:cmos4000
LIBS:adc-dac
LIBS:memory
LIBS:xilinx
LIBS:microcontrollers
LIBS:dsp
LIBS:microchip
LIBS:analog_switches
LIBS:motorola
LIBS:texas
LIBS:intel
LIBS:audio
LIBS:interface
LIBS:digital-audio
LIBS:philips
LIBS:display
LIBS:cypress
LIBS:siliconi
LIBS:opto
LIBS:atmel
LIBS:contrib
LIBS:valves
LIBS:switches
LIBS:myTransistors
LIBS:theremind-cache
EELAYER 25 0
EELAYER END
$Descr A4 11693 8268
encoding utf-8
Sheet 5 13
Title "Theremind"
Date ""
Rev "0.1"
Comp "Hijos de Pachamama"
Comment1 "jgcubidesc@unal.edu.co"
Comment2 "Johnny Cubides"
Comment3 "crpulidog@unal.edu.co"
Comment4 "Carolina Pulido "
$EndDescr
$Comp
L L L3
U 1 1 591A0F01
P 2350 2700
F 0 "L3" V 2300 2700 50  0000 C CNN
F 1 "100uH" V 2425 2700 50  0000 C CNN
F 2 "" H 2350 2700 50  0001 C CNN
F 3 "" H 2350 2700 50  0000 C CNN
	1    2350 2700
	1    0    0    -1  
$EndComp
$Comp
L C Cc1
U 1 1 5922B960
P 2000 2700
F 0 "Cc1" H 2025 2800 50  0000 L CNN
F 1 "3900pF" H 2025 2600 50  0000 L CNN
F 2 "" H 2038 2550 50  0001 C CNN
F 3 "" H 2000 2700 50  0000 C CNN
	1    2000 2700
	1    0    0    -1  
$EndComp
$Comp
L lm3086-RESCUE-theremind U1
U 3 1 591A11AB
P 2250 3700
F 0 "U1" H 2000 3450 60  0000 C CNN
F 1 "lm3086" H 1950 4000 60  0000 C CNN
F 2 "" H 2000 3700 60  0001 C CNN
F 3 "" H 2000 3700 60  0001 C CNN
	3    2250 3700
	1    0    0    -1  
$EndComp
$Comp
L lm3086-RESCUE-theremind U1
U 4 1 591A120E
P 3350 3700
F 0 "U1" H 3100 3450 60  0000 C CNN
F 1 "lm3086" H 3050 4000 60  0000 C CNN
F 2 "" H 3100 3700 60  0001 C CNN
F 3 "" H 3100 3700 60  0001 C CNN
	4    3350 3700
	-1   0    0    -1  
$EndComp
$Comp
L R Rc2
U 1 1 5922B961
P 2800 4650
F 0 "Rc2" V 2880 4650 50  0000 C CNN
F 1 "2.2k" V 2800 4650 50  0000 C CNN
F 2 "" V 2730 4650 50  0001 C CNN
F 3 "" H 2800 4650 50  0000 C CNN
	1    2800 4650
	1    0    0    -1  
$EndComp
$Comp
L VEE #PWR09
U 1 1 5922B962
P 2800 5050
F 0 "#PWR09" H 2800 4900 50  0001 C CNN
F 1 "VEE" H 2800 5200 50  0000 C CNN
F 2 "" H 2800 5050 50  0000 C CNN
F 3 "" H 2800 5050 50  0000 C CNN
	1    2800 5050
	-1   0    0    1   
$EndComp
$Comp
L VCC #PWR010
U 1 1 5922B963
P 2200 2300
F 0 "#PWR010" H 2200 2150 50  0001 C CNN
F 1 "VCC" H 2200 2450 50  0000 C CNN
F 2 "" H 2200 2300 50  0000 C CNN
F 3 "" H 2200 2300 50  0000 C CNN
	1    2200 2300
	1    0    0    -1  
$EndComp
$Comp
L R Rc1
U 1 1 591A1AF0
P 1550 4000
F 0 "Rc1" V 1630 4000 50  0000 C CNN
F 1 "1k" V 1550 4000 50  0000 C CNN
F 2 "" V 1480 4000 50  0001 C CNN
F 3 "" H 1550 4000 50  0000 C CNN
	1    1550 4000
	1    0    0    -1  
$EndComp
$Comp
L GND #PWR011
U 1 1 5922B965
P 1550 4250
F 0 "#PWR011" H 1550 4000 50  0001 C CNN
F 1 "GND" H 1550 4100 50  0000 C CNN
F 2 "" H 1550 4250 50  0000 C CNN
F 3 "" H 1550 4250 50  0000 C CNN
	1    1550 4250
	1    0    0    -1  
$EndComp
$Comp
L C Cc2
U 1 1 5922B966
P 2800 3050
F 0 "Cc2" H 2825 3150 50  0000 L CNN
F 1 "0.01uF" H 2825 2950 50  0000 L CNN
F 2 "" H 2838 2900 50  0001 C CNN
F 3 "" H 2800 3050 50  0000 C CNN
	1    2800 3050
	0    1    1    0   
$EndComp
$Comp
L R Rc3
U 1 1 591A2130
P 3800 3050
F 0 "Rc3" V 3880 3050 50  0000 C CNN
F 1 "47k" V 3800 3050 50  0000 C CNN
F 2 "" V 3730 3050 50  0001 C CNN
F 3 "" H 3800 3050 50  0000 C CNN
	1    3800 3050
	0    -1   -1   0   
$EndComp
$Comp
L R Rc4
U 1 1 5922B967
P 4050 4050
F 0 "Rc4" V 4130 4050 50  0000 C CNN
F 1 "1k" V 4050 4050 50  0000 C CNN
F 2 "" V 3980 4050 50  0001 C CNN
F 3 "" H 4050 4050 50  0000 C CNN
	1    4050 4050
	1    0    0    -1  
$EndComp
$Comp
L GND #PWR012
U 1 1 5922B968
P 4050 4450
F 0 "#PWR012" H 4050 4200 50  0001 C CNN
F 1 "GND" H 4050 4300 50  0000 C CNN
F 2 "" H 4050 4450 50  0000 C CNN
F 3 "" H 4050 4450 50  0000 C CNN
	1    4050 4450
	1    0    0    -1  
$EndComp
Wire Wire Line
	2350 4100 2350 4350
Wire Wire Line
	2350 4350 3250 4350
Wire Wire Line
	3250 4350 3250 4100
Wire Wire Line
	2800 4500 2800 4350
Connection ~ 2800 4350
Wire Wire Line
	2800 4800 2800 5050
Wire Wire Line
	2350 2850 2350 3300
Wire Wire Line
	2000 2850 2000 3050
Connection ~ 2350 3050
Connection ~ 2000 3050
Wire Wire Line
	2000 2550 2000 2300
Wire Wire Line
	2000 2300 2350 2300
Wire Wire Line
	2350 2300 2350 2550
Connection ~ 2200 2300
Wire Wire Line
	1800 3700 1550 3700
Wire Wire Line
	1550 3700 1550 3850
Wire Wire Line
	1550 4150 1550 4250
Wire Wire Line
	4050 4200 4050 4450
Wire Wire Line
	3950 3050 4050 3050
Wire Wire Line
	4050 3050 4050 3900
Wire Wire Line
	3800 3700 4050 3700
Connection ~ 4050 3700
Wire Wire Line
	2950 3050 3650 3050
$Comp
L VCC #PWR013
U 1 1 5922B969
P 3250 2900
F 0 "#PWR013" H 3250 2750 50  0001 C CNN
F 1 "VCC" H 3250 3050 50  0000 C CNN
F 2 "" H 3250 2900 50  0000 C CNN
F 3 "" H 3250 2900 50  0000 C CNN
	1    3250 2900
	1    0    0    -1  
$EndComp
Wire Wire Line
	3250 2900 3250 3300
$Comp
L VCC #PWR014
U 1 1 591A2A26
P 4500 3000
F 0 "#PWR014" H 4500 2850 50  0001 C CNN
F 1 "VCC" H 4500 3150 50  0000 C CNN
F 2 "" H 4500 3000 50  0000 C CNN
F 3 "" H 4500 3000 50  0000 C CNN
	1    4500 3000
	1    0    0    -1  
$EndComp
$Comp
L GND #PWR015
U 1 1 591A2A4E
P 4500 3500
F 0 "#PWR015" H 4500 3250 50  0001 C CNN
F 1 "GND" H 4500 3350 50  0000 C CNN
F 2 "" H 4500 3500 50  0000 C CNN
F 3 "" H 4500 3500 50  0000 C CNN
	1    4500 3500
	1    0    0    -1  
$EndComp
Wire Wire Line
	4500 3000 4500 3100
Wire Wire Line
	4500 3400 4500 3500
Text GLabel 2650 2700 2    60   Input ~ 0
otf1
Wire Wire Line
	2650 2700 2500 2700
Wire Wire Line
	2500 2700 2500 3050
Connection ~ 2500 3050
Text GLabel 5200 2400 0    60   Input ~ 0
otf1
$Comp
L lm3086-RESCUE-theremind U1
U 5 1 591A36D7
P 5600 3200
F 0 "U1" H 5350 2950 60  0000 C CNN
F 1 "lm3086" H 5300 3500 60  0000 C CNN
F 2 "" H 5350 3200 60  0001 C CNN
F 3 "" H 5350 3200 60  0001 C CNN
	5    5600 3200
	-1   0    0    -1  
$EndComp
Wire Wire Line
	5500 2800 5500 2400
Wire Wire Line
	5200 2400 6650 2400
$Comp
L R Rc5
U 1 1 591A39A1
P 5150 4150
F 0 "Rc5" V 5230 4150 50  0000 C CNN
F 1 "10k" V 5150 4150 50  0000 C CNN
F 2 "" V 5080 4150 50  0001 C CNN
F 3 "" H 5150 4150 50  0000 C CNN
	1    5150 4150
	1    0    0    -1  
$EndComp
$Comp
L R Rc6
U 1 1 591A39DE
P 5500 4150
F 0 "Rc6" V 5580 4150 50  0000 C CNN
F 1 "10k" V 5500 4150 50  0000 C CNN
F 2 "" V 5430 4150 50  0001 C CNN
F 3 "" H 5500 4150 50  0000 C CNN
	1    5500 4150
	1    0    0    -1  
$EndComp
Wire Wire Line
	5500 3600 5500 4000
Wire Wire Line
	4850 4000 4850 3750
Wire Wire Line
	4850 3750 5850 3750
Connection ~ 5500 3750
Wire Wire Line
	5150 4000 5150 3750
Connection ~ 5150 3750
$Comp
L GND #PWR016
U 1 1 591A3C3B
P 4850 4400
F 0 "#PWR016" H 4850 4150 50  0001 C CNN
F 1 "GND" H 4850 4250 50  0000 C CNN
F 2 "" H 4850 4400 50  0000 C CNN
F 3 "" H 4850 4400 50  0000 C CNN
	1    4850 4400
	1    0    0    -1  
$EndComp
$Comp
L VEE #PWR017
U 1 1 5922B96E
P 5150 4450
F 0 "#PWR017" H 5150 4300 50  0001 C CNN
F 1 "VEE" H 5150 4600 50  0000 C CNN
F 2 "" H 5150 4450 50  0000 C CNN
F 3 "" H 5150 4450 50  0000 C CNN
	1    5150 4450
	-1   0    0    1   
$EndComp
Text HLabel 5500 4700 3    60   Input ~ 0
otfControl
Wire Wire Line
	5500 4300 5500 4700
Wire Wire Line
	5150 4300 5150 4450
Wire Wire Line
	4850 4300 4850 4400
$Comp
L R Rc7
U 1 1 5922B96F
P 6350 3200
F 0 "Rc7" V 6430 3200 50  0000 C CNN
F 1 "470" V 6350 3200 50  0000 C CNN
F 2 "" V 6280 3200 50  0001 C CNN
F 3 "" H 6350 3200 50  0000 C CNN
	1    6350 3200
	0    1    1    0   
$EndComp
$Comp
L C Cc6
U 1 1 5922B970
P 6650 2700
F 0 "Cc6" H 6675 2800 50  0000 L CNN
F 1 "33pF" H 6675 2600 50  0000 L CNN
F 2 "" H 6688 2550 50  0001 C CNN
F 3 "" H 6650 2700 50  0000 C CNN
	1    6650 2700
	1    0    0    -1  
$EndComp
Wire Wire Line
	6650 2400 6650 2550
Connection ~ 5500 2400
Wire Wire Line
	6650 2850 6650 3350
Wire Wire Line
	6650 3200 6500 3200
Wire Wire Line
	6050 3200 6200 3200
$Comp
L R Rc8
U 1 1 5922B972
P 6650 3500
F 0 "Rc8" V 6730 3500 50  0000 C CNN
F 1 "33" V 6650 3500 50  0000 C CNN
F 2 "" V 6580 3500 50  0001 C CNN
F 3 "" H 6650 3500 50  0000 C CNN
	1    6650 3500
	1    0    0    -1  
$EndComp
Connection ~ 6650 3200
Wire Wire Line
	6650 3650 6650 4000
Wire Wire Line
	6150 3750 6900 3750
$Comp
L R Rc9
U 1 1 591A4A8A
P 6650 4150
F 0 "Rc9" V 6730 4150 50  0000 C CNN
F 1 "10k" V 6650 4150 50  0000 C CNN
F 2 "" V 6580 4150 50  0001 C CNN
F 3 "" H 6650 4150 50  0000 C CNN
	1    6650 4150
	1    0    0    -1  
$EndComp
$Comp
L R Rc10
U 1 1 591A4AD5
P 6900 4150
F 0 "Rc10" V 6980 4150 50  0000 C CNN
F 1 "2.2k" V 6900 4150 50  0000 C CNN
F 2 "" V 6830 4150 50  0001 C CNN
F 3 "" H 6900 4150 50  0000 C CNN
	1    6900 4150
	1    0    0    -1  
$EndComp
Connection ~ 6650 3750
Wire Wire Line
	6900 3750 6900 4000
$Comp
L VEE #PWR018
U 1 1 591A4D53
P 6650 4500
F 0 "#PWR018" H 6650 4350 50  0001 C CNN
F 1 "VEE" H 6650 4650 50  0000 C CNN
F 2 "" H 6650 4500 50  0000 C CNN
F 3 "" H 6650 4500 50  0000 C CNN
	1    6650 4500
	-1   0    0    1   
$EndComp
$Comp
L GND #PWR019
U 1 1 5922B976
P 6900 4500
F 0 "#PWR019" H 6900 4250 50  0001 C CNN
F 1 "GND" H 6900 4350 50  0000 C CNN
F 2 "" H 6900 4500 50  0000 C CNN
F 3 "" H 6900 4500 50  0000 C CNN
	1    6900 4500
	1    0    0    -1  
$EndComp
Wire Wire Line
	6650 4300 6650 4500
Wire Wire Line
	6900 4300 6900 4500
Text Notes 2500 2650 0    60   ~ 0
Variable\npara fijar\n   |\n<-
Wire Wire Line
	1800 3050 2650 3050
$Comp
L CP Cc3
U 1 1 59231869
P 4500 3250
F 0 "Cc3" H 4525 3350 50  0000 L CNN
F 1 "1uF" H 4525 3150 50  0000 L CNN
F 2 "" H 4538 3100 50  0001 C CNN
F 3 "" H 4500 3250 50  0000 C CNN
	1    4500 3250
	1    0    0    -1  
$EndComp
$Comp
L CP Cc4
U 1 1 59231EE9
P 4850 4150
F 0 "Cc4" H 4875 4250 50  0000 L CNN
F 1 "1uF" H 4875 4050 50  0000 L CNN
F 2 "" H 4888 4000 50  0001 C CNN
F 3 "" H 4850 4150 50  0000 C CNN
	1    4850 4150
	-1   0    0    1   
$EndComp
$Comp
L CP Cc5
U 1 1 5923245D
P 6000 3750
F 0 "Cc5" H 6025 3850 50  0000 L CNN
F 1 "1uF" H 6025 3650 50  0000 L CNN
F 2 "" H 6038 3600 50  0001 C CNN
F 3 "" H 6000 3750 50  0000 C CNN
	1    6000 3750
	0    1    1    0   
$EndComp
Text HLabel 1800 3050 0    60   Output ~ 0
otfOut
$EndSCHEMATC
