EESchema Schematic File Version 2
LIBS:theremind-rescue
LIBS:power
LIBS:device
LIBS:transistors
LIBS:conn
LIBS:linear
LIBS:regul
LIBS:74xx
LIBS:cmos4000
LIBS:adc-dac
LIBS:memory
LIBS:xilinx
LIBS:microcontrollers
LIBS:dsp
LIBS:microchip
LIBS:analog_switches
LIBS:motorola
LIBS:texas
LIBS:intel
LIBS:audio
LIBS:interface
LIBS:digital-audio
LIBS:philips
LIBS:display
LIBS:cypress
LIBS:siliconi
LIBS:opto
LIBS:atmel
LIBS:contrib
LIBS:valves
LIBS:switches
LIBS:myTransistors
LIBS:theremind-cache
EELAYER 25 0
EELAYER END
$Descr A4 11693 8268
encoding utf-8
Sheet 3 13
Title "Theremind"
Date ""
Rev "0.1"
Comp "Hijos de Pachamama"
Comment1 "jgcubidesc@unal.edu.co"
Comment2 "Johnny Cubides"
Comment3 "crpulidog@unal.edu.co"
Comment4 "Carolina Pulido "
$EndDescr
$Comp
L C Cb1
U 1 1 59165E0D
P 1650 2100
F 0 "Cb1" H 1675 2200 50  0000 L CNN
F 1 "3900pF" H 1675 2000 50  0000 L CNN
F 2 "" H 1688 1950 50  0001 C CNN
F 3 "" H 1650 2100 50  0000 C CNN
	1    1650 2100
	1    0    0    -1  
$EndComp
$Comp
L L Lb1
U 1 1 59165EA4
P 2050 2100
F 0 "Lb1" V 2000 2100 50  0000 C CNN
F 1 "100uF" V 2125 2100 50  0000 C CNN
F 2 "" H 2050 2100 50  0001 C CNN
F 3 "" H 2050 2100 50  0000 C CNN
	1    2050 2100
	1    0    0    -1  
$EndComp
$Comp
L lm3086-RESCUE-theremind U1
U 2 1 591677D3
P 2850 3000
AR Path="/591677D3" Ref="U1"  Part="2" 
AR Path="/59165535/591677D3" Ref="U1"  Part="2" 
F 0 "U1" H 2600 2750 60  0000 C CNN
F 1 "lm3086" H 2550 3300 60  0000 C CNN
F 2 "" H 2600 3000 60  0001 C CNN
F 3 "" H 2600 3000 60  0001 C CNN
	2    2850 3000
	-1   0    0    -1  
$EndComp
$Comp
L R Rb2
U 1 1 5916786D
P 2400 3800
F 0 "Rb2" V 2480 3800 50  0000 C CNN
F 1 "2.2k" V 2400 3800 50  0000 C CNN
F 2 "" V 2330 3800 50  0001 C CNN
F 3 "" H 2400 3800 50  0000 C CNN
	1    2400 3800
	1    0    0    -1  
$EndComp
Wire Wire Line
	2050 3400 2050 3550
Wire Wire Line
	2050 3550 2750 3550
Wire Wire Line
	2750 3550 2750 3400
Wire Wire Line
	2400 3650 2400 3550
Connection ~ 2400 3550
Wire Wire Line
	2400 3950 2400 4050
Wire Wire Line
	2050 2600 2050 2250
Wire Wire Line
	1650 2250 1650 2450
Connection ~ 2050 2450
Wire Wire Line
	1650 1950 1650 1800
Wire Wire Line
	1650 1800 2050 1800
Wire Wire Line
	2050 1800 2050 1950
Wire Wire Line
	1850 1800 1850 1750
Connection ~ 1850 1800
Wire Wire Line
	2750 2250 2750 2600
$Comp
L R Rb1
U 1 1 59167E59
P 1350 3450
F 0 "Rb1" V 1430 3450 50  0000 C CNN
F 1 "1k" V 1350 3450 50  0000 C CNN
F 2 "" V 1280 3450 50  0001 C CNN
F 3 "" H 1350 3450 50  0000 C CNN
	1    1350 3450
	1    0    0    -1  
$EndComp
Wire Wire Line
	1350 3300 1350 3000
$Comp
L R Rb3
U 1 1 59167F86
P 3500 3400
F 0 "Rb3" V 3580 3400 50  0000 C CNN
F 1 "1k" V 3500 3400 50  0000 C CNN
F 2 "" V 3430 3400 50  0001 C CNN
F 3 "" H 3500 3400 50  0000 C CNN
	1    3500 3400
	1    0    0    -1  
$EndComp
$Comp
L R Rb4
U 1 1 59167FFC
P 3500 2700
F 0 "Rb4" V 3580 2700 50  0000 C CNN
F 1 "47k" V 3500 2700 50  0000 C CNN
F 2 "" V 3430 2700 50  0001 C CNN
F 3 "" H 3500 2700 50  0000 C CNN
	1    3500 2700
	1    0    0    -1  
$EndComp
Wire Wire Line
	3500 2450 3500 2550
Wire Wire Line
	3500 2850 3500 3250
Wire Wire Line
	3300 3000 3500 3000
Connection ~ 3500 3000
$Comp
L C Cb3
U 1 1 59168215
P 3900 3000
F 0 "Cb3" H 3925 3100 50  0000 L CNN
F 1 "1uF" H 3925 2900 50  0000 L CNN
F 2 "" H 3938 2850 50  0001 C CNN
F 3 "" H 3900 3000 50  0000 C CNN
	1    3900 3000
	1    0    0    -1  
$EndComp
$Comp
L GND #PWR01
U 1 1 59168395
P 3900 3300
F 0 "#PWR01" H 3900 3050 50  0001 C CNN
F 1 "GND" H 3900 3150 50  0000 C CNN
F 2 "" H 3900 3300 50  0000 C CNN
F 3 "" H 3900 3300 50  0000 C CNN
	1    3900 3300
	1    0    0    -1  
$EndComp
Wire Wire Line
	3900 2750 3900 2850
Wire Wire Line
	3900 3150 3900 3300
$Comp
L GND #PWR02
U 1 1 591684FB
P 3500 3650
F 0 "#PWR02" H 3500 3400 50  0001 C CNN
F 1 "GND" H 3500 3500 50  0000 C CNN
F 2 "" H 3500 3650 50  0000 C CNN
F 3 "" H 3500 3650 50  0000 C CNN
	1    3500 3650
	1    0    0    -1  
$EndComp
Wire Wire Line
	3500 3550 3500 3650
$Comp
L C Cb2
U 1 1 591685FB
P 2400 2450
F 0 "Cb2" H 2425 2550 50  0000 L CNN
F 1 "0.01uF" H 2425 2350 50  0000 L CNN
F 2 "" H 2438 2300 50  0001 C CNN
F 3 "" H 2400 2450 50  0000 C CNN
	1    2400 2450
	0    1    1    0   
$EndComp
Wire Wire Line
	1250 2450 2250 2450
Wire Wire Line
	2550 2450 3500 2450
$Comp
L GND #PWR03
U 1 1 59168819
P 1350 3700
F 0 "#PWR03" H 1350 3450 50  0001 C CNN
F 1 "GND" H 1350 3550 50  0000 C CNN
F 2 "" H 1350 3700 50  0000 C CNN
F 3 "" H 1350 3700 50  0000 C CNN
	1    1350 3700
	1    0    0    -1  
$EndComp
Wire Wire Line
	1350 3600 1350 3700
Text HLabel 1250 2450 0    60   Output ~ 0
oscVarPitch
Connection ~ 1650 2450
Wire Wire Line
	1350 3000 1500 3000
Text Notes 2200 2150 0    60   ~ 0
Variable\npara fijar\n   |\n<-
$Comp
L VCC #PWR04
U 1 1 592335B6
P 1850 1750
F 0 "#PWR04" H 1850 1600 50  0001 C CNN
F 1 "VCC" H 1850 1900 50  0000 C CNN
F 2 "" H 1850 1750 50  0000 C CNN
F 3 "" H 1850 1750 50  0000 C CNN
	1    1850 1750
	1    0    0    -1  
$EndComp
$Comp
L VCC #PWR05
U 1 1 59233641
P 2750 2250
F 0 "#PWR05" H 2750 2100 50  0001 C CNN
F 1 "VCC" H 2750 2400 50  0000 C CNN
F 2 "" H 2750 2250 50  0000 C CNN
F 3 "" H 2750 2250 50  0000 C CNN
	1    2750 2250
	1    0    0    -1  
$EndComp
$Comp
L VCC #PWR06
U 1 1 592336A7
P 3900 2750
F 0 "#PWR06" H 3900 2600 50  0001 C CNN
F 1 "VCC" H 3900 2900 50  0000 C CNN
F 2 "" H 3900 2750 50  0000 C CNN
F 3 "" H 3900 2750 50  0000 C CNN
	1    3900 2750
	1    0    0    -1  
$EndComp
$Comp
L VEE #PWR07
U 1 1 59233738
P 2400 4050
F 0 "#PWR07" H 2400 3900 50  0001 C CNN
F 1 "VEE" H 2400 4200 50  0000 C CNN
F 2 "" H 2400 4050 50  0000 C CNN
F 3 "" H 2400 4050 50  0000 C CNN
	1    2400 4050
	-1   0    0    1   
$EndComp
Text HLabel 1250 2250 0    60   Input ~ 0
Antenna
Wire Wire Line
	1250 2250 1450 2250
Wire Wire Line
	1450 2250 1450 2450
Connection ~ 1450 2450
$Comp
L lm3086 U1
U 1 1 59234CF1
P 1950 3000
F 0 "U1" H 1700 2750 60  0000 C CNN
F 1 "lm3086" H 1650 3300 60  0000 C CNN
F 2 "" H 1700 3000 60  0001 C CNN
F 3 "" H 1700 3000 60  0001 C CNN
	1    1950 3000
	1    0    0    -1  
$EndComp
$EndSCHEMATC
