EESchema Schematic File Version 2
LIBS:theremind-rescue
LIBS:power
LIBS:device
LIBS:transistors
LIBS:conn
LIBS:linear
LIBS:regul
LIBS:74xx
LIBS:cmos4000
LIBS:adc-dac
LIBS:memory
LIBS:xilinx
LIBS:microcontrollers
LIBS:dsp
LIBS:microchip
LIBS:analog_switches
LIBS:motorola
LIBS:texas
LIBS:intel
LIBS:audio
LIBS:interface
LIBS:digital-audio
LIBS:philips
LIBS:display
LIBS:cypress
LIBS:siliconi
LIBS:opto
LIBS:atmel
LIBS:contrib
LIBS:valves
LIBS:switches
LIBS:myTransistors
LIBS:theremind-cache
EELAYER 25 0
EELAYER END
$Descr A4 11693 8268
encoding utf-8
Sheet 6 13
Title "Theremind"
Date ""
Rev "0.1"
Comp "Hijos de Pachamama"
Comment1 "jgcubidesc@unal.edu.co"
Comment2 "Johnny Cubides"
Comment3 "crpulidog@unal.edu.co"
Comment4 "Carolina Pulido "
$EndDescr
$Comp
L L L?
U 1 1 5922B95F
P 2350 2700
AR Path="/591A0EBA/5922B95F" Ref="L?"  Part="1" 
AR Path="/591A8A76/5922B95F" Ref="Le1"  Part="1" 
F 0 "Le1" V 2300 2700 50  0000 C CNN
F 1 "68uH" V 2425 2700 50  0000 C CNN
F 2 "" H 2350 2700 50  0001 C CNN
F 3 "" H 2350 2700 50  0000 C CNN
	1    2350 2700
	1    0    0    -1  
$EndComp
$Comp
L C C?
U 1 1 591A0F28
P 2000 2550
AR Path="/591A0EBA/591A0F28" Ref="C?"  Part="1" 
AR Path="/591A8A76/591A0F28" Ref="Ce1"  Part="1" 
F 0 "Ce1" H 2025 2650 50  0000 L CNN
F 1 "1uF" H 2025 2450 50  0000 L CNN
F 2 "" H 2038 2400 50  0001 C CNN
F 3 "" H 2000 2550 50  0000 C CNN
	1    2000 2550
	1    0    0    -1  
$EndComp
$Comp
L R R?
U 1 1 591A1396
P 2800 4650
AR Path="/591A0EBA/591A1396" Ref="R?"  Part="1" 
AR Path="/591A8A76/591A1396" Ref="Re2"  Part="1" 
F 0 "Re2" V 2880 4650 50  0000 C CNN
F 1 "2.2k" V 2800 4650 50  0000 C CNN
F 2 "" V 2730 4650 50  0001 C CNN
F 3 "" H 2800 4650 50  0000 C CNN
	1    2800 4650
	1    0    0    -1  
$EndComp
$Comp
L VEE #PWR?
U 1 1 591A13F7
P 2800 5050
AR Path="/591A0EBA/591A13F7" Ref="#PWR?"  Part="1" 
AR Path="/591A8A76/591A13F7" Ref="#PWR020"  Part="1" 
F 0 "#PWR020" H 2800 4900 50  0001 C CNN
F 1 "VEE" H 2800 5200 50  0000 C CNN
F 2 "" H 2800 5050 50  0000 C CNN
F 3 "" H 2800 5050 50  0000 C CNN
	1    2800 5050
	-1   0    0    1   
$EndComp
$Comp
L VCC #PWR?
U 1 1 591A18BB
P 2200 2150
AR Path="/591A0EBA/591A18BB" Ref="#PWR?"  Part="1" 
AR Path="/591A8A76/591A18BB" Ref="#PWR021"  Part="1" 
F 0 "#PWR021" H 2200 2000 50  0001 C CNN
F 1 "VCC" H 2200 2300 50  0000 C CNN
F 2 "" H 2200 2150 50  0000 C CNN
F 3 "" H 2200 2150 50  0000 C CNN
	1    2200 2150
	1    0    0    -1  
$EndComp
$Comp
L R R?
U 1 1 5922B964
P 1550 4000
AR Path="/591A0EBA/5922B964" Ref="R?"  Part="1" 
AR Path="/591A8A76/5922B964" Ref="Re1"  Part="1" 
F 0 "Re1" V 1630 4000 50  0000 C CNN
F 1 "470" V 1550 4000 50  0000 C CNN
F 2 "" V 1480 4000 50  0001 C CNN
F 3 "" H 1550 4000 50  0000 C CNN
	1    1550 4000
	1    0    0    -1  
$EndComp
$Comp
L GND #PWR?
U 1 1 591A1BA8
P 1550 4250
AR Path="/591A0EBA/591A1BA8" Ref="#PWR?"  Part="1" 
AR Path="/591A8A76/591A1BA8" Ref="#PWR022"  Part="1" 
F 0 "#PWR022" H 1550 4000 50  0001 C CNN
F 1 "GND" H 1550 4100 50  0000 C CNN
F 2 "" H 1550 4250 50  0000 C CNN
F 3 "" H 1550 4250 50  0000 C CNN
	1    1550 4250
	1    0    0    -1  
$EndComp
$Comp
L C C?
U 1 1 591A1CAA
P 2800 3050
AR Path="/591A0EBA/591A1CAA" Ref="C?"  Part="1" 
AR Path="/591A8A76/591A1CAA" Ref="Ce2"  Part="1" 
F 0 "Ce2" H 2825 3150 50  0000 L CNN
F 1 "2200pF" H 2825 2950 50  0000 L CNN
F 2 "" H 2838 2900 50  0001 C CNN
F 3 "" H 2800 3050 50  0000 C CNN
	1    2800 3050
	0    1    1    0   
$EndComp
$Comp
L R R?
U 1 1 591A21F1
P 4200 4100
AR Path="/591A0EBA/591A21F1" Ref="R?"  Part="1" 
AR Path="/591A8A76/591A21F1" Ref="Re3"  Part="1" 
F 0 "Re3" V 4280 4100 50  0000 C CNN
F 1 "470" V 4200 4100 50  0000 C CNN
F 2 "" V 4130 4100 50  0001 C CNN
F 3 "" H 4200 4100 50  0000 C CNN
	1    4200 4100
	1    0    0    -1  
$EndComp
$Comp
L GND #PWR?
U 1 1 591A2224
P 3900 4400
AR Path="/591A0EBA/591A2224" Ref="#PWR?"  Part="1" 
AR Path="/591A8A76/591A2224" Ref="#PWR023"  Part="1" 
F 0 "#PWR023" H 3900 4150 50  0001 C CNN
F 1 "GND" H 3900 4250 50  0000 C CNN
F 2 "" H 3900 4400 50  0000 C CNN
F 3 "" H 3900 4400 50  0000 C CNN
	1    3900 4400
	1    0    0    -1  
$EndComp
Wire Wire Line
	2350 4100 2350 4350
Wire Wire Line
	2350 4350 3250 4350
Wire Wire Line
	3250 4350 3250 4100
Wire Wire Line
	2800 4500 2800 4350
Connection ~ 2800 4350
Wire Wire Line
	2800 4800 2800 5050
Wire Wire Line
	2350 2850 2350 3300
Wire Wire Line
	2000 2300 2350 2300
Wire Wire Line
	2350 2300 2350 2550
Wire Wire Line
	1800 3700 1550 3700
Wire Wire Line
	1550 3700 1550 3850
Wire Wire Line
	1550 4150 1550 4250
$Comp
L VCC #PWR?
U 1 1 591A24FD
P 3250 2900
AR Path="/591A0EBA/591A24FD" Ref="#PWR?"  Part="1" 
AR Path="/591A8A76/591A24FD" Ref="#PWR024"  Part="1" 
F 0 "#PWR024" H 3250 2750 50  0001 C CNN
F 1 "VCC" H 3250 3050 50  0000 C CNN
F 2 "" H 3250 2900 50  0000 C CNN
F 3 "" H 3250 2900 50  0000 C CNN
	1    3250 2900
	1    0    0    -1  
$EndComp
Wire Wire Line
	3250 2900 3250 3300
Text GLabel 2650 2800 2    60   Input ~ 0
ov1
Wire Wire Line
	5500 2800 5500 2400
Wire Wire Line
	5200 2400 6650 2400
$Comp
L R R?
U 1 1 5922B96B
P 5150 4150
AR Path="/591A0EBA/5922B96B" Ref="R?"  Part="1" 
AR Path="/591A8A76/5922B96B" Ref="Re4"  Part="1" 
F 0 "Re4" V 5230 4150 50  0000 C CNN
F 1 "10k" V 5150 4150 50  0000 C CNN
F 2 "" V 5080 4150 50  0001 C CNN
F 3 "" H 5150 4150 50  0000 C CNN
	1    5150 4150
	1    0    0    -1  
$EndComp
$Comp
L R R?
U 1 1 5922B96C
P 5500 4150
AR Path="/591A0EBA/5922B96C" Ref="R?"  Part="1" 
AR Path="/591A8A76/5922B96C" Ref="Re5"  Part="1" 
F 0 "Re5" V 5580 4150 50  0000 C CNN
F 1 "2.7k" V 5500 4150 50  0000 C CNN
F 2 "" V 5430 4150 50  0001 C CNN
F 3 "" H 5500 4150 50  0000 C CNN
	1    5500 4150
	1    0    0    -1  
$EndComp
Wire Wire Line
	5500 3600 5500 4000
Wire Wire Line
	4850 4000 4850 3750
Wire Wire Line
	4850 3750 5850 3750
Connection ~ 5500 3750
Wire Wire Line
	5150 4000 5150 3750
Connection ~ 5150 3750
$Comp
L GND #PWR?
U 1 1 5922B96D
P 4850 4400
AR Path="/591A0EBA/5922B96D" Ref="#PWR?"  Part="1" 
AR Path="/591A8A76/5922B96D" Ref="#PWR025"  Part="1" 
F 0 "#PWR025" H 4850 4150 50  0001 C CNN
F 1 "GND" H 4850 4250 50  0000 C CNN
F 2 "" H 4850 4400 50  0000 C CNN
F 3 "" H 4850 4400 50  0000 C CNN
	1    4850 4400
	1    0    0    -1  
$EndComp
$Comp
L VEE #PWR?
U 1 1 591A3C6D
P 5150 4450
AR Path="/591A0EBA/591A3C6D" Ref="#PWR?"  Part="1" 
AR Path="/591A8A76/591A3C6D" Ref="#PWR026"  Part="1" 
F 0 "#PWR026" H 5150 4300 50  0001 C CNN
F 1 "VEE" H 5150 4600 50  0000 C CNN
F 2 "" H 5150 4450 50  0000 C CNN
F 3 "" H 5150 4450 50  0000 C CNN
	1    5150 4450
	-1   0    0    1   
$EndComp
Text HLabel 5500 4700 3    60   Input ~ 0
ovControl
Wire Wire Line
	5500 4300 5500 4700
Wire Wire Line
	5150 4300 5150 4450
Wire Wire Line
	4850 4300 4850 4400
$Comp
L R R?
U 1 1 591A456D
P 6350 3200
AR Path="/591A0EBA/591A456D" Ref="R?"  Part="1" 
AR Path="/591A8A76/591A456D" Ref="Re6"  Part="1" 
F 0 "Re6" V 6430 3200 50  0000 C CNN
F 1 "470" V 6350 3200 50  0000 C CNN
F 2 "" V 6280 3200 50  0001 C CNN
F 3 "" H 6350 3200 50  0000 C CNN
	1    6350 3200
	0    1    1    0   
$EndComp
$Comp
L C C?
U 1 1 591A45AC
P 6650 2700
AR Path="/591A0EBA/591A45AC" Ref="C?"  Part="1" 
AR Path="/591A8A76/591A45AC" Ref="Ce6"  Part="1" 
F 0 "Ce6" H 6675 2800 50  0000 L CNN
F 1 "22pF" H 6675 2600 50  0000 L CNN
F 2 "" H 6688 2550 50  0001 C CNN
F 3 "" H 6650 2700 50  0000 C CNN
	1    6650 2700
	1    0    0    -1  
$EndComp
Wire Wire Line
	6650 2400 6650 2550
Connection ~ 5500 2400
Wire Wire Line
	6650 2850 6650 3350
Wire Wire Line
	6650 3200 6500 3200
Wire Wire Line
	6050 3200 6200 3200
$Comp
L R R?
U 1 1 591A48B3
P 6650 3500
AR Path="/591A0EBA/591A48B3" Ref="R?"  Part="1" 
AR Path="/591A8A76/591A48B3" Ref="Re7"  Part="1" 
F 0 "Re7" V 6730 3500 50  0000 C CNN
F 1 "33" V 6650 3500 50  0000 C CNN
F 2 "" V 6580 3500 50  0001 C CNN
F 3 "" H 6650 3500 50  0000 C CNN
	1    6650 3500
	1    0    0    -1  
$EndComp
Connection ~ 6650 3200
Wire Wire Line
	6650 3650 6650 4000
Wire Wire Line
	6150 3750 6900 3750
$Comp
L R R?
U 1 1 5922B973
P 6650 4150
AR Path="/591A0EBA/5922B973" Ref="R?"  Part="1" 
AR Path="/591A8A76/5922B973" Ref="Re8"  Part="1" 
F 0 "Re8" V 6730 4150 50  0000 C CNN
F 1 "10k" V 6650 4150 50  0000 C CNN
F 2 "" V 6580 4150 50  0001 C CNN
F 3 "" H 6650 4150 50  0000 C CNN
	1    6650 4150
	1    0    0    -1  
$EndComp
$Comp
L R R?
U 1 1 5922B974
P 6900 4150
AR Path="/591A0EBA/5922B974" Ref="R?"  Part="1" 
AR Path="/591A8A76/5922B974" Ref="Re9"  Part="1" 
F 0 "Re9" V 6980 4150 50  0000 C CNN
F 1 "2.2k" V 6900 4150 50  0000 C CNN
F 2 "" V 6830 4150 50  0001 C CNN
F 3 "" H 6900 4150 50  0000 C CNN
	1    6900 4150
	1    0    0    -1  
$EndComp
Connection ~ 6650 3750
Wire Wire Line
	6900 3750 6900 4000
$Comp
L VEE #PWR?
U 1 1 5922B975
P 6650 4500
AR Path="/591A0EBA/5922B975" Ref="#PWR?"  Part="1" 
AR Path="/591A8A76/5922B975" Ref="#PWR027"  Part="1" 
F 0 "#PWR027" H 6650 4350 50  0001 C CNN
F 1 "VEE" H 6650 4650 50  0000 C CNN
F 2 "" H 6650 4500 50  0000 C CNN
F 3 "" H 6650 4500 50  0000 C CNN
	1    6650 4500
	-1   0    0    1   
$EndComp
$Comp
L GND #PWR?
U 1 1 591A4D91
P 6900 4500
AR Path="/591A0EBA/591A4D91" Ref="#PWR?"  Part="1" 
AR Path="/591A8A76/591A4D91" Ref="#PWR028"  Part="1" 
F 0 "#PWR028" H 6900 4250 50  0001 C CNN
F 1 "GND" H 6900 4350 50  0000 C CNN
F 2 "" H 6900 4500 50  0000 C CNN
F 3 "" H 6900 4500 50  0000 C CNN
	1    6900 4500
	1    0    0    -1  
$EndComp
Wire Wire Line
	6650 4300 6650 4500
Wire Wire Line
	6900 4300 6900 4500
$Comp
L GND #PWR029
U 1 1 591A9024
P 2000 2800
F 0 "#PWR029" H 2000 2550 50  0001 C CNN
F 1 "GND" H 2000 2650 50  0000 C CNN
F 2 "" H 2000 2800 50  0000 C CNN
F 3 "" H 2000 2800 50  0000 C CNN
	1    2000 2800
	1    0    0    -1  
$EndComp
Wire Wire Line
	2000 2700 2000 2800
Wire Wire Line
	2000 2300 2000 2400
Wire Wire Line
	2200 2150 2200 2300
Connection ~ 2200 2300
Wire Wire Line
	2350 3050 2650 3050
Connection ~ 2350 3050
Connection ~ 2500 3050
$Comp
L C Ce3
U 1 1 591A9773
P 3900 4100
F 0 "Ce3" H 3925 4200 50  0000 L CNN
F 1 "0.01uF" H 3600 4000 50  0000 L CNN
F 2 "" H 3938 3950 50  0001 C CNN
F 3 "" H 3900 4100 50  0000 C CNN
	1    3900 4100
	1    0    0    -1  
$EndComp
$Comp
L GND #PWR030
U 1 1 591A9972
P 4200 4400
F 0 "#PWR030" H 4200 4150 50  0001 C CNN
F 1 "GND" H 4200 4250 50  0000 C CNN
F 2 "" H 4200 4400 50  0000 C CNN
F 3 "" H 4200 4400 50  0000 C CNN
	1    4200 4400
	1    0    0    -1  
$EndComp
Wire Wire Line
	3900 3050 3900 3950
Wire Wire Line
	3800 3700 4200 3700
Wire Wire Line
	4200 2600 4200 3950
Connection ~ 3900 3700
Wire Wire Line
	3900 4400 3900 4250
Wire Wire Line
	4200 4400 4200 4250
Wire Wire Line
	3900 3050 2950 3050
Text GLabel 5200 2400 0    60   Input ~ 0
ov1
$Comp
L lm3086-RESCUE-theremind U2
U 2 1 591AA976
P 3350 3700
F 0 "U2" H 3100 3450 60  0000 C CNN
F 1 "lm3086" H 3050 4000 60  0000 C CNN
F 2 "" H 3100 3700 60  0001 C CNN
F 3 "" H 3100 3700 60  0001 C CNN
	2    3350 3700
	-1   0    0    -1  
$EndComp
$Comp
L lm3086-RESCUE-theremind U2
U 3 1 591AAC20
P 5600 3200
F 0 "U2" H 5350 2950 60  0000 C CNN
F 1 "lm3086" H 5300 3500 60  0000 C CNN
F 2 "" H 5350 3200 60  0001 C CNN
F 3 "" H 5350 3200 60  0001 C CNN
	3    5600 3200
	-1   0    0    -1  
$EndComp
Text Notes 2500 2700 0    60   ~ 0
Variable\npara fijar\n   |\n<-
Wire Wire Line
	2650 2800 2500 2800
Wire Wire Line
	2500 2800 2500 3050
$Comp
L CP Ce5
U 1 1 592372C6
P 6000 3750
F 0 "Ce5" H 6025 3850 50  0000 L CNN
F 1 "1uF" H 6025 3650 50  0000 L CNN
F 2 "" H 6038 3600 50  0001 C CNN
F 3 "" H 6000 3750 50  0000 C CNN
	1    6000 3750
	0    1    1    0   
$EndComp
$Comp
L CP Ce4
U 1 1 59237946
P 4850 4150
F 0 "Ce4" H 4875 4250 50  0000 L CNN
F 1 "1uF" H 4875 4050 50  0000 L CNN
F 2 "" H 4888 4000 50  0001 C CNN
F 3 "" H 4850 4150 50  0000 C CNN
	1    4850 4150
	-1   0    0    1   
$EndComp
Text HLabel 3900 2600 0    60   Output ~ 0
ovOut
Wire Wire Line
	3900 2600 4200 2600
Connection ~ 4200 3700
$Comp
L lm3086 U2
U 1 1 59235F11
P 2250 3700
F 0 "U2" H 2000 3450 60  0000 C CNN
F 1 "lm3086" H 1950 4000 60  0000 C CNN
F 2 "" H 2000 3700 60  0001 C CNN
F 3 "" H 2000 3700 60  0001 C CNN
	1    2250 3700
	1    0    0    -1  
$EndComp
$EndSCHEMATC
