EESchema Schematic File Version 2
LIBS:theremind-rescue
LIBS:power
LIBS:device
LIBS:transistors
LIBS:conn
LIBS:linear
LIBS:regul
LIBS:74xx
LIBS:cmos4000
LIBS:adc-dac
LIBS:memory
LIBS:xilinx
LIBS:microcontrollers
LIBS:dsp
LIBS:microchip
LIBS:analog_switches
LIBS:motorola
LIBS:texas
LIBS:intel
LIBS:audio
LIBS:interface
LIBS:digital-audio
LIBS:philips
LIBS:display
LIBS:cypress
LIBS:siliconi
LIBS:opto
LIBS:atmel
LIBS:contrib
LIBS:valves
LIBS:switches
LIBS:myTransistors
LIBS:theremind-cache
EELAYER 25 0
EELAYER END
$Descr A4 11693 8268
encoding utf-8
Sheet 13 13
Title ""
Date ""
Rev ""
Comp ""
Comment1 ""
Comment2 ""
Comment3 ""
Comment4 ""
$EndDescr
$Comp
L mpq3906 U10
U 1 1 59232A19
P 3000 1250
F 0 "U10" H 2750 1000 60  0000 C CNN
F 1 "mpq3906" H 2700 1550 60  0000 C CNN
F 2 "" H 2750 1250 60  0001 C CNN
F 3 "" H 2750 1250 60  0001 C CNN
	1    3000 1250
	-1   0    0    1   
$EndComp
$Comp
L mpq3906 U10
U 2 1 59232ADA
P 4200 1250
F 0 "U10" H 3950 1000 60  0000 C CNN
F 1 "mpq3906" H 3900 1550 60  0000 C CNN
F 2 "" H 3950 1250 60  0001 C CNN
F 3 "" H 3950 1250 60  0001 C CNN
	2    4200 1250
	1    0    0    1   
$EndComp
$Comp
L mpq3906 U10
U 3 1 59232B75
P 4200 2300
F 0 "U10" H 3950 2050 60  0000 C CNN
F 1 "mpq3906" H 3900 2600 60  0000 C CNN
F 2 "" H 3950 2300 60  0001 C CNN
F 3 "" H 3950 2300 60  0001 C CNN
	3    4200 2300
	1    0    0    1   
$EndComp
$Comp
L lm3086 U11
U 1 1 59232F64
P 2800 4550
F 0 "U11" H 2550 4300 60  0000 C CNN
F 1 "lm3086" H 2500 4850 60  0000 C CNN
F 2 "" H 2550 4550 60  0001 C CNN
F 3 "" H 2550 4550 60  0001 C CNN
	1    2800 4550
	1    0    0    -1  
$EndComp
$Comp
L lm3086 U11
U 2 1 59232FCB
P 4100 4550
F 0 "U11" H 3850 4300 60  0000 C CNN
F 1 "lm3086" H 3800 4850 60  0000 C CNN
F 2 "" H 3850 4550 60  0001 C CNN
F 3 "" H 3850 4550 60  0001 C CNN
	2    4100 4550
	-1   0    0    -1  
$EndComp
$Comp
L lm3086 U11
U 3 1 59233625
P 2050 3950
F 0 "U11" H 1800 3700 60  0000 C CNN
F 1 "lm3086" H 1750 4250 60  0000 C CNN
F 2 "" H 1800 3950 60  0001 C CNN
F 3 "" H 1800 3950 60  0001 C CNN
	3    2050 3950
	1    0    0    -1  
$EndComp
$Comp
L lm3086 U11
U 4 1 5923365A
P 4800 3950
F 0 "U11" H 4550 3700 60  0000 C CNN
F 1 "lm3086" H 4500 4250 60  0000 C CNN
F 2 "" H 4550 3950 60  0001 C CNN
F 3 "" H 4550 3950 60  0001 C CNN
	4    4800 3950
	-1   0    0    -1  
$EndComp
$Comp
L VCC #PWR061
U 1 1 59233B61
P 3600 750
F 0 "#PWR061" H 3600 600 50  0001 C CNN
F 1 "VCC" H 3600 900 50  0000 C CNN
F 2 "" H 3600 750 50  0000 C CNN
F 3 "" H 3600 750 50  0000 C CNN
	1    3600 750 
	1    0    0    -1  
$EndComp
$Comp
L lm3086 U11
U 5 1 592343D4
P 3350 5650
F 0 "U11" H 3100 5400 60  0000 C CNN
F 1 "lm3086" H 3050 5950 60  0000 C CNN
F 2 "" H 3100 5650 60  0001 C CNN
F 3 "" H 3100 5650 60  0001 C CNN
	5    3350 5650
	1    0    0    -1  
$EndComp
$Comp
L lm3086 U12
U 1 1 59234AAC
P 3350 6700
F 0 "U12" H 3100 6450 60  0000 C CNN
F 1 "lm3086" H 3050 7000 60  0000 C CNN
F 2 "" H 3100 6700 60  0001 C CNN
F 3 "" H 3100 6700 60  0001 C CNN
	1    3350 6700
	1    0    0    -1  
$EndComp
$Comp
L lm3086 U12
U 2 1 59234B11
P 2200 6700
F 0 "U12" H 1950 6450 60  0000 C CNN
F 1 "lm3086" H 1900 7000 60  0000 C CNN
F 2 "" H 1950 6700 60  0001 C CNN
F 3 "" H 1950 6700 60  0001 C CNN
	2    2200 6700
	-1   0    0    -1  
$EndComp
$Comp
L lm3086 U12
U 3 1 59234B5E
P 6350 5350
F 0 "U12" H 6100 5100 60  0000 C CNN
F 1 "lm3086" H 6050 5650 60  0000 C CNN
F 2 "" H 6100 5350 60  0001 C CNN
F 3 "" H 6100 5350 60  0001 C CNN
	3    6350 5350
	-1   0    0    -1  
$EndComp
$Comp
L lm3086 U12
U 4 1 59234BCF
P 7550 4300
F 0 "U12" H 7300 4050 60  0000 C CNN
F 1 "lm3086" H 7250 4600 60  0000 C CNN
F 2 "" H 7300 4300 60  0001 C CNN
F 3 "" H 7300 4300 60  0001 C CNN
	4    7550 4300
	1    0    0    -1  
$EndComp
$Comp
L lm3086 U12
U 5 1 59234C4C
P 7550 5350
F 0 "U12" H 7300 5100 60  0000 C CNN
F 1 "lm3086" H 7250 5650 60  0000 C CNN
F 2 "" H 7300 5350 60  0001 C CNN
F 3 "" H 7300 5350 60  0001 C CNN
	5    7550 5350
	1    0    0    -1  
$EndComp
$Comp
L VEE #PWR062
U 1 1 59234F6D
P 2750 7200
F 0 "#PWR062" H 2750 7050 50  0001 C CNN
F 1 "VEE" H 2750 7350 50  0000 C CNN
F 2 "" H 2750 7200 50  0000 C CNN
F 3 "" H 2750 7200 50  0000 C CNN
	1    2750 7200
	-1   0    0    1   
$EndComp
$Comp
L VEE #PWR063
U 1 1 592356DF
P 6950 6000
F 0 "#PWR063" H 6950 5850 50  0001 C CNN
F 1 "VEE" H 6950 6150 50  0000 C CNN
F 2 "" H 6950 6000 50  0000 C CNN
F 3 "" H 6950 6000 50  0000 C CNN
	1    6950 6000
	-1   0    0    1   
$EndComp
$Comp
L mpq3906 U10
U 4 1 592364B8
P 7550 2500
F 0 "U10" H 7300 2250 60  0000 C CNN
F 1 "mpq3906" H 7250 2800 60  0000 C CNN
F 2 "" H 7300 2500 60  0001 C CNN
F 3 "" H 7300 2500 60  0001 C CNN
	4    7550 2500
	1    0    0    1   
$EndComp
$Comp
L VCC #PWR064
U 1 1 59236CE8
P 7000 850
F 0 "#PWR064" H 7000 700 50  0001 C CNN
F 1 "VCC" H 7000 1000 50  0000 C CNN
F 2 "" H 7000 850 50  0000 C CNN
F 3 "" H 7000 850 50  0000 C CNN
	1    7000 850 
	1    0    0    -1  
$EndComp
Wire Wire Line
	3450 1250 3750 1250
Wire Wire Line
	3600 1250 3600 1750
Wire Wire Line
	3600 1750 4300 1750
Wire Wire Line
	4300 1650 4300 1900
Connection ~ 3600 1250
Connection ~ 4300 1750
Wire Wire Line
	2900 1650 2900 4150
Wire Wire Line
	2900 2300 3750 2300
Connection ~ 2900 2300
Wire Wire Line
	2900 4950 2900 5100
Wire Wire Line
	4000 5100 4000 4950
Wire Wire Line
	1400 4550 2350 4550
Wire Wire Line
	2150 4550 2150 4350
Wire Wire Line
	4550 4550 5200 4550
Wire Wire Line
	4700 4550 4700 4350
Wire Wire Line
	2900 850  2900 800 
Wire Wire Line
	2900 800  4300 800 
Wire Wire Line
	4300 800  4300 850 
Wire Wire Line
	3600 750  3600 800 
Connection ~ 3600 800 
Wire Wire Line
	4700 3550 4700 3200
Wire Wire Line
	1450 3200 5250 3200
Wire Wire Line
	2150 3550 2150 3200
Connection ~ 2150 3200
Wire Wire Line
	1600 3950 1600 3200
Connection ~ 1600 3200
Wire Wire Line
	5250 3200 5250 3950
Connection ~ 4700 3200
Wire Wire Line
	3450 5100 3450 5250
Connection ~ 3450 5100
Wire Wire Line
	3450 6050 3450 6300
Wire Wire Line
	2800 6150 3700 6150
Wire Wire Line
	2800 6150 2800 6700
Wire Wire Line
	2650 6700 2900 6700
Connection ~ 3450 6150
Connection ~ 2800 6700
Wire Wire Line
	1750 5650 2900 5650
Wire Wire Line
	2100 5650 2100 6300
Connection ~ 2100 5650
Wire Wire Line
	2100 7100 2100 7150
Wire Wire Line
	2100 7150 3450 7150
Wire Wire Line
	3450 7150 3450 7100
Wire Wire Line
	2750 7200 2750 7150
Connection ~ 2750 7150
Wire Wire Line
	7650 4700 7650 4950
Wire Wire Line
	7650 4800 6950 4800
Wire Wire Line
	6950 4800 6950 5350
Wire Wire Line
	6800 5350 7100 5350
Connection ~ 7650 4800
Connection ~ 6950 5350
Wire Wire Line
	6250 5750 6250 5900
Wire Wire Line
	6250 5900 7650 5900
Wire Wire Line
	7650 5900 7650 5750
Wire Wire Line
	6950 6000 6950 5900
Connection ~ 6950 5900
Wire Wire Line
	4300 2700 4300 2950
Wire Wire Line
	7100 4300 6250 4300
Connection ~ 6250 4300
Wire Wire Line
	6350 1050 6350 950 
Wire Wire Line
	6350 950  7650 950 
Wire Wire Line
	7650 950  7650 1050
Wire Wire Line
	7000 850  7000 950 
Connection ~ 7000 950 
Wire Wire Line
	7650 1850 7650 2100
Wire Wire Line
	6900 1450 7100 1450
Wire Wire Line
	7000 1450 7000 1950
Wire Wire Line
	7000 1950 7650 1950
Connection ~ 7650 1950
Connection ~ 7000 1450
Wire Wire Line
	5750 2500 7100 2500
Wire Wire Line
	6350 2500 6350 1850
Wire Wire Line
	6250 2950 6250 4950
Wire Wire Line
	4300 2950 6250 2950
Wire Wire Line
	4000 4150 4000 3100
Wire Wire Line
	4000 3100 5750 3100
Wire Wire Line
	5750 3100 5750 2500
Connection ~ 6350 2500
Wire Wire Line
	7650 2900 7650 3900
Wire Wire Line
	7650 3150 8250 3150
Connection ~ 7650 3150
Wire Wire Line
	2900 5100 4000 5100
Text Notes 9150 2250 0    60   ~ 0
vca1\n\nU10 mpq3906\na, b, c, d\n\nU11 3086\na,b,c,d,e\n\nU12 3086\na,b,c,d,e\n\nU9 mpq3906\nc, d
Text HLabel 8250 3150 2    60   Output ~ 0
outputvca1
Text HLabel 1450 3200 0    60   Input ~ 0
diodeBIAS1
Text HLabel 1400 4550 0    60   Input ~ 0
in_A_Vca1
Text HLabel 5200 4550 2    60   Input ~ 0
in_B_Vca1
Connection ~ 4700 4550
Connection ~ 2150 4550
Text HLabel 1750 5650 0    60   Input ~ 0
in_amp_BIAS_vca1
$Comp
L mpq3906 U9
U 3 1 5931CE83
P 6450 1450
F 0 "U9" H 6200 1200 60  0000 C CNN
F 1 "mpq3906" H 6150 1750 60  0000 C CNN
F 2 "" H 6200 1450 60  0001 C CNN
F 3 "" H 6200 1450 60  0001 C CNN
	3    6450 1450
	-1   0    0    1   
$EndComp
$Comp
L mpq3906 U9
U 4 1 5931CF71
P 7550 1450
F 0 "U9" H 7300 1200 60  0000 C CNN
F 1 "mpq3906" H 7250 1750 60  0000 C CNN
F 2 "" H 7300 1450 60  0001 C CNN
F 3 "" H 7300 1450 60  0001 C CNN
	4    7550 1450
	1    0    0    1   
$EndComp
Text HLabel 3700 6150 2    60   Output ~ 0
Iref
$EndSCHEMATC
