EESchema Schematic File Version 2
LIBS:theremind-rescue
LIBS:power
LIBS:device
LIBS:transistors
LIBS:conn
LIBS:linear
LIBS:regul
LIBS:74xx
LIBS:cmos4000
LIBS:adc-dac
LIBS:memory
LIBS:xilinx
LIBS:microcontrollers
LIBS:dsp
LIBS:microchip
LIBS:analog_switches
LIBS:motorola
LIBS:texas
LIBS:intel
LIBS:audio
LIBS:interface
LIBS:digital-audio
LIBS:philips
LIBS:display
LIBS:cypress
LIBS:siliconi
LIBS:opto
LIBS:atmel
LIBS:contrib
LIBS:valves
LIBS:switches
LIBS:myTransistors
LIBS:theremind-cache
EELAYER 25 0
EELAYER END
$Descr A4 11693 8268
encoding utf-8
Sheet 10 13
Title "Theremind"
Date ""
Rev "0.1"
Comp "Hijos de Pachamama"
Comment1 "jgcubidesc@unal.edu.co"
Comment2 "Johnny Cubides"
Comment3 "crpulidog@unal.edu.co"
Comment4 "Carolina Pulido "
$EndDescr
$Comp
L R Rf4
U 1 1 59236964
P 5150 2800
F 0 "Rf4" V 5230 2800 50  0000 C CNN
F 1 "47k" V 5150 2800 50  0000 C CNN
F 2 "" V 5080 2800 50  0001 C CNN
F 3 "" H 5150 2800 50  0000 C CNN
	1    5150 2800
	0    1    1    0   
$EndComp
$Comp
L VCC #PWR046
U 1 1 59236CE4
P 4900 2550
F 0 "#PWR046" H 4900 2400 50  0001 C CNN
F 1 "VCC" H 4900 2700 50  0000 C CNN
F 2 "" H 4900 2550 50  0000 C CNN
F 3 "" H 4900 2550 50  0000 C CNN
	1    4900 2550
	1    0    0    -1  
$EndComp
$Sheet
S 5500 2550 1500 650 
U 59232A08
F0 "vca1" 60
F1 "vca1.sch" 60
F2 "outputvca1" O R 7000 2900 60 
F3 "diodeBIAS1" I L 5500 2650 60 
F4 "in_A_Vca1" I L 5500 3050 60 
F5 "in_B_Vca1" I L 5500 3150 60 
F6 "in_amp_BIAS_vca1" I L 5500 2800 60 
$EndSheet
Wire Wire Line
	5300 2650 5500 2650
Wire Wire Line
	4750 2650 5000 2650
Wire Wire Line
	4900 2550 4900 2800
$Comp
L D Df1
U 1 1 5923D781
P 5400 3700
F 0 "Df1" H 5400 3800 50  0000 C CNN
F 1 "1n4148" H 5400 3600 50  0000 C CNN
F 2 "" H 5400 3700 50  0001 C CNN
F 3 "" H 5400 3700 50  0000 C CNN
	1    5400 3700
	-1   0    0    1   
$EndComp
Text HLabel 7700 3400 2    60   Output ~ 0
VolAmpAnt
Wire Wire Line
	7000 2900 7100 2900
Wire Wire Line
	7100 3400 7700 3400
$Comp
L R Rf3
U 1 1 5923E9B1
P 5150 2650
F 0 "Rf3" V 5230 2650 50  0000 C CNN
F 1 "1.8M" V 5150 2650 50  0000 C CNN
F 2 "" V 5080 2650 50  0001 C CNN
F 3 "" H 5150 2650 50  0000 C CNN
	1    5150 2650
	0    1    1    0   
$EndComp
Wire Wire Line
	4900 2800 5000 2800
Connection ~ 4900 2650
Wire Wire Line
	5300 2800 5500 2800
$Comp
L GND #PWR047
U 1 1 5923F014
P 5350 3200
F 0 "#PWR047" H 5350 2950 50  0001 C CNN
F 1 "GND" H 5350 3050 50  0000 C CNN
F 2 "" H 5350 3200 50  0000 C CNN
F 3 "" H 5350 3200 50  0000 C CNN
	1    5350 3200
	1    0    0    -1  
$EndComp
Wire Wire Line
	5350 3200 5350 3150
Wire Wire Line
	5350 3150 5500 3150
Text HLabel 4800 3150 3    60   Input ~ 0
inVolAnt
Wire Wire Line
	4800 3050 5500 3050
$Comp
L R Rf1
U 1 1 5923F581
P 4600 2650
F 0 "Rf1" V 4680 2650 50  0000 C CNN
F 1 "1.8M" V 4600 2650 50  0000 C CNN
F 2 "" V 4530 2650 50  0001 C CNN
F 3 "" H 4600 2650 50  0000 C CNN
	1    4600 2650
	0    -1   -1   0   
$EndComp
$Comp
L R Rf2
U 1 1 5923F634
P 4100 2650
F 0 "Rf2" V 4180 2650 50  0000 C CNN
F 1 "4.7M" V 4100 2650 50  0000 C CNN
F 2 "" V 4030 2650 50  0001 C CNN
F 3 "" H 4100 2650 50  0000 C CNN
	1    4100 2650
	0    1    1    0   
$EndComp
Wire Wire Line
	4250 2650 4450 2650
$Comp
L GND #PWR048
U 1 1 592408FE
P 4350 3350
F 0 "#PWR048" H 4350 3100 50  0001 C CNN
F 1 "GND" H 4350 3200 50  0000 C CNN
F 2 "" H 4350 3350 50  0000 C CNN
F 3 "" H 4350 3350 50  0000 C CNN
	1    4350 3350
	1    0    0    -1  
$EndComp
Connection ~ 4350 2650
$Comp
L C Cf1
U 1 1 592409F3
P 4350 3150
F 0 "Cf1" H 4375 3250 50  0000 L CNN
F 1 "0.1uF" H 4375 3050 50  0000 L CNN
F 2 "" H 4388 3000 50  0001 C CNN
F 3 "" H 4350 3150 50  0000 C CNN
	1    4350 3150
	-1   0    0    1   
$EndComp
Wire Wire Line
	3950 2650 3800 2650
Wire Wire Line
	3800 2650 3800 3700
Wire Wire Line
	3800 3700 5250 3700
Wire Wire Line
	7100 2900 7100 3700
Wire Wire Line
	7100 3700 5550 3700
Connection ~ 7100 3400
Wire Wire Line
	4350 2650 4350 3000
Wire Wire Line
	4350 3300 4350 3350
Wire Wire Line
	4800 2900 4800 3150
Wire Wire Line
	4800 2900 4350 2900
Connection ~ 4350 2900
Connection ~ 4800 3050
$EndSCHEMATC
