%!PS-Adobe-3.0 EPSF-3.0
%%Creator: nutmeg
%%BoundingBox: 54 54 612 612
1 1 scale
1.000 1.000 1.000 setrgbcolor
newpath
54 54 moveto 612 54 lineto
612 612 lineto 54 612 lineto
closepath fill
/Helvetica findfont 10 scalefont setfont

0.000 0.000 0.000 setrgbcolor
0.502 0.502 0.502 setrgbcolor
0.000 0.000 0.000 setrgbcolor
0.000 0.000 0.000 setrgbcolor
243 66 moveto
(time) show
0.000 0.000 0.000 setrgbcolor
0.502 0.502 0.502 setrgbcolor
newpath
78 104 moveto
78 545 lineto
stroke
0.000 0.000 0.000 setrgbcolor
0.000 0.000 0.000 setrgbcolor
60 87 moveto
(8.0080) show
0.000 0.000 0.000 setrgbcolor
0.502 0.502 0.502 setrgbcolor
newpath
140 104 moveto
140 545 lineto
stroke
0.000 0.000 0.000 setrgbcolor
0.000 0.000 0.000 setrgbcolor
122 87 moveto
(8.0090) show
0.000 0.000 0.000 setrgbcolor
0.502 0.502 0.502 setrgbcolor
newpath
202 104 moveto
202 545 lineto
stroke
0.000 0.000 0.000 setrgbcolor
0.000 0.000 0.000 setrgbcolor
184 87 moveto
(8.0100) show
0.000 0.000 0.000 setrgbcolor
0.502 0.502 0.502 setrgbcolor
newpath
264 104 moveto
264 545 lineto
stroke
0.000 0.000 0.000 setrgbcolor
0.000 0.000 0.000 setrgbcolor
246 87 moveto
(8.0110) show
0.000 0.000 0.000 setrgbcolor
0.502 0.502 0.502 setrgbcolor
newpath
326 104 moveto
326 545 lineto
stroke
0.000 0.000 0.000 setrgbcolor
0.000 0.000 0.000 setrgbcolor
308 87 moveto
(8.0120) show
0.000 0.000 0.000 setrgbcolor
0.502 0.502 0.502 setrgbcolor
newpath
388 104 moveto
388 545 lineto
stroke
0.000 0.000 0.000 setrgbcolor
0.000 0.000 0.000 setrgbcolor
370 87 moveto
(8.0130) show
0.000 0.000 0.000 setrgbcolor
0.502 0.502 0.502 setrgbcolor
newpath
450 104 moveto
450 545 lineto
stroke
0.000 0.000 0.000 setrgbcolor
0.000 0.000 0.000 setrgbcolor
432 87 moveto
(8.0140) show
0.000 0.000 0.000 setrgbcolor
0.502 0.502 0.502 setrgbcolor
newpath
512 104 moveto
512 545 lineto
stroke
0.000 0.000 0.000 setrgbcolor
0.000 0.000 0.000 setrgbcolor
494 87 moveto
(8.0150) show
0.000 0.000 0.000 setrgbcolor
0.502 0.502 0.502 setrgbcolor
newpath
574 104 moveto
574 545 lineto
stroke
0.000 0.000 0.000 setrgbcolor
0.000 0.000 0.000 setrgbcolor
556 87 moveto
(8.0160) show
0.000 0.000 0.000 setrgbcolor
0.502 0.502 0.502 setrgbcolor
0.000 0.000 0.000 setrgbcolor
0.000 0.000 0.000 setrgbcolor
382 66 moveto
(ms) show
0.000 0.000 0.000 setrgbcolor
0.502 0.502 0.502 setrgbcolor
newpath
78 104 moveto
574 104 lineto
stroke
0.000 0.000 0.000 setrgbcolor
0.000 0.000 0.000 setrgbcolor
54 101 moveto
(-6.0) show
0.000 0.000 0.000 setrgbcolor
0.502 0.502 0.502 setrgbcolor
newpath
78 167 moveto
574 167 lineto
stroke
0.000 0.000 0.000 setrgbcolor
0.000 0.000 0.000 setrgbcolor
54 164 moveto
(-5.0) show
0.000 0.000 0.000 setrgbcolor
0.502 0.502 0.502 setrgbcolor
newpath
78 230 moveto
574 230 lineto
stroke
0.000 0.000 0.000 setrgbcolor
0.000 0.000 0.000 setrgbcolor
54 227 moveto
(-4.0) show
0.000 0.000 0.000 setrgbcolor
0.502 0.502 0.502 setrgbcolor
newpath
78 293 moveto
574 293 lineto
stroke
0.000 0.000 0.000 setrgbcolor
0.000 0.000 0.000 setrgbcolor
54 290 moveto
(-3.0) show
0.000 0.000 0.000 setrgbcolor
0.502 0.502 0.502 setrgbcolor
newpath
78 356 moveto
574 356 lineto
stroke
0.000 0.000 0.000 setrgbcolor
0.000 0.000 0.000 setrgbcolor
54 353 moveto
(-2.0) show
0.000 0.000 0.000 setrgbcolor
0.502 0.502 0.502 setrgbcolor
newpath
78 419 moveto
574 419 lineto
stroke
0.000 0.000 0.000 setrgbcolor
0.000 0.000 0.000 setrgbcolor
54 416 moveto
(-1.0) show
0.000 0.000 0.000 setrgbcolor
0.502 0.502 0.502 setrgbcolor
0.000 0.000 0.000 setrgbcolor
newpath
78 482 moveto
574 482 lineto
stroke
0.502 0.502 0.502 setrgbcolor
0.000 0.000 0.000 setrgbcolor
0.000 0.000 0.000 setrgbcolor
60 479 moveto
(0.0) show
0.000 0.000 0.000 setrgbcolor
0.502 0.502 0.502 setrgbcolor
newpath
78 545 moveto
574 545 lineto
stroke
0.000 0.000 0.000 setrgbcolor
0.000 0.000 0.000 setrgbcolor
60 542 moveto
(1.0) show
0.000 0.000 0.000 setrgbcolor
0.502 0.502 0.502 setrgbcolor
0.000 0.000 0.000 setrgbcolor
0.000 0.000 0.000 setrgbcolor
54 582 moveto
(V) show
0.000 0.000 0.000 setrgbcolor
0.502 0.502 0.502 setrgbcolor
1.000 0.000 0.000 setrgbcolor
newpath
296 586 moveto
320 586 lineto
stroke
0.000 0.000 0.000 setrgbcolor
0.000 0.000 0.000 setrgbcolor
326 582 moveto
(v(inputa)) show
0.000 0.000 0.000 setrgbcolor
1.000 0.000 0.000 setrgbcolor
newpath
80 483 moveto
86 483 lineto
92 483 lineto
98 483 lineto
105 483 lineto
111 484 lineto
117 484 lineto
123 484 lineto
129 484 lineto
136 484 lineto
142 483 lineto
148 483 lineto
154 483 lineto
160 483 lineto
167 483 lineto
173 483 lineto
179 483 lineto
185 483 lineto
191 482 lineto
198 482 lineto
204 482 lineto
210 482 lineto
216 482 lineto
222 481 lineto
229 481 lineto
235 481 lineto
241 481 lineto
247 481 lineto
253 481 lineto
260 481 lineto
266 480 lineto
272 480 lineto
278 480 lineto
284 480 lineto
291 480 lineto
297 481 lineto
303 481 lineto
309 481 lineto
315 481 lineto
322 481 lineto
328 481 lineto
334 481 lineto
340 481 lineto
346 482 lineto
353 482 lineto
359 482 lineto
365 482 lineto
371 482 lineto
377 483 lineto
384 483 lineto
390 483 lineto
396 483 lineto
402 483 lineto
408 483 lineto
415 483 lineto
421 484 lineto
427 484 lineto
433 484 lineto
439 484 lineto
446 484 lineto
452 483 lineto
458 483 lineto
464 483 lineto
470 483 lineto
477 483 lineto
483 483 lineto
489 483 lineto
495 483 lineto
501 482 lineto
508 482 lineto
514 482 lineto
520 482 lineto
526 482 lineto
532 481 lineto
539 481 lineto
545 481 lineto
551 481 lineto
557 481 lineto
563 481 lineto
570 481 lineto
574 481 lineto
stroke
0.000 0.000 1.000 setrgbcolor
newpath
78 586 moveto
102 586 lineto
stroke
0.000 0.000 0.000 setrgbcolor
0.000 0.000 0.000 setrgbcolor
108 582 moveto
(v(inputb)) show
0.000 0.000 0.000 setrgbcolor
0.000 0.000 1.000 setrgbcolor
newpath
80 481 moveto
86 481 lineto
92 481 lineto
98 481 lineto
105 481 lineto
111 480 lineto
117 480 lineto
123 480 lineto
129 480 lineto
136 480 lineto
142 481 lineto
148 481 lineto
154 481 lineto
160 481 lineto
167 481 lineto
173 481 lineto
179 481 lineto
185 481 lineto
191 482 lineto
198 482 lineto
204 482 lineto
210 482 lineto
216 482 lineto
222 483 lineto
229 483 lineto
235 483 lineto
241 483 lineto
247 483 lineto
253 483 lineto
260 483 lineto
266 484 lineto
272 484 lineto
278 484 lineto
284 484 lineto
291 484 lineto
297 483 lineto
303 483 lineto
309 483 lineto
315 483 lineto
322 483 lineto
328 483 lineto
334 483 lineto
340 483 lineto
346 482 lineto
353 482 lineto
359 482 lineto
365 482 lineto
371 482 lineto
377 481 lineto
384 481 lineto
390 481 lineto
396 481 lineto
402 481 lineto
408 481 lineto
415 481 lineto
421 480 lineto
427 480 lineto
433 480 lineto
439 480 lineto
446 480 lineto
452 481 lineto
458 481 lineto
464 481 lineto
470 481 lineto
477 481 lineto
483 481 lineto
489 481 lineto
495 481 lineto
501 482 lineto
508 482 lineto
514 482 lineto
520 482 lineto
526 482 lineto
532 483 lineto
539 483 lineto
545 483 lineto
551 483 lineto
557 483 lineto
563 483 lineto
570 483 lineto
574 483 lineto
stroke
0.000 1.000 0.000 setrgbcolor
newpath
296 572 moveto
320 572 lineto
stroke
0.000 0.000 0.000 setrgbcolor
0.000 0.000 0.000 setrgbcolor
326 568 moveto
(v(output)) show
0.000 0.000 0.000 setrgbcolor
0.000 1.000 0.000 setrgbcolor
newpath
80 130 moveto
86 130 lineto
92 130 lineto
98 130 lineto
105 130 lineto
111 130 lineto
117 129 lineto
123 129 lineto
129 128 lineto
136 128 lineto
142 127 lineto
148 126 lineto
154 125 lineto
160 124 lineto
167 123 lineto
173 122 lineto
179 121 lineto
185 120 lineto
191 119 lineto
198 118 lineto
204 117 lineto
210 116 lineto
216 115 lineto
222 115 lineto
229 115 lineto
235 115 lineto
241 115 lineto
247 115 lineto
253 115 lineto
260 116 lineto
266 116 lineto
272 117 lineto
278 117 lineto
284 118 lineto
291 119 lineto
297 119 lineto
303 120 lineto
309 121 lineto
315 122 lineto
322 123 lineto
328 123 lineto
334 124 lineto
340 125 lineto
346 126 lineto
353 126 lineto
359 127 lineto
365 128 lineto
371 128 lineto
377 129 lineto
384 129 lineto
390 130 lineto
396 130 lineto
402 130 lineto
408 130 lineto
415 130 lineto
421 130 lineto
427 129 lineto
433 129 lineto
439 128 lineto
446 128 lineto
452 127 lineto
458 126 lineto
464 125 lineto
470 124 lineto
477 123 lineto
483 122 lineto
489 121 lineto
495 120 lineto
501 119 lineto
508 118 lineto
514 117 lineto
520 116 lineto
526 115 lineto
532 115 lineto
539 115 lineto
545 115 lineto
551 115 lineto
557 115 lineto
563 115 lineto
570 116 lineto
574 116 lineto
stroke
0.000 1.000 0.000 setrgbcolor
newpath
78 572 moveto
102 572 lineto
stroke
0.000 0.000 0.000 setrgbcolor
0.000 0.000 0.000 setrgbcolor
108 568 moveto
(v(buffer_out)) show
0.000 0.000 0.000 setrgbcolor
0.000 1.000 0.000 setrgbcolor
newpath
80 482 moveto
86 482 lineto
92 482 lineto
98 482 lineto
105 482 lineto
111 482 lineto
117 482 lineto
123 482 lineto
129 482 lineto
136 482 lineto
142 482 lineto
148 482 lineto
154 482 lineto
160 482 lineto
167 482 lineto
173 482 lineto
179 482 lineto
185 482 lineto
191 482 lineto
198 482 lineto
204 482 lineto
210 482 lineto
216 482 lineto
222 482 lineto
229 482 lineto
235 482 lineto
241 482 lineto
247 482 lineto
253 482 lineto
260 482 lineto
266 482 lineto
272 482 lineto
278 482 lineto
284 482 lineto
291 482 lineto
297 482 lineto
303 482 lineto
309 482 lineto
315 482 lineto
322 482 lineto
328 482 lineto
334 482 lineto
340 482 lineto
346 482 lineto
353 482 lineto
359 482 lineto
365 482 lineto
371 482 lineto
377 482 lineto
384 482 lineto
390 482 lineto
396 482 lineto
402 482 lineto
408 482 lineto
415 482 lineto
421 482 lineto
427 482 lineto
433 482 lineto
439 482 lineto
446 482 lineto
452 482 lineto
458 482 lineto
464 482 lineto
470 482 lineto
477 482 lineto
483 482 lineto
489 482 lineto
495 482 lineto
501 482 lineto
508 482 lineto
514 482 lineto
520 482 lineto
526 482 lineto
532 482 lineto
539 482 lineto
545 482 lineto
551 482 lineto
557 482 lineto
563 482 lineto
570 482 lineto
574 482 lineto
stroke
showpage
%%EOF
