%!PS-Adobe-3.0 EPSF-3.0
%%Creator: nutmeg
%%BoundingBox: 54 54 612 612
1 1 scale
1.000 1.000 1.000 setrgbcolor
newpath
54 54 moveto 612 54 lineto
612 612 lineto 54 612 lineto
closepath fill
/Helvetica findfont 10 scalefont setfont

0.000 0.000 0.000 setrgbcolor
0.502 0.502 0.502 setrgbcolor
0.000 0.000 0.000 setrgbcolor
0.000 0.000 0.000 setrgbcolor
243 66 moveto
(time) show
0.000 0.000 0.000 setrgbcolor
0.502 0.502 0.502 setrgbcolor
newpath
84 104 moveto
84 544 lineto
stroke
0.000 0.000 0.000 setrgbcolor
0.000 0.000 0.000 setrgbcolor
66 87 moveto
(8.0080) show
0.000 0.000 0.000 setrgbcolor
0.502 0.502 0.502 setrgbcolor
newpath
144 104 moveto
144 544 lineto
stroke
0.000 0.000 0.000 setrgbcolor
0.000 0.000 0.000 setrgbcolor
126 87 moveto
(8.0090) show
0.000 0.000 0.000 setrgbcolor
0.502 0.502 0.502 setrgbcolor
newpath
204 104 moveto
204 544 lineto
stroke
0.000 0.000 0.000 setrgbcolor
0.000 0.000 0.000 setrgbcolor
186 87 moveto
(8.0100) show
0.000 0.000 0.000 setrgbcolor
0.502 0.502 0.502 setrgbcolor
newpath
264 104 moveto
264 544 lineto
stroke
0.000 0.000 0.000 setrgbcolor
0.000 0.000 0.000 setrgbcolor
246 87 moveto
(8.0110) show
0.000 0.000 0.000 setrgbcolor
0.502 0.502 0.502 setrgbcolor
newpath
324 104 moveto
324 544 lineto
stroke
0.000 0.000 0.000 setrgbcolor
0.000 0.000 0.000 setrgbcolor
306 87 moveto
(8.0120) show
0.000 0.000 0.000 setrgbcolor
0.502 0.502 0.502 setrgbcolor
newpath
384 104 moveto
384 544 lineto
stroke
0.000 0.000 0.000 setrgbcolor
0.000 0.000 0.000 setrgbcolor
366 87 moveto
(8.0130) show
0.000 0.000 0.000 setrgbcolor
0.502 0.502 0.502 setrgbcolor
newpath
444 104 moveto
444 544 lineto
stroke
0.000 0.000 0.000 setrgbcolor
0.000 0.000 0.000 setrgbcolor
426 87 moveto
(8.0140) show
0.000 0.000 0.000 setrgbcolor
0.502 0.502 0.502 setrgbcolor
newpath
504 104 moveto
504 544 lineto
stroke
0.000 0.000 0.000 setrgbcolor
0.000 0.000 0.000 setrgbcolor
486 87 moveto
(8.0150) show
0.000 0.000 0.000 setrgbcolor
0.502 0.502 0.502 setrgbcolor
newpath
564 104 moveto
564 544 lineto
stroke
0.000 0.000 0.000 setrgbcolor
0.000 0.000 0.000 setrgbcolor
546 87 moveto
(8.0160) show
0.000 0.000 0.000 setrgbcolor
0.502 0.502 0.502 setrgbcolor
0.000 0.000 0.000 setrgbcolor
0.000 0.000 0.000 setrgbcolor
382 66 moveto
(ms) show
0.000 0.000 0.000 setrgbcolor
0.502 0.502 0.502 setrgbcolor
newpath
84 104 moveto
564 104 lineto
stroke
0.000 0.000 0.000 setrgbcolor
0.000 0.000 0.000 setrgbcolor
54 101 moveto
(-4.30) show
0.000 0.000 0.000 setrgbcolor
0.502 0.502 0.502 setrgbcolor
newpath
84 148 moveto
564 148 lineto
stroke
0.000 0.000 0.000 setrgbcolor
0.000 0.000 0.000 setrgbcolor
54 145 moveto
(-4.20) show
0.000 0.000 0.000 setrgbcolor
0.502 0.502 0.502 setrgbcolor
newpath
84 192 moveto
564 192 lineto
stroke
0.000 0.000 0.000 setrgbcolor
0.000 0.000 0.000 setrgbcolor
54 189 moveto
(-4.10) show
0.000 0.000 0.000 setrgbcolor
0.502 0.502 0.502 setrgbcolor
newpath
84 236 moveto
564 236 lineto
stroke
0.000 0.000 0.000 setrgbcolor
0.000 0.000 0.000 setrgbcolor
54 233 moveto
(-4.00) show
0.000 0.000 0.000 setrgbcolor
0.502 0.502 0.502 setrgbcolor
newpath
84 280 moveto
564 280 lineto
stroke
0.000 0.000 0.000 setrgbcolor
0.000 0.000 0.000 setrgbcolor
54 277 moveto
(-3.90) show
0.000 0.000 0.000 setrgbcolor
0.502 0.502 0.502 setrgbcolor
newpath
84 324 moveto
564 324 lineto
stroke
0.000 0.000 0.000 setrgbcolor
0.000 0.000 0.000 setrgbcolor
54 321 moveto
(-3.80) show
0.000 0.000 0.000 setrgbcolor
0.502 0.502 0.502 setrgbcolor
newpath
84 368 moveto
564 368 lineto
stroke
0.000 0.000 0.000 setrgbcolor
0.000 0.000 0.000 setrgbcolor
54 365 moveto
(-3.70) show
0.000 0.000 0.000 setrgbcolor
0.502 0.502 0.502 setrgbcolor
newpath
84 412 moveto
564 412 lineto
stroke
0.000 0.000 0.000 setrgbcolor
0.000 0.000 0.000 setrgbcolor
54 409 moveto
(-3.60) show
0.000 0.000 0.000 setrgbcolor
0.502 0.502 0.502 setrgbcolor
newpath
84 456 moveto
564 456 lineto
stroke
0.000 0.000 0.000 setrgbcolor
0.000 0.000 0.000 setrgbcolor
54 453 moveto
(-3.50) show
0.000 0.000 0.000 setrgbcolor
0.502 0.502 0.502 setrgbcolor
newpath
84 500 moveto
564 500 lineto
stroke
0.000 0.000 0.000 setrgbcolor
0.000 0.000 0.000 setrgbcolor
54 497 moveto
(-3.40) show
0.000 0.000 0.000 setrgbcolor
0.502 0.502 0.502 setrgbcolor
newpath
84 544 moveto
564 544 lineto
stroke
0.000 0.000 0.000 setrgbcolor
0.000 0.000 0.000 setrgbcolor
54 541 moveto
(-3.30) show
0.000 0.000 0.000 setrgbcolor
0.502 0.502 0.502 setrgbcolor
0.000 0.000 0.000 setrgbcolor
0.000 0.000 0.000 setrgbcolor
54 582 moveto
(V) show
0.000 0.000 0.000 setrgbcolor
0.502 0.502 0.502 setrgbcolor
1.000 0.000 0.000 setrgbcolor
newpath
288 586 moveto
312 586 lineto
stroke
0.000 0.000 0.000 setrgbcolor
0.000 0.000 0.000 setrgbcolor
318 582 moveto
(v(output)) show
0.000 0.000 0.000 setrgbcolor
1.000 0.000 0.000 setrgbcolor
newpath
86 508 moveto
92 495 lineto
98 479 lineto
104 461 lineto
110 440 lineto
116 418 lineto
122 396 lineto
128 373 lineto
134 350 lineto
140 328 lineto
146 306 lineto
152 284 lineto
158 262 lineto
164 242 lineto
170 222 lineto
176 203 lineto
182 187 lineto
188 172 lineto
194 159 lineto
200 149 lineto
206 143 lineto
212 139 lineto
218 139 lineto
224 142 lineto
230 147 lineto
236 156 lineto
242 167 lineto
248 180 lineto
254 195 lineto
260 211 lineto
266 229 lineto
272 247 lineto
278 266 lineto
284 286 lineto
290 306 lineto
296 326 lineto
302 346 lineto
308 367 lineto
314 387 lineto
320 406 lineto
326 425 lineto
332 443 lineto
338 460 lineto
344 476 lineto
350 490 lineto
356 502 lineto
362 511 lineto
368 517 lineto
374 518 lineto
380 515 lineto
386 508 lineto
392 495 lineto
398 479 lineto
404 461 lineto
410 440 lineto
416 418 lineto
422 396 lineto
428 373 lineto
434 350 lineto
440 328 lineto
446 306 lineto
452 284 lineto
458 262 lineto
464 242 lineto
470 222 lineto
476 203 lineto
482 187 lineto
488 172 lineto
494 159 lineto
500 149 lineto
506 143 lineto
512 139 lineto
518 139 lineto
524 142 lineto
530 147 lineto
536 156 lineto
542 167 lineto
548 180 lineto
554 195 lineto
560 211 lineto
564 224 lineto
stroke
showpage
%%EOF
