v 20130925 2
C 40000 40000 0 0 0 title-B.sym
C 43100 45400 1 0 0 npn-3.sym
{
T 44000 45900 5 10 0 0 0 0 1
device=NPN_TRANSISTOR
T 44000 45900 5 10 1 1 0 0 1
refdes=Q1
T 43900 45500 5 10 1 1 0 0 1
model-name=CA3046
}
C 46100 45400 1 0 1 npn-3.sym
{
T 45200 45900 5 10 0 0 0 6 1
device=NPN_TRANSISTOR
T 45200 45900 5 10 1 1 0 6 1
refdes=Q2
T 44700 45500 5 10 1 1 0 0 1
model-name=CA3046
}
C 44700 44000 1 90 0 resistor-1.sym
{
T 44300 44300 5 10 0 0 90 0 1
device=RESISTOR
T 44400 44200 5 10 1 1 90 0 1
refdes=R1
T 44700 44000 5 10 1 1 0 0 1
value=2.2k
}
C 42800 44800 1 90 0 resistor-1.sym
{
T 42400 45100 5 10 0 0 90 0 1
device=RESISTOR
T 42500 45000 5 10 1 1 90 0 1
refdes=R2
T 42800 44800 5 10 1 1 0 0 1
value=1k
}
C 46700 44700 1 90 0 resistor-1.sym
{
T 46300 45000 5 10 0 0 90 0 1
device=RESISTOR
T 46400 44900 5 10 1 1 90 0 1
refdes=R3
T 46700 44700 5 10 1 1 0 0 1
value=1k
}
C 46700 46000 1 90 0 resistor-1.sym
{
T 46300 46300 5 10 0 0 90 0 1
device=RESISTOR
T 46400 46200 5 10 1 1 90 0 1
refdes=R4
T 46700 46000 5 10 1 1 0 0 1
value=4.7k
}
C 44400 46800 1 0 0 capacitor-1.sym
{
T 44600 47500 5 10 0 0 0 0 1
device=CAPACITOR
T 44600 47300 5 10 1 1 0 0 1
refdes=C1
T 44600 47700 5 10 0 0 0 0 1
symversion=0.1
T 44300 46700 5 10 1 1 0 0 1
value=0.01u
}
C 43800 47200 1 90 0 inductor-1.sym
{
T 43300 47400 5 10 0 0 90 0 1
device=INDUCTOR
T 43500 47400 5 10 1 1 90 0 1
refdes=L1
T 43100 47400 5 10 0 0 90 0 1
symversion=0.1
T 43800 47600 5 10 1 1 0 0 1
value=100u
}
C 43100 47200 1 90 0 capacitor-1.sym
{
T 42400 47400 5 10 0 0 90 0 1
device=CAPACITOR
T 42600 47400 5 10 1 1 90 0 1
refdes=C2
T 42200 47400 5 10 0 0 90 0 1
symversion=0.1
T 43000 47300 5 10 1 1 0 0 1
value=4n
}
N 45500 46400 45500 48500 4
N 43700 46400 43700 47200 4
N 42900 47200 42900 47000 4
C 43500 48500 1 0 0 vcc-1.sym
N 43700 48500 43700 48100 4
N 42900 48100 42900 48300 4
N 42900 48300 43700 48300 4
C 48000 45200 1 90 0 capacitor-1.sym
{
T 47300 45400 5 10 0 0 90 0 1
device=CAPACITOR
T 47600 45200 5 10 1 1 90 0 1
refdes=C4
T 47100 45400 5 10 0 0 90 0 1
symversion=0.1
T 48000 45200 5 10 1 1 0 0 1
value=1u
}
C 46500 44200 1 0 0 gnd-1.sym
C 47700 43900 1 0 0 gnd-1.sym
N 47800 44200 47800 45200 4
C 47600 46600 1 0 0 vcc-1.sym
N 47800 46100 47800 46600 4
N 46600 45600 46600 46000 4
N 46600 44500 46600 44700 4
N 42700 45700 42700 45900 4
N 42700 45900 43100 45900 4
N 44600 44900 44600 45400 4
N 43700 45400 45500 45400 4
N 44600 43800 44600 44000 4
C 42600 44300 1 0 0 gnd-1.sym
N 42700 44800 42700 44600 4
C 45300 48500 1 0 0 vcc-1.sym
N 44400 47000 43700 47000 4
N 41900 47000 43700 47000 4
N 45300 47000 46600 47000 4
N 46600 47000 46600 46900 4
N 46100 45900 46600 45900 4
C 41800 45300 1 270 0 output-2.sym
{
T 42000 44400 5 10 1 0 270 0 1
net=out:1
T 42500 45100 5 10 0 0 270 0 1
device=none
T 41900 44400 5 10 1 1 270 1 1
value=out
}
C 40700 48100 1 0 0 spice-model-1.sym
{
T 40800 48800 5 10 0 1 0 0 1
device=model
T 40800 48700 5 10 1 1 0 0 1
refdes=A1
T 42000 48400 5 10 1 1 0 0 1
model-name=CA3046
T 41200 48200 5 10 1 1 0 0 1
file=ca3046.mdl
}
C 55000 48200 1 0 0 vdc-1.sym
{
T 55700 48850 5 10 1 1 0 0 1
refdes=V1
T 55700 49050 5 10 0 0 0 0 1
device=VOLTAGE_SOURCE
T 55700 49250 5 10 0 0 0 0 1
footprint=none
T 55700 48650 5 10 1 1 0 0 1
value=DC 12V
}
C 55000 46400 1 0 0 vdc-1.sym
{
T 55700 47050 5 10 1 1 0 0 1
refdes=V2
T 55700 47250 5 10 0 0 0 0 1
device=VOLTAGE_SOURCE
T 55700 47450 5 10 0 0 0 0 1
footprint=none
T 55700 46850 5 10 1 1 0 0 1
value=DC 12V
}
N 55300 48200 55300 47600 4
C 55800 47800 1 90 0 gnd-1.sym
C 55100 49600 1 0 0 vcc-1.sym
N 55300 49600 55300 49400 4
N 55500 47900 55300 47900 4
C 55500 46100 1 180 0 vee-1.sym
N 55300 46100 55300 46400 4
C 44800 43800 1 180 0 vee-1.sym
C 45400 45100 1 270 0 output-2.sym
{
T 45600 44200 5 10 1 0 270 0 1
net=vemisor:1
T 46100 44900 5 10 0 0 270 0 1
device=none
T 45500 44200 5 10 1 1 270 1 1
value=vemisor
}
N 45500 45100 45500 45200 4
N 45500 45200 44600 45200 4
C 47000 45600 1 270 0 output-2.sym
{
T 47200 44700 5 10 1 0 270 0 1
net=base2:1
T 47700 45400 5 10 0 0 270 0 1
device=none
T 47100 44700 5 10 1 1 270 1 1
value=base2
}
N 47100 45600 47100 45900 4
N 47100 45900 46600 45900 4
C 42900 44700 1 270 0 output-2.sym
{
T 43100 43800 5 10 1 0 270 0 1
net=base1:1
T 43600 44500 5 10 0 0 270 0 1
device=none
T 43000 43800 5 10 1 1 270 1 1
value=base1
}
N 43000 44700 43000 45900 4
C 42100 45800 1 90 0 capacitor-1.sym
{
T 41400 46000 5 10 0 0 90 0 1
device=CAPACITOR
T 41600 46000 5 10 1 1 90 0 1
refdes=C3
T 41200 46000 5 10 0 0 90 0 1
symversion=0.1
T 42000 45900 5 10 1 1 0 0 1
value=22p
}
N 41900 47000 41900 46700 4
N 41900 45300 41900 45800 4
C 41300 45700 1 90 0 resistor-2.sym
{
T 40950 46100 5 10 0 0 90 0 1
device=RESISTOR
T 41000 45900 5 10 1 1 90 0 1
refdes=Rload
T 41500 46300 5 10 1 1 90 0 1
value=300k
}
C 41300 47100 1 180 0 gnd-1.sym
N 41200 45700 41200 45500 4
N 41200 45500 41900 45500 4
N 41200 46800 41200 46600 4
C 51200 45500 1 0 1 npn-3.sym
{
T 50300 46000 5 10 0 0 0 6 1
device=NPN_TRANSISTOR
T 50300 46000 5 10 1 1 0 6 1
refdes=Q3
T 49800 45600 5 10 1 1 0 0 1
model-name=CA3046
}
C 49700 43500 1 90 0 resistor-1.sym
{
T 49300 43800 5 10 0 0 90 0 1
device=RESISTOR
T 49400 43700 5 10 1 1 90 0 1
refdes=R5
T 49700 43500 5 10 1 1 0 0 1
value=10k
}
C 50700 43500 1 90 0 resistor-1.sym
{
T 50300 43800 5 10 0 0 90 0 1
device=RESISTOR
T 50400 43700 5 10 1 1 90 0 1
refdes=R6
T 50700 43500 5 10 1 1 0 0 1
value=10k
}
C 49000 43500 1 90 0 capacitor-1.sym
{
T 48300 43700 5 10 0 0 90 0 1
device=CAPACITOR
T 48600 44100 5 10 1 1 90 0 1
refdes=C5
T 48100 43700 5 10 0 0 90 0 1
symversion=0.1
T 48900 43500 5 10 1 1 0 0 1
value=1u
}
C 48700 42900 1 0 0 gnd-1.sym
N 48800 43200 48800 43500 4
C 49800 43200 1 180 0 vee-1.sym
N 49600 43200 49600 43500 4
C 52600 43500 1 90 0 resistor-1.sym
{
T 52200 43800 5 10 0 0 90 0 1
device=RESISTOR
T 52300 43700 5 10 1 1 90 0 1
refdes=R7
T 52600 43500 5 10 1 1 0 0 1
value=10k
}
C 53500 43500 1 90 0 resistor-1.sym
{
T 53100 43800 5 10 0 0 90 0 1
device=RESISTOR
T 53200 43700 5 10 1 1 90 0 1
refdes=R8
T 53500 43500 5 10 1 1 0 0 1
value=2.2k
}
C 52400 46100 1 180 0 resistor-1.sym
{
T 52100 45700 5 10 0 0 180 0 1
device=RESISTOR
T 52200 45800 5 10 1 1 180 0 1
refdes=R10
T 52100 46300 5 10 1 1 180 0 1
value=470
}
C 52600 44900 1 90 0 resistor-1.sym
{
T 52200 45200 5 10 0 0 90 0 1
device=RESISTOR
T 52300 45100 5 10 1 1 90 0 1
refdes=R9
T 52600 44900 5 10 1 1 0 0 1
value=33
}
C 53300 42900 1 0 0 gnd-1.sym
N 53400 43200 53400 43500 4
C 52700 43200 1 180 0 vee-1.sym
N 52500 43200 52500 43500 4
C 52700 46500 1 90 0 capacitor-1.sym
{
T 52000 46700 5 10 0 0 90 0 1
device=CAPACITOR
T 52300 47100 5 10 1 1 90 0 1
refdes=C6
T 51800 46700 5 10 0 0 90 0 1
symversion=0.1
T 52600 46500 5 10 1 1 0 0 1
value=33p
}
C 52000 44900 1 180 0 capacitor-1.sym
{
T 51800 44200 5 10 0 0 180 0 1
device=CAPACITOR
T 51400 44500 5 10 1 1 180 0 1
refdes=C7
T 51800 44000 5 10 0 0 180 0 1
symversion=0.1
T 52000 44800 5 10 1 1 90 0 1
value=1u
}
N 50600 45500 50600 44400 4
N 51100 44700 50600 44700 4
N 49600 44400 49600 44700 4
N 48800 44700 50600 44700 4
N 48800 44400 48800 44700 4
N 52000 44700 52500 44700 4
N 52500 44400 52500 44900 4
N 53400 44400 53400 44700 4
N 53400 44700 52500 44700 4
N 52500 45800 52500 46500 4
N 52400 46000 52500 46000 4
N 51500 46000 51200 46000 4
N 44300 47000 44300 47800 4
N 44300 47800 52500 47800 4
N 52500 47800 52500 47400 4
N 50600 46500 50600 47800 4
C 50500 42300 1 180 0 resistor-1.sym
{
T 50200 41900 5 10 0 0 180 0 1
device=RESISTOR
T 50300 42000 5 10 1 1 180 0 1
refdes=R11
T 50500 42300 5 10 1 1 90 0 1
value=2.5k
}
C 51700 42300 1 180 0 resistor-1.sym
{
T 51400 41900 5 10 0 0 180 0 1
device=RESISTOR
T 51500 42000 5 10 1 1 180 0 1
refdes=R12
T 51700 42300 5 10 1 1 90 0 1
value=2.5k
}
C 49400 42000 1 90 0 vee-1.sym
N 49400 42200 49600 42200 4
C 52400 42100 1 90 0 gnd-1.sym
N 52100 42200 51700 42200 4
N 50600 43500 50600 42200 4
N 50500 42200 50800 42200 4
T 47500 48300 9 14 1 0 0 0 1
Oscilador de Tono Fijo
