%!PS-Adobe-3.0 EPSF-3.0
%%Creator: nutmeg
%%BoundingBox: 54 54 612 612
1 1 scale
1.000 1.000 1.000 setrgbcolor
newpath
54 54 moveto 612 54 lineto
612 612 lineto 54 612 lineto
closepath fill
/Helvetica findfont 10 scalefont setfont

0.000 0.000 0.000 setrgbcolor
0.502 0.502 0.502 setrgbcolor
0.000 0.000 0.000 setrgbcolor
0.000 0.000 0.000 setrgbcolor
243 66 moveto
(time) show
0.000 0.000 0.000 setrgbcolor
0.502 0.502 0.502 setrgbcolor
newpath
84 104 moveto
84 548 lineto
stroke
0.000 0.000 0.000 setrgbcolor
0.000 0.000 0.000 setrgbcolor
66 87 moveto
(8.0080) show
0.000 0.000 0.000 setrgbcolor
0.502 0.502 0.502 setrgbcolor
newpath
144 104 moveto
144 548 lineto
stroke
0.000 0.000 0.000 setrgbcolor
0.000 0.000 0.000 setrgbcolor
126 87 moveto
(8.0090) show
0.000 0.000 0.000 setrgbcolor
0.502 0.502 0.502 setrgbcolor
newpath
204 104 moveto
204 548 lineto
stroke
0.000 0.000 0.000 setrgbcolor
0.000 0.000 0.000 setrgbcolor
186 87 moveto
(8.0100) show
0.000 0.000 0.000 setrgbcolor
0.502 0.502 0.502 setrgbcolor
newpath
264 104 moveto
264 548 lineto
stroke
0.000 0.000 0.000 setrgbcolor
0.000 0.000 0.000 setrgbcolor
246 87 moveto
(8.0110) show
0.000 0.000 0.000 setrgbcolor
0.502 0.502 0.502 setrgbcolor
newpath
324 104 moveto
324 548 lineto
stroke
0.000 0.000 0.000 setrgbcolor
0.000 0.000 0.000 setrgbcolor
306 87 moveto
(8.0120) show
0.000 0.000 0.000 setrgbcolor
0.502 0.502 0.502 setrgbcolor
newpath
384 104 moveto
384 548 lineto
stroke
0.000 0.000 0.000 setrgbcolor
0.000 0.000 0.000 setrgbcolor
366 87 moveto
(8.0130) show
0.000 0.000 0.000 setrgbcolor
0.502 0.502 0.502 setrgbcolor
newpath
444 104 moveto
444 548 lineto
stroke
0.000 0.000 0.000 setrgbcolor
0.000 0.000 0.000 setrgbcolor
426 87 moveto
(8.0140) show
0.000 0.000 0.000 setrgbcolor
0.502 0.502 0.502 setrgbcolor
newpath
504 104 moveto
504 548 lineto
stroke
0.000 0.000 0.000 setrgbcolor
0.000 0.000 0.000 setrgbcolor
486 87 moveto
(8.0150) show
0.000 0.000 0.000 setrgbcolor
0.502 0.502 0.502 setrgbcolor
newpath
564 104 moveto
564 548 lineto
stroke
0.000 0.000 0.000 setrgbcolor
0.000 0.000 0.000 setrgbcolor
546 87 moveto
(8.0160) show
0.000 0.000 0.000 setrgbcolor
0.502 0.502 0.502 setrgbcolor
0.000 0.000 0.000 setrgbcolor
0.000 0.000 0.000 setrgbcolor
382 66 moveto
(ms) show
0.000 0.000 0.000 setrgbcolor
0.502 0.502 0.502 setrgbcolor
newpath
84 104 moveto
564 104 lineto
stroke
0.000 0.000 0.000 setrgbcolor
0.000 0.000 0.000 setrgbcolor
54 101 moveto
(-15.0) show
0.000 0.000 0.000 setrgbcolor
0.502 0.502 0.502 setrgbcolor
newpath
84 178 moveto
564 178 lineto
stroke
0.000 0.000 0.000 setrgbcolor
0.000 0.000 0.000 setrgbcolor
54 175 moveto
(-10.0) show
0.000 0.000 0.000 setrgbcolor
0.502 0.502 0.502 setrgbcolor
newpath
84 252 moveto
564 252 lineto
stroke
0.000 0.000 0.000 setrgbcolor
0.000 0.000 0.000 setrgbcolor
60 249 moveto
(-5.0) show
0.000 0.000 0.000 setrgbcolor
0.502 0.502 0.502 setrgbcolor
0.000 0.000 0.000 setrgbcolor
newpath
84 326 moveto
564 326 lineto
stroke
0.502 0.502 0.502 setrgbcolor
0.000 0.000 0.000 setrgbcolor
0.000 0.000 0.000 setrgbcolor
66 323 moveto
(0.0) show
0.000 0.000 0.000 setrgbcolor
0.502 0.502 0.502 setrgbcolor
newpath
84 400 moveto
564 400 lineto
stroke
0.000 0.000 0.000 setrgbcolor
0.000 0.000 0.000 setrgbcolor
66 397 moveto
(5.0) show
0.000 0.000 0.000 setrgbcolor
0.502 0.502 0.502 setrgbcolor
newpath
84 474 moveto
564 474 lineto
stroke
0.000 0.000 0.000 setrgbcolor
0.000 0.000 0.000 setrgbcolor
60 471 moveto
(10.0) show
0.000 0.000 0.000 setrgbcolor
0.502 0.502 0.502 setrgbcolor
newpath
84 548 moveto
564 548 lineto
stroke
0.000 0.000 0.000 setrgbcolor
0.000 0.000 0.000 setrgbcolor
60 545 moveto
(15.0) show
0.000 0.000 0.000 setrgbcolor
0.502 0.502 0.502 setrgbcolor
0.000 0.000 0.000 setrgbcolor
0.000 0.000 0.000 setrgbcolor
54 582 moveto
(V) show
0.000 0.000 0.000 setrgbcolor
0.502 0.502 0.502 setrgbcolor
1.000 0.000 0.000 setrgbcolor
newpath
288 586 moveto
312 586 lineto
stroke
0.000 0.000 0.000 setrgbcolor
0.000 0.000 0.000 setrgbcolor
318 582 moveto
(v(out)) show
0.000 0.000 0.000 setrgbcolor
1.000 0.000 0.000 setrgbcolor
newpath
84 525 moveto
85 524 lineto
85 523 lineto
86 521 lineto
87 520 lineto
87 519 lineto
88 517 lineto
88 516 lineto
89 514 lineto
90 513 lineto
90 511 lineto
91 510 lineto
91 508 lineto
92 506 lineto
93 504 lineto
93 503 lineto
94 501 lineto
94 499 lineto
95 497 lineto
96 495 lineto
96 493 lineto
97 491 lineto
97 489 lineto
98 487 lineto
99 484 lineto
99 482 lineto
100 480 lineto
100 478 lineto
101 475 lineto
102 473 lineto
102 470 lineto
103 468 lineto
103 466 lineto
104 463 lineto
105 461 lineto
105 458 lineto
106 455 lineto
106 453 lineto
107 450 lineto
108 447 lineto
108 445 lineto
109 442 lineto
109 439 lineto
110 436 lineto
111 434 lineto
111 431 lineto
112 428 lineto
112 425 lineto
113 422 lineto
114 419 lineto
114 416 lineto
115 413 lineto
115 410 lineto
116 407 lineto
117 404 lineto
117 401 lineto
118 398 lineto
118 395 lineto
119 392 lineto
120 388 lineto
120 385 lineto
121 382 lineto
121 379 lineto
122 376 lineto
123 373 lineto
123 369 lineto
124 366 lineto
124 363 lineto
125 360 lineto
126 357 lineto
126 353 lineto
127 350 lineto
127 347 lineto
128 344 lineto
129 340 lineto
129 337 lineto
130 334 lineto
130 330 lineto
131 327 lineto
132 324 lineto
132 321 lineto
133 317 lineto
133 314 lineto
134 311 lineto
135 308 lineto
135 304 lineto
136 301 lineto
136 298 lineto
137 294 lineto
138 291 lineto
138 287 lineto
139 284 lineto
139 281 lineto
140 277 lineto
141 274 lineto
141 271 lineto
142 267 lineto
142 264 lineto
143 261 lineto
144 258 lineto
144 254 lineto
145 251 lineto
145 248 lineto
146 245 lineto
147 242 lineto
147 239 lineto
148 235 lineto
148 232 lineto
149 229 lineto
150 226 lineto
150 223 lineto
151 220 lineto
151 217 lineto
152 214 lineto
153 212 lineto
153 209 lineto
154 206 lineto
154 203 lineto
155 200 lineto
156 198 lineto
156 195 lineto
157 192 lineto
157 190 lineto
158 187 lineto
159 184 lineto
159 182 lineto
160 179 lineto
160 177 lineto
161 174 lineto
162 172 lineto
162 170 lineto
163 167 lineto
163 165 lineto
164 163 lineto
165 161 lineto
165 159 lineto
166 157 lineto
166 155 lineto
167 153 lineto
168 151 lineto
168 149 lineto
169 147 lineto
169 145 lineto
170 143 lineto
171 141 lineto
171 140 lineto
172 138 lineto
172 137 lineto
173 135 lineto
174 133 lineto
174 132 lineto
175 131 lineto
175 129 lineto
176 128 lineto
177 127 lineto
177 126 lineto
178 124 lineto
178 123 lineto
179 122 lineto
180 121 lineto
180 120 lineto
181 120 lineto
181 119 lineto
182 118 lineto
183 117 lineto
184 116 lineto
185 115 lineto
186 115 lineto
186 114 lineto
187 114 lineto
188 114 lineto
189 114 lineto
189 113 lineto
190 113 lineto
191 114 lineto
192 114 lineto
193 114 lineto
194 115 lineto
195 115 lineto
195 116 lineto
196 116 lineto
196 117 lineto
197 117 lineto
198 118 lineto
198 119 lineto
199 119 lineto
199 120 lineto
200 121 lineto
201 122 lineto
201 123 lineto
202 124 lineto
202 125 lineto
203 126 lineto
204 127 lineto
204 128 lineto
205 129 lineto
205 131 lineto
206 132 lineto
207 133 lineto
207 135 lineto
208 136 lineto
208 137 lineto
209 139 lineto
210 141 lineto
210 142 lineto
211 144 lineto
211 145 lineto
212 147 lineto
213 149 lineto
213 151 lineto
214 153 lineto
214 154 lineto
215 156 lineto
216 158 lineto
216 160 lineto
217 162 lineto
217 164 lineto
218 166 lineto
219 169 lineto
219 171 lineto
220 173 lineto
220 175 lineto
221 178 lineto
222 180 lineto
222 182 lineto
223 185 lineto
223 187 lineto
224 190 lineto
225 192 lineto
225 195 lineto
226 197 lineto
226 200 lineto
227 202 lineto
228 205 lineto
228 208 lineto
229 210 lineto
229 213 lineto
230 216 lineto
231 219 lineto
231 221 lineto
232 224 lineto
232 227 lineto
233 230 lineto
234 233 lineto
234 236 lineto
235 239 lineto
235 242 lineto
236 245 lineto
237 248 lineto
237 251 lineto
238 254 lineto
238 257 lineto
239 260 lineto
240 263 lineto
240 266 lineto
241 269 lineto
241 272 lineto
242 276 lineto
243 279 lineto
243 282 lineto
244 285 lineto
244 288 lineto
245 291 lineto
246 295 lineto
246 298 lineto
247 301 lineto
247 304 lineto
248 307 lineto
249 311 lineto
249 314 lineto
250 317 lineto
250 320 lineto
251 323 lineto
252 327 lineto
252 330 lineto
253 333 lineto
253 336 lineto
254 340 lineto
255 343 lineto
255 346 lineto
256 349 lineto
256 353 lineto
257 356 lineto
258 359 lineto
258 363 lineto
259 366 lineto
259 369 lineto
260 373 lineto
261 376 lineto
261 379 lineto
262 382 lineto
262 386 lineto
263 389 lineto
264 392 lineto
264 395 lineto
265 398 lineto
265 402 lineto
266 405 lineto
267 408 lineto
267 411 lineto
268 414 lineto
268 417 lineto
269 420 lineto
270 423 lineto
270 426 lineto
271 429 lineto
271 432 lineto
272 435 lineto
273 438 lineto
273 441 lineto
274 443 lineto
274 446 lineto
275 449 lineto
276 452 lineto
276 454 lineto
277 457 lineto
277 460 lineto
278 462 lineto
279 465 lineto
279 467 lineto
280 470 lineto
280 472 lineto
281 475 lineto
282 477 lineto
282 479 lineto
283 482 lineto
283 484 lineto
284 486 lineto
285 488 lineto
285 490 lineto
286 492 lineto
286 495 lineto
287 497 lineto
288 499 lineto
288 500 lineto
289 502 lineto
289 504 lineto
290 506 lineto
291 508 lineto
291 509 lineto
292 511 lineto
292 513 lineto
293 514 lineto
294 516 lineto
294 517 lineto
295 519 lineto
295 520 lineto
296 521 lineto
297 523 lineto
297 524 lineto
298 525 lineto
298 526 lineto
299 527 lineto
300 528 lineto
300 529 lineto
301 530 lineto
301 531 lineto
302 532 lineto
303 533 lineto
304 534 lineto
304 535 lineto
305 535 lineto
306 536 lineto
307 537 lineto
308 537 lineto
309 538 lineto
310 538 lineto
311 538 lineto
312 538 lineto
313 538 lineto
314 537 lineto
315 537 lineto
316 537 lineto
316 536 lineto
317 536 lineto
318 535 lineto
319 534 lineto
319 533 lineto
320 533 lineto
321 532 lineto
321 531 lineto
322 530 lineto
322 529 lineto
323 528 lineto
324 527 lineto
324 526 lineto
325 525 lineto
325 524 lineto
326 523 lineto
327 521 lineto
327 520 lineto
328 519 lineto
328 517 lineto
329 516 lineto
330 514 lineto
330 513 lineto
331 511 lineto
331 509 lineto
332 508 lineto
333 506 lineto
333 504 lineto
334 502 lineto
334 501 lineto
335 499 lineto
336 497 lineto
336 495 lineto
337 493 lineto
337 491 lineto
338 489 lineto
339 486 lineto
339 484 lineto
340 482 lineto
340 480 lineto
341 477 lineto
342 475 lineto
342 473 lineto
343 470 lineto
343 468 lineto
344 465 lineto
345 463 lineto
345 460 lineto
346 458 lineto
346 455 lineto
347 453 lineto
348 450 lineto
348 447 lineto
349 445 lineto
349 442 lineto
350 439 lineto
351 436 lineto
351 433 lineto
352 431 lineto
352 428 lineto
353 425 lineto
354 422 lineto
354 419 lineto
355 416 lineto
355 413 lineto
356 410 lineto
357 407 lineto
357 404 lineto
358 401 lineto
358 398 lineto
359 395 lineto
360 391 lineto
360 388 lineto
361 385 lineto
361 382 lineto
362 379 lineto
363 376 lineto
363 372 lineto
364 369 lineto
364 366 lineto
365 363 lineto
366 360 lineto
366 356 lineto
367 353 lineto
367 350 lineto
368 347 lineto
369 343 lineto
369 340 lineto
370 337 lineto
370 334 lineto
371 330 lineto
372 327 lineto
372 324 lineto
373 321 lineto
373 317 lineto
374 314 lineto
375 311 lineto
375 307 lineto
376 304 lineto
376 301 lineto
377 297 lineto
378 294 lineto
378 291 lineto
379 287 lineto
379 284 lineto
380 281 lineto
381 277 lineto
381 274 lineto
382 271 lineto
382 267 lineto
383 264 lineto
384 261 lineto
384 258 lineto
385 254 lineto
385 251 lineto
386 248 lineto
387 245 lineto
387 242 lineto
388 238 lineto
388 235 lineto
389 232 lineto
390 229 lineto
390 226 lineto
391 223 lineto
391 220 lineto
392 217 lineto
393 214 lineto
393 211 lineto
394 209 lineto
394 206 lineto
395 203 lineto
396 200 lineto
396 197 lineto
397 195 lineto
397 192 lineto
398 189 lineto
399 187 lineto
399 184 lineto
400 182 lineto
400 179 lineto
401 177 lineto
402 174 lineto
402 172 lineto
403 170 lineto
403 167 lineto
404 165 lineto
405 163 lineto
405 161 lineto
406 159 lineto
406 156 lineto
407 154 lineto
408 152 lineto
408 150 lineto
409 149 lineto
409 147 lineto
410 145 lineto
411 143 lineto
411 141 lineto
412 140 lineto
412 138 lineto
413 136 lineto
414 135 lineto
414 133 lineto
415 132 lineto
415 131 lineto
416 129 lineto
417 128 lineto
417 127 lineto
418 126 lineto
418 124 lineto
419 123 lineto
420 122 lineto
420 121 lineto
421 120 lineto
422 119 lineto
423 118 lineto
423 117 lineto
424 117 lineto
424 116 lineto
425 116 lineto
426 115 lineto
427 114 lineto
428 114 lineto
429 114 lineto
430 113 lineto
431 113 lineto
432 114 lineto
433 114 lineto
434 114 lineto
435 115 lineto
436 116 lineto
437 117 lineto
438 117 lineto
438 118 lineto
439 119 lineto
440 120 lineto
441 121 lineto
441 122 lineto
442 123 lineto
442 124 lineto
443 125 lineto
444 126 lineto
444 127 lineto
445 128 lineto
445 129 lineto
446 131 lineto
447 132 lineto
447 133 lineto
448 135 lineto
448 136 lineto
449 138 lineto
450 139 lineto
450 141 lineto
451 142 lineto
451 144 lineto
452 146 lineto
453 147 lineto
453 149 lineto
454 151 lineto
454 153 lineto
455 154 lineto
456 156 lineto
456 158 lineto
457 160 lineto
457 162 lineto
458 164 lineto
459 167 lineto
459 169 lineto
460 171 lineto
460 173 lineto
461 175 lineto
462 178 lineto
462 180 lineto
463 182 lineto
463 185 lineto
464 187 lineto
465 190 lineto
465 192 lineto
466 195 lineto
466 197 lineto
467 200 lineto
468 202 lineto
468 205 lineto
469 208 lineto
469 210 lineto
470 213 lineto
471 216 lineto
471 219 lineto
472 222 lineto
472 224 lineto
473 227 lineto
474 230 lineto
474 233 lineto
475 236 lineto
475 239 lineto
476 242 lineto
477 245 lineto
477 248 lineto
478 251 lineto
478 254 lineto
479 257 lineto
480 260 lineto
480 263 lineto
481 266 lineto
481 269 lineto
482 273 lineto
483 276 lineto
483 279 lineto
484 282 lineto
484 285 lineto
485 288 lineto
486 291 lineto
486 295 lineto
487 298 lineto
487 301 lineto
488 304 lineto
489 308 lineto
489 311 lineto
490 314 lineto
490 317 lineto
491 320 lineto
492 324 lineto
492 327 lineto
493 330 lineto
493 333 lineto
494 336 lineto
495 340 lineto
495 343 lineto
496 346 lineto
496 349 lineto
497 353 lineto
498 356 lineto
498 359 lineto
499 363 lineto
499 366 lineto
500 369 lineto
501 373 lineto
501 376 lineto
502 379 lineto
502 383 lineto
503 386 lineto
504 389 lineto
504 392 lineto
505 395 lineto
505 399 lineto
506 402 lineto
507 405 lineto
507 408 lineto
508 411 lineto
508 414 lineto
509 417 lineto
510 420 lineto
510 423 lineto
511 426 lineto
511 429 lineto
512 432 lineto
513 435 lineto
513 438 lineto
514 441 lineto
514 444 lineto
515 446 lineto
516 449 lineto
516 452 lineto
517 454 lineto
517 457 lineto
518 460 lineto
519 462 lineto
519 465 lineto
520 467 lineto
520 470 lineto
521 472 lineto
522 475 lineto
522 477 lineto
523 479 lineto
523 482 lineto
524 484 lineto
525 486 lineto
525 488 lineto
526 490 lineto
526 493 lineto
527 495 lineto
528 497 lineto
528 499 lineto
529 501 lineto
529 502 lineto
530 504 lineto
531 506 lineto
531 508 lineto
532 509 lineto
532 511 lineto
533 513 lineto
534 514 lineto
534 516 lineto
535 517 lineto
535 519 lineto
536 520 lineto
537 521 lineto
537 523 lineto
538 524 lineto
538 525 lineto
539 526 lineto
540 527 lineto
540 528 lineto
541 529 lineto
541 530 lineto
542 531 lineto
543 532 lineto
543 533 lineto
544 533 lineto
544 534 lineto
545 535 lineto
546 535 lineto
546 536 lineto
547 536 lineto
547 537 lineto
548 537 lineto
549 537 lineto
549 538 lineto
550 538 lineto
551 538 lineto
552 538 lineto
553 538 lineto
554 538 lineto
555 537 lineto
556 537 lineto
557 536 lineto
558 536 lineto
558 535 lineto
559 535 lineto
559 534 lineto
560 533 lineto
561 533 lineto
561 532 lineto
562 531 lineto
562 530 lineto
563 529 lineto
564 528 lineto
564 527 lineto
stroke
showpage
%%EOF
