%!PS-Adobe-3.0 EPSF-3.0
%%Creator: nutmeg
%%BoundingBox: 54 54 612 612
1 1 scale
1.000 1.000 1.000 setrgbcolor
newpath
54 54 moveto 612 54 lineto
612 612 lineto 54 612 lineto
closepath fill
/Helvetica findfont 10 scalefont setfont

0.000 0.000 0.000 setrgbcolor
0.502 0.502 0.502 setrgbcolor
0.000 0.000 0.000 setrgbcolor
0.000 0.000 0.000 setrgbcolor
243 66 moveto
(time) show
0.000 0.000 0.000 setrgbcolor
0.502 0.502 0.502 setrgbcolor
newpath
84 104 moveto
84 545 lineto
stroke
0.000 0.000 0.000 setrgbcolor
0.000 0.000 0.000 setrgbcolor
66 87 moveto
(8.0080) show
0.000 0.000 0.000 setrgbcolor
0.502 0.502 0.502 setrgbcolor
newpath
144 104 moveto
144 545 lineto
stroke
0.000 0.000 0.000 setrgbcolor
0.000 0.000 0.000 setrgbcolor
126 87 moveto
(8.0090) show
0.000 0.000 0.000 setrgbcolor
0.502 0.502 0.502 setrgbcolor
newpath
204 104 moveto
204 545 lineto
stroke
0.000 0.000 0.000 setrgbcolor
0.000 0.000 0.000 setrgbcolor
186 87 moveto
(8.0100) show
0.000 0.000 0.000 setrgbcolor
0.502 0.502 0.502 setrgbcolor
newpath
264 104 moveto
264 545 lineto
stroke
0.000 0.000 0.000 setrgbcolor
0.000 0.000 0.000 setrgbcolor
246 87 moveto
(8.0110) show
0.000 0.000 0.000 setrgbcolor
0.502 0.502 0.502 setrgbcolor
newpath
324 104 moveto
324 545 lineto
stroke
0.000 0.000 0.000 setrgbcolor
0.000 0.000 0.000 setrgbcolor
306 87 moveto
(8.0120) show
0.000 0.000 0.000 setrgbcolor
0.502 0.502 0.502 setrgbcolor
newpath
384 104 moveto
384 545 lineto
stroke
0.000 0.000 0.000 setrgbcolor
0.000 0.000 0.000 setrgbcolor
366 87 moveto
(8.0130) show
0.000 0.000 0.000 setrgbcolor
0.502 0.502 0.502 setrgbcolor
newpath
444 104 moveto
444 545 lineto
stroke
0.000 0.000 0.000 setrgbcolor
0.000 0.000 0.000 setrgbcolor
426 87 moveto
(8.0140) show
0.000 0.000 0.000 setrgbcolor
0.502 0.502 0.502 setrgbcolor
newpath
504 104 moveto
504 545 lineto
stroke
0.000 0.000 0.000 setrgbcolor
0.000 0.000 0.000 setrgbcolor
486 87 moveto
(8.0150) show
0.000 0.000 0.000 setrgbcolor
0.502 0.502 0.502 setrgbcolor
newpath
564 104 moveto
564 545 lineto
stroke
0.000 0.000 0.000 setrgbcolor
0.000 0.000 0.000 setrgbcolor
546 87 moveto
(8.0160) show
0.000 0.000 0.000 setrgbcolor
0.502 0.502 0.502 setrgbcolor
0.000 0.000 0.000 setrgbcolor
0.000 0.000 0.000 setrgbcolor
382 66 moveto
(ms) show
0.000 0.000 0.000 setrgbcolor
0.502 0.502 0.502 setrgbcolor
newpath
84 104 moveto
564 104 lineto
stroke
0.000 0.000 0.000 setrgbcolor
0.000 0.000 0.000 setrgbcolor
54 101 moveto
(-12.0) show
0.000 0.000 0.000 setrgbcolor
0.502 0.502 0.502 setrgbcolor
newpath
84 167 moveto
564 167 lineto
stroke
0.000 0.000 0.000 setrgbcolor
0.000 0.000 0.000 setrgbcolor
54 164 moveto
(-10.0) show
0.000 0.000 0.000 setrgbcolor
0.502 0.502 0.502 setrgbcolor
newpath
84 230 moveto
564 230 lineto
stroke
0.000 0.000 0.000 setrgbcolor
0.000 0.000 0.000 setrgbcolor
60 227 moveto
(-8.0) show
0.000 0.000 0.000 setrgbcolor
0.502 0.502 0.502 setrgbcolor
newpath
84 293 moveto
564 293 lineto
stroke
0.000 0.000 0.000 setrgbcolor
0.000 0.000 0.000 setrgbcolor
60 290 moveto
(-6.0) show
0.000 0.000 0.000 setrgbcolor
0.502 0.502 0.502 setrgbcolor
newpath
84 356 moveto
564 356 lineto
stroke
0.000 0.000 0.000 setrgbcolor
0.000 0.000 0.000 setrgbcolor
60 353 moveto
(-4.0) show
0.000 0.000 0.000 setrgbcolor
0.502 0.502 0.502 setrgbcolor
newpath
84 419 moveto
564 419 lineto
stroke
0.000 0.000 0.000 setrgbcolor
0.000 0.000 0.000 setrgbcolor
60 416 moveto
(-2.0) show
0.000 0.000 0.000 setrgbcolor
0.502 0.502 0.502 setrgbcolor
0.000 0.000 0.000 setrgbcolor
newpath
84 482 moveto
564 482 lineto
stroke
0.502 0.502 0.502 setrgbcolor
0.000 0.000 0.000 setrgbcolor
0.000 0.000 0.000 setrgbcolor
60 479 moveto
(-0.0) show
0.000 0.000 0.000 setrgbcolor
0.502 0.502 0.502 setrgbcolor
newpath
84 545 moveto
564 545 lineto
stroke
0.000 0.000 0.000 setrgbcolor
0.000 0.000 0.000 setrgbcolor
66 542 moveto
(2.0) show
0.000 0.000 0.000 setrgbcolor
0.502 0.502 0.502 setrgbcolor
0.000 0.000 0.000 setrgbcolor
0.000 0.000 0.000 setrgbcolor
54 582 moveto
(V) show
0.000 0.000 0.000 setrgbcolor
0.502 0.502 0.502 setrgbcolor
1.000 0.000 0.000 setrgbcolor
newpath
288 586 moveto
312 586 lineto
stroke
0.000 0.000 0.000 setrgbcolor
0.000 0.000 0.000 setrgbcolor
318 582 moveto
(v(inputa)) show
0.000 0.000 0.000 setrgbcolor
1.000 0.000 0.000 setrgbcolor
newpath
86 482 moveto
92 483 lineto
98 483 lineto
104 483 lineto
110 483 lineto
116 483 lineto
122 483 lineto
128 483 lineto
134 483 lineto
140 483 lineto
146 483 lineto
152 483 lineto
158 483 lineto
164 483 lineto
170 483 lineto
176 482 lineto
182 482 lineto
188 482 lineto
194 482 lineto
200 482 lineto
206 482 lineto
212 482 lineto
218 482 lineto
224 482 lineto
230 482 lineto
236 482 lineto
242 481 lineto
248 481 lineto
254 481 lineto
260 481 lineto
266 481 lineto
272 481 lineto
278 481 lineto
284 481 lineto
290 481 lineto
296 481 lineto
302 481 lineto
308 481 lineto
314 481 lineto
320 481 lineto
326 482 lineto
332 482 lineto
338 482 lineto
344 482 lineto
350 482 lineto
356 482 lineto
362 482 lineto
368 482 lineto
374 482 lineto
380 482 lineto
386 482 lineto
392 483 lineto
398 483 lineto
404 483 lineto
410 483 lineto
416 483 lineto
422 483 lineto
428 483 lineto
434 483 lineto
440 483 lineto
446 483 lineto
452 483 lineto
458 483 lineto
464 483 lineto
470 483 lineto
476 482 lineto
482 482 lineto
488 482 lineto
494 482 lineto
500 482 lineto
506 482 lineto
512 482 lineto
518 482 lineto
524 482 lineto
530 482 lineto
536 482 lineto
542 481 lineto
548 481 lineto
554 481 lineto
560 481 lineto
564 481 lineto
stroke
0.000 0.000 1.000 setrgbcolor
newpath
84 586 moveto
108 586 lineto
stroke
0.000 0.000 0.000 setrgbcolor
0.000 0.000 0.000 setrgbcolor
114 582 moveto
(v(inputb)) show
0.000 0.000 0.000 setrgbcolor
0.000 0.000 1.000 setrgbcolor
newpath
86 482 moveto
92 481 lineto
98 481 lineto
104 481 lineto
110 481 lineto
116 481 lineto
122 481 lineto
128 481 lineto
134 481 lineto
140 481 lineto
146 481 lineto
152 481 lineto
158 481 lineto
164 481 lineto
170 481 lineto
176 482 lineto
182 482 lineto
188 482 lineto
194 482 lineto
200 482 lineto
206 482 lineto
212 482 lineto
218 482 lineto
224 482 lineto
230 482 lineto
236 482 lineto
242 483 lineto
248 483 lineto
254 483 lineto
260 483 lineto
266 483 lineto
272 483 lineto
278 483 lineto
284 483 lineto
290 483 lineto
296 483 lineto
302 483 lineto
308 483 lineto
314 483 lineto
320 483 lineto
326 482 lineto
332 482 lineto
338 482 lineto
344 482 lineto
350 482 lineto
356 482 lineto
362 482 lineto
368 482 lineto
374 482 lineto
380 482 lineto
386 482 lineto
392 481 lineto
398 481 lineto
404 481 lineto
410 481 lineto
416 481 lineto
422 481 lineto
428 481 lineto
434 481 lineto
440 481 lineto
446 481 lineto
452 481 lineto
458 481 lineto
464 481 lineto
470 481 lineto
476 482 lineto
482 482 lineto
488 482 lineto
494 482 lineto
500 482 lineto
506 482 lineto
512 482 lineto
518 482 lineto
524 482 lineto
530 482 lineto
536 482 lineto
542 483 lineto
548 483 lineto
554 483 lineto
560 483 lineto
564 483 lineto
stroke
0.000 1.000 0.000 setrgbcolor
newpath
288 572 moveto
312 572 lineto
stroke
0.000 0.000 0.000 setrgbcolor
0.000 0.000 0.000 setrgbcolor
318 568 moveto
(v(output)) show
0.000 0.000 0.000 setrgbcolor
0.000 1.000 0.000 setrgbcolor
newpath
86 107 moveto
92 107 lineto
98 107 lineto
104 107 lineto
110 107 lineto
116 107 lineto
122 107 lineto
128 107 lineto
134 107 lineto
140 107 lineto
146 107 lineto
152 107 lineto
158 107 lineto
164 107 lineto
170 107 lineto
176 107 lineto
182 107 lineto
188 107 lineto
194 107 lineto
200 107 lineto
206 107 lineto
212 107 lineto
218 107 lineto
224 107 lineto
230 107 lineto
236 107 lineto
242 107 lineto
248 107 lineto
254 107 lineto
260 107 lineto
266 107 lineto
272 107 lineto
278 107 lineto
284 107 lineto
290 107 lineto
296 107 lineto
302 107 lineto
308 107 lineto
314 107 lineto
320 107 lineto
326 107 lineto
332 107 lineto
338 107 lineto
344 107 lineto
350 107 lineto
356 107 lineto
362 107 lineto
368 107 lineto
374 107 lineto
380 107 lineto
386 107 lineto
392 107 lineto
398 107 lineto
404 107 lineto
410 107 lineto
416 107 lineto
422 107 lineto
428 107 lineto
434 107 lineto
440 107 lineto
446 107 lineto
452 107 lineto
458 107 lineto
464 107 lineto
470 107 lineto
476 107 lineto
482 107 lineto
488 107 lineto
494 107 lineto
500 107 lineto
506 107 lineto
512 107 lineto
518 107 lineto
524 107 lineto
530 107 lineto
536 107 lineto
542 107 lineto
548 107 lineto
554 107 lineto
560 107 lineto
564 107 lineto
stroke
0.000 1.000 0.000 setrgbcolor
newpath
84 572 moveto
108 572 lineto
stroke
0.000 0.000 0.000 setrgbcolor
0.000 0.000 0.000 setrgbcolor
114 568 moveto
(v(buffer_out)) show
0.000 0.000 0.000 setrgbcolor
0.000 1.000 0.000 setrgbcolor
newpath
86 482 moveto
92 482 lineto
98 482 lineto
104 482 lineto
110 482 lineto
116 482 lineto
122 482 lineto
128 482 lineto
134 482 lineto
140 482 lineto
146 482 lineto
152 482 lineto
158 482 lineto
164 482 lineto
170 482 lineto
176 482 lineto
182 482 lineto
188 482 lineto
194 482 lineto
200 482 lineto
206 482 lineto
212 482 lineto
218 482 lineto
224 482 lineto
230 482 lineto
236 482 lineto
242 482 lineto
248 482 lineto
254 482 lineto
260 482 lineto
266 482 lineto
272 482 lineto
278 482 lineto
284 482 lineto
290 482 lineto
296 482 lineto
302 482 lineto
308 482 lineto
314 482 lineto
320 482 lineto
326 482 lineto
332 482 lineto
338 482 lineto
344 482 lineto
350 482 lineto
356 482 lineto
362 482 lineto
368 482 lineto
374 482 lineto
380 482 lineto
386 482 lineto
392 482 lineto
398 482 lineto
404 482 lineto
410 482 lineto
416 482 lineto
422 482 lineto
428 482 lineto
434 482 lineto
440 482 lineto
446 482 lineto
452 482 lineto
458 482 lineto
464 482 lineto
470 482 lineto
476 482 lineto
482 482 lineto
488 482 lineto
494 482 lineto
500 482 lineto
506 482 lineto
512 482 lineto
518 482 lineto
524 482 lineto
530 482 lineto
536 482 lineto
542 482 lineto
548 482 lineto
554 482 lineto
560 482 lineto
564 482 lineto
stroke
showpage
%%EOF
