%!PS-Adobe-3.0 EPSF-3.0
%%Creator: nutmeg
%%BoundingBox: 54 54 612 612
1 1 scale
1.000 1.000 1.000 setrgbcolor
newpath
54 54 moveto 612 54 lineto
612 612 lineto 54 612 lineto
closepath fill
/Helvetica findfont 10 scalefont setfont

0.000 0.000 0.000 setrgbcolor
0.502 0.502 0.502 setrgbcolor
0.000 0.000 0.000 setrgbcolor
0.000 0.000 0.000 setrgbcolor
243 66 moveto
(time) show
0.000 0.000 0.000 setrgbcolor
0.502 0.502 0.502 setrgbcolor
newpath
102 104 moveto
102 545 lineto
stroke
0.000 0.000 0.000 setrgbcolor
0.000 0.000 0.000 setrgbcolor
84 87 moveto
(8.0080) show
0.000 0.000 0.000 setrgbcolor
0.502 0.502 0.502 setrgbcolor
newpath
214 104 moveto
214 545 lineto
stroke
0.000 0.000 0.000 setrgbcolor
0.000 0.000 0.000 setrgbcolor
196 87 moveto
(8.0100) show
0.000 0.000 0.000 setrgbcolor
0.502 0.502 0.502 setrgbcolor
newpath
326 104 moveto
326 545 lineto
stroke
0.000 0.000 0.000 setrgbcolor
0.000 0.000 0.000 setrgbcolor
308 87 moveto
(8.0120) show
0.000 0.000 0.000 setrgbcolor
0.502 0.502 0.502 setrgbcolor
newpath
438 104 moveto
438 545 lineto
stroke
0.000 0.000 0.000 setrgbcolor
0.000 0.000 0.000 setrgbcolor
420 87 moveto
(8.0140) show
0.000 0.000 0.000 setrgbcolor
0.502 0.502 0.502 setrgbcolor
newpath
550 104 moveto
550 545 lineto
stroke
0.000 0.000 0.000 setrgbcolor
0.000 0.000 0.000 setrgbcolor
532 87 moveto
(8.0160) show
0.000 0.000 0.000 setrgbcolor
0.502 0.502 0.502 setrgbcolor
0.000 0.000 0.000 setrgbcolor
0.000 0.000 0.000 setrgbcolor
382 66 moveto
(ms) show
0.000 0.000 0.000 setrgbcolor
0.502 0.502 0.502 setrgbcolor
newpath
102 104 moveto
550 104 lineto
stroke
0.000 0.000 0.000 setrgbcolor
0.000 0.000 0.000 setrgbcolor
54 101 moveto
(-11.9118) show
0.000 0.000 0.000 setrgbcolor
0.502 0.502 0.502 setrgbcolor
newpath
102 167 moveto
550 167 lineto
stroke
0.000 0.000 0.000 setrgbcolor
0.000 0.000 0.000 setrgbcolor
54 164 moveto
(-11.9116) show
0.000 0.000 0.000 setrgbcolor
0.502 0.502 0.502 setrgbcolor
newpath
102 230 moveto
550 230 lineto
stroke
0.000 0.000 0.000 setrgbcolor
0.000 0.000 0.000 setrgbcolor
54 227 moveto
(-11.9114) show
0.000 0.000 0.000 setrgbcolor
0.502 0.502 0.502 setrgbcolor
newpath
102 293 moveto
550 293 lineto
stroke
0.000 0.000 0.000 setrgbcolor
0.000 0.000 0.000 setrgbcolor
54 290 moveto
(-11.9112) show
0.000 0.000 0.000 setrgbcolor
0.502 0.502 0.502 setrgbcolor
newpath
102 356 moveto
550 356 lineto
stroke
0.000 0.000 0.000 setrgbcolor
0.000 0.000 0.000 setrgbcolor
54 353 moveto
(-11.9110) show
0.000 0.000 0.000 setrgbcolor
0.502 0.502 0.502 setrgbcolor
newpath
102 419 moveto
550 419 lineto
stroke
0.000 0.000 0.000 setrgbcolor
0.000 0.000 0.000 setrgbcolor
54 416 moveto
(-11.9108) show
0.000 0.000 0.000 setrgbcolor
0.502 0.502 0.502 setrgbcolor
newpath
102 482 moveto
550 482 lineto
stroke
0.000 0.000 0.000 setrgbcolor
0.000 0.000 0.000 setrgbcolor
54 479 moveto
(-11.9106) show
0.000 0.000 0.000 setrgbcolor
0.502 0.502 0.502 setrgbcolor
newpath
102 545 moveto
550 545 lineto
stroke
0.000 0.000 0.000 setrgbcolor
0.000 0.000 0.000 setrgbcolor
54 542 moveto
(-11.9104) show
0.000 0.000 0.000 setrgbcolor
0.502 0.502 0.502 setrgbcolor
0.000 0.000 0.000 setrgbcolor
0.000 0.000 0.000 setrgbcolor
54 582 moveto
(V) show
0.000 0.000 0.000 setrgbcolor
0.502 0.502 0.502 setrgbcolor
1.000 0.000 0.000 setrgbcolor
newpath
272 586 moveto
294 586 lineto
stroke
0.000 0.000 0.000 setrgbcolor
0.000 0.000 0.000 setrgbcolor
300 582 moveto
(v(output)) show
0.000 0.000 0.000 setrgbcolor
1.000 0.000 0.000 setrgbcolor
newpath
104 179 moveto
109 161 lineto
115 146 lineto
120 133 lineto
126 122 lineto
132 115 lineto
137 111 lineto
143 110 lineto
148 112 lineto
154 117 lineto
160 126 lineto
165 137 lineto
171 151 lineto
176 168 lineto
182 186 lineto
188 207 lineto
193 230 lineto
199 253 lineto
204 278 lineto
210 303 lineto
216 329 lineto
221 354 lineto
227 378 lineto
232 402 lineto
238 423 lineto
244 444 lineto
249 462 lineto
255 477 lineto
260 490 lineto
266 500 lineto
272 507 lineto
277 511 lineto
283 512 lineto
288 510 lineto
294 504 lineto
300 496 lineto
305 484 lineto
311 470 lineto
316 454 lineto
322 435 lineto
328 414 lineto
333 392 lineto
339 368 lineto
344 343 lineto
350 318 lineto
356 293 lineto
361 268 lineto
367 244 lineto
372 221 lineto
378 199 lineto
384 179 lineto
389 161 lineto
395 146 lineto
400 133 lineto
406 122 lineto
412 115 lineto
417 111 lineto
423 110 lineto
428 112 lineto
434 117 lineto
440 126 lineto
445 137 lineto
451 151 lineto
456 168 lineto
462 186 lineto
468 207 lineto
473 230 lineto
479 253 lineto
484 278 lineto
490 303 lineto
496 329 lineto
501 354 lineto
507 378 lineto
512 401 lineto
518 423 lineto
524 443 lineto
529 461 lineto
535 477 lineto
540 490 lineto
546 500 lineto
550 506 lineto
stroke
showpage
%%EOF
