%!PS-Adobe-3.0 EPSF-3.0
%%Creator: nutmeg
%%BoundingBox: 54 54 612 612
1 1 scale
1.000 1.000 1.000 setrgbcolor
newpath
54 54 moveto 612 54 lineto
612 612 lineto 54 612 lineto
closepath fill
/Helvetica findfont 10 scalefont setfont

0.000 0.000 0.000 setrgbcolor
0.502 0.502 0.502 setrgbcolor
0.000 0.000 0.000 setrgbcolor
0.000 0.000 0.000 setrgbcolor
243 66 moveto
(time) show
0.000 0.000 0.000 setrgbcolor
0.502 0.502 0.502 setrgbcolor
newpath
90 104 moveto
90 544 lineto
stroke
0.000 0.000 0.000 setrgbcolor
0.000 0.000 0.000 setrgbcolor
72 87 moveto
(8.0080) show
0.000 0.000 0.000 setrgbcolor
0.502 0.502 0.502 setrgbcolor
newpath
149 104 moveto
149 544 lineto
stroke
0.000 0.000 0.000 setrgbcolor
0.000 0.000 0.000 setrgbcolor
131 87 moveto
(8.0090) show
0.000 0.000 0.000 setrgbcolor
0.502 0.502 0.502 setrgbcolor
newpath
208 104 moveto
208 544 lineto
stroke
0.000 0.000 0.000 setrgbcolor
0.000 0.000 0.000 setrgbcolor
190 87 moveto
(8.0100) show
0.000 0.000 0.000 setrgbcolor
0.502 0.502 0.502 setrgbcolor
newpath
267 104 moveto
267 544 lineto
stroke
0.000 0.000 0.000 setrgbcolor
0.000 0.000 0.000 setrgbcolor
249 87 moveto
(8.0110) show
0.000 0.000 0.000 setrgbcolor
0.502 0.502 0.502 setrgbcolor
newpath
326 104 moveto
326 544 lineto
stroke
0.000 0.000 0.000 setrgbcolor
0.000 0.000 0.000 setrgbcolor
308 87 moveto
(8.0120) show
0.000 0.000 0.000 setrgbcolor
0.502 0.502 0.502 setrgbcolor
newpath
385 104 moveto
385 544 lineto
stroke
0.000 0.000 0.000 setrgbcolor
0.000 0.000 0.000 setrgbcolor
367 87 moveto
(8.0130) show
0.000 0.000 0.000 setrgbcolor
0.502 0.502 0.502 setrgbcolor
newpath
444 104 moveto
444 544 lineto
stroke
0.000 0.000 0.000 setrgbcolor
0.000 0.000 0.000 setrgbcolor
426 87 moveto
(8.0140) show
0.000 0.000 0.000 setrgbcolor
0.502 0.502 0.502 setrgbcolor
newpath
503 104 moveto
503 544 lineto
stroke
0.000 0.000 0.000 setrgbcolor
0.000 0.000 0.000 setrgbcolor
485 87 moveto
(8.0150) show
0.000 0.000 0.000 setrgbcolor
0.502 0.502 0.502 setrgbcolor
newpath
562 104 moveto
562 544 lineto
stroke
0.000 0.000 0.000 setrgbcolor
0.000 0.000 0.000 setrgbcolor
544 87 moveto
(8.0160) show
0.000 0.000 0.000 setrgbcolor
0.502 0.502 0.502 setrgbcolor
0.000 0.000 0.000 setrgbcolor
0.000 0.000 0.000 setrgbcolor
382 66 moveto
(ms) show
0.000 0.000 0.000 setrgbcolor
0.502 0.502 0.502 setrgbcolor
newpath
90 104 moveto
562 104 lineto
stroke
0.000 0.000 0.000 setrgbcolor
0.000 0.000 0.000 setrgbcolor
54 101 moveto
(-450.0) show
0.000 0.000 0.000 setrgbcolor
0.502 0.502 0.502 setrgbcolor
newpath
90 148 moveto
562 148 lineto
stroke
0.000 0.000 0.000 setrgbcolor
0.000 0.000 0.000 setrgbcolor
54 145 moveto
(-400.0) show
0.000 0.000 0.000 setrgbcolor
0.502 0.502 0.502 setrgbcolor
newpath
90 192 moveto
562 192 lineto
stroke
0.000 0.000 0.000 setrgbcolor
0.000 0.000 0.000 setrgbcolor
54 189 moveto
(-350.0) show
0.000 0.000 0.000 setrgbcolor
0.502 0.502 0.502 setrgbcolor
newpath
90 236 moveto
562 236 lineto
stroke
0.000 0.000 0.000 setrgbcolor
0.000 0.000 0.000 setrgbcolor
54 233 moveto
(-300.0) show
0.000 0.000 0.000 setrgbcolor
0.502 0.502 0.502 setrgbcolor
newpath
90 280 moveto
562 280 lineto
stroke
0.000 0.000 0.000 setrgbcolor
0.000 0.000 0.000 setrgbcolor
54 277 moveto
(-250.0) show
0.000 0.000 0.000 setrgbcolor
0.502 0.502 0.502 setrgbcolor
newpath
90 324 moveto
562 324 lineto
stroke
0.000 0.000 0.000 setrgbcolor
0.000 0.000 0.000 setrgbcolor
54 321 moveto
(-200.0) show
0.000 0.000 0.000 setrgbcolor
0.502 0.502 0.502 setrgbcolor
newpath
90 368 moveto
562 368 lineto
stroke
0.000 0.000 0.000 setrgbcolor
0.000 0.000 0.000 setrgbcolor
54 365 moveto
(-150.0) show
0.000 0.000 0.000 setrgbcolor
0.502 0.502 0.502 setrgbcolor
newpath
90 412 moveto
562 412 lineto
stroke
0.000 0.000 0.000 setrgbcolor
0.000 0.000 0.000 setrgbcolor
54 409 moveto
(-100.0) show
0.000 0.000 0.000 setrgbcolor
0.502 0.502 0.502 setrgbcolor
newpath
90 456 moveto
562 456 lineto
stroke
0.000 0.000 0.000 setrgbcolor
0.000 0.000 0.000 setrgbcolor
60 453 moveto
(-50.0) show
0.000 0.000 0.000 setrgbcolor
0.502 0.502 0.502 setrgbcolor
0.000 0.000 0.000 setrgbcolor
newpath
90 500 moveto
562 500 lineto
stroke
0.502 0.502 0.502 setrgbcolor
0.000 0.000 0.000 setrgbcolor
0.000 0.000 0.000 setrgbcolor
72 497 moveto
(0.0) show
0.000 0.000 0.000 setrgbcolor
0.502 0.502 0.502 setrgbcolor
newpath
90 544 moveto
562 544 lineto
stroke
0.000 0.000 0.000 setrgbcolor
0.000 0.000 0.000 setrgbcolor
66 541 moveto
(50.0) show
0.000 0.000 0.000 setrgbcolor
0.502 0.502 0.502 setrgbcolor
0.000 0.000 0.000 setrgbcolor
0.000 0.000 0.000 setrgbcolor
54 582 moveto
(V) show
0.000 0.000 0.000 setrgbcolor
0.502 0.502 0.502 setrgbcolor
1.000 0.000 0.000 setrgbcolor
newpath
284 586 moveto
307 586 lineto
stroke
0.000 0.000 0.000 setrgbcolor
0.000 0.000 0.000 setrgbcolor
313 582 moveto
(v(diodebias)) show
0.000 0.000 0.000 setrgbcolor
1.000 0.000 0.000 setrgbcolor
newpath
92 148 moveto
98 148 lineto
103 148 lineto
109 148 lineto
115 148 lineto
121 148 lineto
127 148 lineto
133 148 lineto
139 148 lineto
145 148 lineto
151 148 lineto
157 148 lineto
162 148 lineto
168 148 lineto
174 148 lineto
180 148 lineto
186 148 lineto
192 148 lineto
198 148 lineto
204 148 lineto
210 148 lineto
216 148 lineto
221 148 lineto
227 148 lineto
233 148 lineto
239 148 lineto
245 148 lineto
251 148 lineto
257 148 lineto
263 148 lineto
269 148 lineto
275 148 lineto
280 148 lineto
286 148 lineto
292 148 lineto
298 148 lineto
304 148 lineto
310 148 lineto
316 148 lineto
322 148 lineto
328 148 lineto
334 148 lineto
339 148 lineto
345 148 lineto
351 148 lineto
357 148 lineto
363 148 lineto
369 148 lineto
375 148 lineto
381 148 lineto
387 148 lineto
393 148 lineto
398 148 lineto
404 148 lineto
410 148 lineto
416 148 lineto
422 148 lineto
428 148 lineto
434 148 lineto
440 148 lineto
446 148 lineto
452 148 lineto
457 148 lineto
463 148 lineto
469 148 lineto
475 148 lineto
481 148 lineto
487 148 lineto
493 148 lineto
499 148 lineto
505 148 lineto
511 148 lineto
516 148 lineto
522 148 lineto
528 148 lineto
534 148 lineto
540 148 lineto
546 148 lineto
552 148 lineto
558 148 lineto
562 148 lineto
stroke
0.000 0.000 1.000 setrgbcolor
newpath
90 586 moveto
113 586 lineto
stroke
0.000 0.000 0.000 setrgbcolor
0.000 0.000 0.000 setrgbcolor
119 582 moveto
(v(inputa)) show
0.000 0.000 0.000 setrgbcolor
0.000 0.000 1.000 setrgbcolor
newpath
92 500 moveto
98 500 lineto
103 500 lineto
109 500 lineto
115 500 lineto
121 500 lineto
127 500 lineto
133 500 lineto
139 500 lineto
145 500 lineto
151 500 lineto
157 500 lineto
162 500 lineto
168 500 lineto
174 500 lineto
180 500 lineto
186 500 lineto
192 500 lineto
198 500 lineto
204 500 lineto
210 500 lineto
216 500 lineto
221 500 lineto
227 500 lineto
233 500 lineto
239 500 lineto
245 500 lineto
251 500 lineto
257 500 lineto
263 500 lineto
269 500 lineto
275 500 lineto
280 500 lineto
286 500 lineto
292 500 lineto
298 500 lineto
304 500 lineto
310 500 lineto
316 500 lineto
322 500 lineto
328 500 lineto
334 500 lineto
339 500 lineto
345 500 lineto
351 500 lineto
357 500 lineto
363 500 lineto
369 500 lineto
375 500 lineto
381 500 lineto
387 500 lineto
393 500 lineto
398 500 lineto
404 500 lineto
410 500 lineto
416 500 lineto
422 500 lineto
428 500 lineto
434 500 lineto
440 500 lineto
446 500 lineto
452 500 lineto
457 500 lineto
463 500 lineto
469 500 lineto
475 500 lineto
481 500 lineto
487 500 lineto
493 500 lineto
499 500 lineto
505 500 lineto
511 500 lineto
516 500 lineto
522 500 lineto
528 500 lineto
534 500 lineto
540 500 lineto
546 500 lineto
552 500 lineto
558 500 lineto
562 500 lineto
stroke
0.000 1.000 0.000 setrgbcolor
newpath
284 572 moveto
307 572 lineto
stroke
0.000 0.000 0.000 setrgbcolor
0.000 0.000 0.000 setrgbcolor
313 568 moveto
(v(inputb)) show
0.000 0.000 0.000 setrgbcolor
0.000 1.000 0.000 setrgbcolor
newpath
92 500 moveto
98 500 lineto
103 500 lineto
109 500 lineto
115 500 lineto
121 500 lineto
127 500 lineto
133 500 lineto
139 500 lineto
145 500 lineto
151 500 lineto
157 500 lineto
162 500 lineto
168 500 lineto
174 500 lineto
180 500 lineto
186 500 lineto
192 500 lineto
198 500 lineto
204 500 lineto
210 500 lineto
216 500 lineto
221 500 lineto
227 500 lineto
233 500 lineto
239 500 lineto
245 500 lineto
251 500 lineto
257 500 lineto
263 500 lineto
269 500 lineto
275 500 lineto
280 500 lineto
286 500 lineto
292 500 lineto
298 500 lineto
304 500 lineto
310 500 lineto
316 500 lineto
322 500 lineto
328 500 lineto
334 500 lineto
339 500 lineto
345 500 lineto
351 500 lineto
357 500 lineto
363 500 lineto
369 500 lineto
375 500 lineto
381 500 lineto
387 500 lineto
393 500 lineto
398 500 lineto
404 500 lineto
410 500 lineto
416 500 lineto
422 500 lineto
428 500 lineto
434 500 lineto
440 500 lineto
446 500 lineto
452 500 lineto
457 500 lineto
463 500 lineto
469 500 lineto
475 500 lineto
481 500 lineto
487 500 lineto
493 500 lineto
499 500 lineto
505 500 lineto
511 500 lineto
516 500 lineto
522 500 lineto
528 500 lineto
534 500 lineto
540 500 lineto
546 500 lineto
552 500 lineto
558 500 lineto
562 500 lineto
stroke
showpage
%%EOF
