* gnetlist -o vca.cir -g spice-sdb vca.sch
*********************************************************
* Spice file generated by gnetlist                      *
* spice-sdb version 4.28.2007 by SDB --                 *
* provides advanced spice netlisting capability.        *
* Documentation at http://www.brorson.com/gEDA/SPICE/   *
*********************************************************
*vvvvvvvv  Included SPICE model from ca3046.mdl vvvvvvvv
* CA3046 NPN model
* created using Parts release 6.3a on 02/03/97 at 15:57
* Parts is a MicroSim product.
.MODEL CA3046 NPN
+ IS=10.000E-15
+ BF=145.76
+ VAF=100
+ IKF=46.747E-3
+ ISE=114.23E-15
+ NE=1.4830
+ BR=.1001
+ VAR=100
+ IKR=10.010E-3
+ ISC=10.000E-15
+ RC=10
+ CJE=1.0260E-12
+ MJE=.33333
+ CJC=991.79E-15
+ MJC=.33333
+ TF=277.09E-12
+ XTF=309.38
+ VTF=16.364
+ ITF=1.7597
+ TR=10.000E-9
*$
*^^^^^^^^  End of included SPICE model from ca3046.mdl ^^^^^^^^
*
*vvvvvvvv  Included SPICE model from 2n390x.lib vvvvvvvv
*      Model Generated by MODPEX     *
**************************************
* Model generated on Apr 22, 96
.MODEL 2N3904 npn
+IS=6.9716e-14 BF=545.416 NF=1.09328 VAF=10
+IKF=0.0228393 ISE=5.71808e-12 NE=1.88204 BR=4.70256
+NR=1.3912 VAR=2.31769 IKR=0.074093 ISC=5.71808e-12
+NC=1.36259 RB=1.733 IRB=1.12054 RBM=0.876202
+RE=0.356192 RC=1.78096 XTB=0.1 XTI=1
+EG=1.05 CJE=4.47982e-12 VJE=0.4 MJE=0.240345
+TF=4e-10 XTF=1.5 VTF=1 ITF=1
+CJC=3.76637e-12 VJC=0.4 MJC=0.241382 XCJC=0.8
+FC=0.533333 CJS=0 VJS=0.75 MJS=0.5
+TR=3.77901e-05 PTF=0 KF=0 AF=1
**************************************
*      Model Generated by MODPEX     *
.MODEL 2N3906 pnp
+IS=1.14615e-14 BF=535.453 NF=1.06473 VAF=10
+IKF=0.0234918 ISE=1.33613e-13 NE=1.62939 BR=4.66099
+NR=1.19618 VAR=2.77165 IKR=0.0740931 ISC=1.33613e-13
+NC=1.22182 RB=0.1 IRB=1.05964 RBM=0.1
+RE=0.0001 RC=1.39183 XTB=0.1 XTI=1
+EG=1.05 CJE=6.03788e-12 VJE=0.4 MJE=0.272764
+TF=4.8381e-10 XTF=1.5 VTF=1 ITF=1
+CJC=6.18444e-12 VJC=0.4 MJC=0.234098 XCJC=0.8
+FC=0.5415 CJS=0 VJS=0.75 MJS=0.5
+TR=2.42096e-06 PTF=0 KF=0 AF=1
*^^^^^^^^  End of included SPICE model from 2n390x.lib ^^^^^^^^
*
*vvvvvvvv  Included SPICE model from 1N4004RL.SP2 vvvvvvvv
**************************************
*      Model Generated by MODPEX     *
*Copyright(c) Symmetry Design Systems*
*         All Rights Reserved        *
*    UNPUBLISHED LICENSED SOFTWARE   *
*   Contains Proprietary Information *
*      Which is The Property of      *
*     SYMMETRY OR ITS LICENSORS      *
*    Modeling services provided by   *
* Interface Technologies www.i-t.com *
**************************************
.MODEL D1n4004rl d
+IS=5.31656e-08 RS=0.0392384 N=2 EG=0.6
+XTI=0.05 BV=400 IBV=5e-08 CJO=1e-11
+VJ=0.7 M=0.5 FC=0.5 TT=1e-09
+KF=0 AF=1
* Model generated on October 12, 2003
* Model format: SPICE2
*^^^^^^^^  End of included SPICE model from 1N4004RL.SP2 ^^^^^^^^
*
*==============  Begin SPICE netlist of main design ============
D5 8 Vee D1n4004rl 
Vsin4 inputb 0 dc 0 sin(0 25m 200k 0 0)
Vsin3 0 inputa dc 0 sin(0 25m 200k 0 0)
I2 amp 0 DC 50mA
I1 diodebias 0 DC 2mA
RL buffer_out 0 5k  
V2 0 Vee DC 12V
V1 Vcc 0 DC 12V
Q13 Vcc 2 buffer_out CA3046 
Q12 Vcc buffer_in 2 CA3046 
Q8 6 8 Vee CA3046 
Q9 output 6 8 CA3046 
D6 Vcc 7 D1n4004rl 
Q11 output 4 7 2N3906 
Q10 4 7 Vcc 2N3906 
D4 Vcc 5 D1n4004rl 
Q7 6 3 5 2N3906 
Q6 3 5 Vcc 2N3906 
D3 diodebias inputb D1n4004rl 
D2 diodebias inputa D1n4004rl 
Q5 4 inputb puntoq CA3046 
Q4 3 inputa puntoq CA3046 
Q2 puntoq amp 1 CA3046 
D1 1 Vee D1n4004rl 
Q3 2 1 Vee CA3046 
Q1 amp 1 Vee CA3046 
.end
